x  y  phi
0.012500 0.013322 0.001714
0.017223 0.046617 0.003127
0.015830 0.076368 0.004154
0.012794 0.110493 0.005171
0.016746 0.143342 0.007009
0.014897 0.171996 0.007487
0.017694 0.200216 0.008324
0.012834 0.234561 0.006981
0.016695 0.262548 0.006926
0.014896 0.294168 0.005889
0.015109 0.329292 0.006099
0.016181 0.362065 0.008475
0.017789 0.390793 0.013559
0.013075 0.422837 0.022389
0.015100 0.454382 0.041344
0.018190 0.486014 0.072655
0.014140 0.512797 0.099366
0.017101 0.545801 0.153778
0.016454 0.579728 0.210274
0.018694 0.608533 0.261041
0.014044 0.643641 0.287216
0.017017 0.673458 0.321987
0.016572 0.700454 0.329448
0.016448 0.736779 0.318694
0.014204 0.765228 0.285732
0.017291 0.796736 0.255046
0.013986 0.826718 0.196588
0.014745 0.857291 0.145188
0.015541 0.893110 0.091302
0.018183 0.919129 0.064412
0.018154 0.953153 0.037808
0.015727 0.983244 0.021866
0.049917 0.015587 0.004692
0.045413 0.044317 0.006109
0.049674 0.075461 0.009457
0.046879 0.108651 0.011769
0.045482 0.143211 0.014008
0.047061 0.171653 0.016232
0.049631 0.200313 0.018049
0.048509 0.236064 0.016560
0.048924 0.263284 0.014942
0.043849 0.298053 0.011321
0.049177 0.328935 0.012359
0.048351 0.360784 0.014832
0.049997 0.393054 0.023377
0.045207 0.420665 0.034999
0.045944 0.453208 0.063339
0.047444 0.486537 0.108972
0.046326 0.517759 0.161012
0.045433 0.546346 0.218874
0.047108 0.577924 0.296092
0.045545 0.607365 0.350218
0.044711 0.641073 0.398203
0.048765 0.668957 0.443502
0.047090 0.703116 0.451533
0.049721 0.735927 0.452317
0.047216 0.768067 0.406724
0.047655 0.799013 0.355416
0.044749 0.826330 0.286573
0.048217 0.857065 0.224329
0.044319 0.889216 0.143329
0.043769 0.921339 0.088932
0.043918 0.954436 0.053765
0.049612 0.982749 0.037996
0.076131 0.014485 0.008999
0.080544 0.047825 0.015326
0.075940 0.079258 0.018897
0.077411 0.108673 0.025243
0.078123 0.138422 0.031221
0.078670 0.174035 0.036260
0.078688 0.205971 0.036854
0.078476 0.232176 0.034717
0.081146 0.265055 0.032337
0.075886 0.297281 0.023985
0.076576 0.328053 0.022144
0.077900 0.362257 0.025650
0.075788 0.388748 0.033124
0.076995 0.422683 0.058642
0.075792 0.454070 0.098994
0.078885 0.486269 0.166945
0.076549 0.515478 0.232511
0.077433 0.545020 0.320443
0.075177 0.580635 0.415505
0.077666 0.607138 0.508969
0.080922 0.640064 0.582813
0.075820 0.674285 0.587778
0.075576 0.701014 0.594941
0.075444 0.733533 0.586472
0.076582 0.763344 0.563507
0.079895 0.796596 0.520748
0.077185 0.827827 0.412343
0.080056 0.862073 0.316966
0.079073 0.888845 0.230113
0.079247 0.924431 0.140462
0.076563 0.955380 0.085119
0.077945 0.984412 0.056565
0.110002 0.017610 0.021810
0.110974 0.046639 0.031461
0.112196 0.078955 0.044907
0.108996 0.111404 0.055115
0.110556 0.141889 0.069464
0.112420 0.174715 0.081047
0.111570 0.201808 0.080528
0.109609 0.234465 0.072307
0.106896 0.265088 0.059847
0.109854 0.299229 0.052658
0.109000 0.329561 0.044685
0.111683 0.360723 0.047340
0.111255 0.391916 0.060756
0.110886 0.418869 0.089874
0.111788 0.453281 0.158662
0.109146 0.481657 0.231842
0.110709 0.515556 0.355888
0.110423 0.548013 0.495804
0.107497 0.580729 0.590441
0.111662 0.611813 0.683257
0.109650 0.638370 0.715617
0.109065 0.674934 0.742041
0.107597 0.702788 0.741762
0.108223 0.734467 0.736746
0.111759 0.765248 0.724651
0.109172 0.798792 0.654603
0.108532 0.826322 0.576892
0.112494 0.857210 0.482558
0.110191 0.891352 0.321922
0.106254 0.918755 0.216265
0.111083 0.954546 0.138909
0.108245 0.983861 0.088252
0.141766 0.016754 0.044461
0.138783 0.048978 0.059140
0.141931 0.080179 0.085836
0.138091 0.106761 0.100043
0.142275 0.141435 0.136370
0.138837 0.170085 0.141045
0.138007 0.202430 0.142885
0.143451 0.237172 0.149451
0.139937 0.264183 0.124160
0.141826 0.295525 0.107675
0.142355 0.329899 0.088315
0.140140 0.358013 0.078002
0.138712 0.387571 0.086565
0.138699 0.424895 0.138516
0.139025 0.455123 0.219037
0.138353 0.483738 0.323275
0.141256 0.513606 0.479329
0.142677 0.544736 0.619497
0.143675 0.576607 0.729615
0.138960 0.606885 0.779800
0.138871 0.641467 0.825291
0.141850 0.673717 0.855717
0.141852 0.704706 0.860934
0.141685 0.735209 0.852176
0.137853 0.766239 0.816408
0.138919 0.795742 0.775092
0.141874 0.825734 0.711635
0.142266 0.859538 0.590207
0.140962 0.891175 0.431128
0.139560 0.923144 0.294288
0.138394 0.951011 0.203171
0.140533 0.986626 0.129249
0.173833 0.015980 0.085027
0.173369 0.045725 0.113839
0.169596 0.078303 0.145675
0.170692 0.109926 0.194718
0.171988 0.140193 0.238770
0.170368 0.171064 0.258652
0.171206 0.202793 0.269944
0.171724 0.233674 0.256578
0.170496 0.262989 0.223321
0.171061 0.295337 0.189106
0.172949 0.329226 0.156975
0.171962 0.360804 0.132499
0.173255 0.393405 0.142969
0.171629 0.424626 0.192074
0.170760 0.452878 0.280083
0.171982 0.485383 0.427873
0.171261 0.516285 0.589055
0.174916 0.544690 0.717495
0.172938 0.577149 0.811246
0.172136 0.609518 0.870136
0.173933 0.637593 0.904069
0.170464 0.672769 0.917814
0.172163 0.705737 0.924184
0.170416 0.737313 0.912871
0.170292 0.767775 0.892057
0.173088 0.796598 0.863107
0.173857 0.825138 0.807445
0.169755 0.860668 0.678704
0.173174 0.890229 0.561447
0.172390 0.923448 0.392163
0.174947 0.954348 0.281603
0.170497 0.985962 0.182779
0.201070 0.012527 0.136369
0.203098 0.044249 0.192934
0.201019 0.080646 0.261074
0.204894 0.110917 0.346651
0.202728 0.137540 0.384758
0.203655 0.171990 0.449887
0.200418 0.203400 0.439434
0.202436 0.232599 0.414575
0.202411 0.266418 0.367398
0.204119 0.298183 0.317357
0.203367 0.326752 0.258278
0.205100 0.358574 0.214982
0.204288 0.389439 0.199751
0.200058 0.419399 0.229631
0.203256 0.454849 0.355569
0.201379 0.481595 0.494815
0.200441 0.513502 0.649045
0.204524 0.545606 0.782121
0.200316 0.577986 0.862259
0.202857 0.609500 0.916982
0.202791 0.638439 0.942994
0.201787 0.673961 0.957147
0.204348 0.703611 0.961817
0.204257 0.733320 0.956555
0.200359 0.768668 0.934687
0.203390 0.793760 0.915054
0.205351 0.825183 0.868654
0.202360 0.859310 0.768577
0.203601 0.892118 0.638224
0.204246 0.922102 0.498879
0.200222 0.950766 0.350656
0.206083 0.982427 0.252953
0.233446 0.016338 0.249306
0.235048 0.044537 0.323597
0.234705 0.080963 0.424285
0.233481 0.111488 0.511985
0.237339 0.139119 0.589227
0.232822 0.171402 0.613058
0.236332 0.205612 0.641900
0.232779 0.236004 0.597341
0.235593 0.265324 0.562719
0.232898 0.297909 0.469492
0.231979 0.326310 0.372820
0.231960 0.359669 0.295704
0.231288 0.388600 0.262958
0.234996 0.421449 0.300278
0.231766 0.454296 0.404130
0.233596 0.486476 0.580429
0.232023 0.518583 0.727400
0.231435 0.544252 0.817593
0.234339 0.579809 0.905191
0.237088 0.607813 0.945061
0.233498 0.642307 0.967365
0.234375 0.673433 0.977372
0.235449 0.704260 0.979855
0.235980 0.731477 0.976862
0.232691 0.763885 0.963553
0.234766 0.797829 0.939280
0.235104 0.827322 0.899053
0.232655 0.857711 0.824045
0.235331 0.888537 0.715771
0.235901 0.919748 0.572683
0.231548 0.954137 0.391036
0.232031 0.987182 0.268973
0.265526 0.016382 0.396551
0.268213 0.043862 0.487336
0.266210 0.079512 0.595399
0.265604 0.106586 0.659732
0.265260 0.140745 0.724634
0.267325 0.169158 0.769965
0.265267 0.206107 0.772356
0.265423 0.233307 0.753177
0.265287 0.267145 0.699474
0.263783 0.294821 0.625522
0.264828 0.330873 0.517817
0.268530 0.357843 0.434678
0.262940 0.388274 0.352527
0.265790 0.419751 0.360782
0.265736 0.450657 0.441889
0.267760 0.483554 0.608599
0.265149 0.514545 0.747546
0.266960 0.547355 0.858809
0.267949 0.579739 0.925891
0.267729 0.610624 0.960466
0.264932 0.643345 0.978337
0.266285 0.671013 0.985663
0.265872 0.702844 0.987741
0.265011 0.732753 0.984946
0.263019 0.765135 0.974769
0.265452 0.795561 0.955927
0.263156 0.826352 0.918261
0.267513 0.859546 0.848506
0.266680 0.892898 0.731373
0.264023 0.923197 0.588896
0.264148 0.952393 0.433238
0.263006 0.984124 0.305567
0.295205 0.017471 0.557290
0.296821 0.043770 0.655771
0.295413 0.079154 0.725263
0.296407 0.107418 0.785496
0.299772 0.138338 0.842346
0.298724 0.174663 0.870010
0.294820 0.203788 0.863436
0.294149 0.233422 0.845185
0.295578 0.265685 0.808212
0.298911 0.298965 0.746828
0.298290 0.327059 0.661044
0.298763 0.360199 0.550915
0.294033 0.387759 0.445594
0.294708 0.423544 0.422242
0.294136 0.453246 0.488100
0.299557 0.482628 0.628100
0.295029 0.513056 0.757668
0.298123 0.548165 0.871456
0.296841 0.576636 0.927300
0.298197 0.608615 0.962554
0.295004 0.638954 0.979715
0.296476 0.671684 0.988076
0.299132 0.706108 0.989957
0.296528 0.731464 0.987838
0.297024 0.762698 0.979791
0.298457 0.797447 0.958972
0.298893 0.827060 0.923968
0.295200 0.859603 0.855618
0.296441 0.890022 0.753319
0.299921 0.924793 0.592739
0.299066 0.955422 0.432066
0.295698 0.982177 0.325379
0.331235 0.016497 0.794470
0.327925 0.049574 0.802314
0.329317 0.080096 0.844311
0.328385 0.109830 0.878170
0.325995 0.143408 0.905252
0.330133 0.169721 0.925433
0.325257 0.202148 0.921574
0.325688 0.231853 0.910909
0.328242 0.262640 0.885989
0.328509 0.299105 0.820840
0.328231 0.329216 0.738662
0.329607 0.360615 0.638278
0.325142 0.388700 0.523733
0.329194 0.420912 0.478315
0.325414 0.450879 0.509959
0.330757 0.482635 0.637051
0.327376 0.516163 0.769919
0.326046 0.543915 0.857676
0.329320 0.579765 0.928047
0.329461 0.606733 0.957455
0.328686 0.643284 0.978299
0.330811 0.671440 0.985011
0.328162 0.705195 0.987588
0.330745 0.735010 0.984132
0.329524 0.765746 0.974933
0.328068 0.794759 0.956892
0.331101 0.828590 0.914031
0.326708 0.859571 0.848206
0.329366 0.891669 0.736457
0.325609 0.922180 0.597614
0.328817 0.954175 0.427883
0.328095 0.984822 0.307303
0.359931 0.015258 0.884663
0.357195 0.046889 0.882777
0.360821 0.075198 0.905322
0.356573 0.109513 0.924328
0.358254 0.137719 0.943015
0.357782 0.169420 0.953918
0.358644 0.203449 0.956106
0.359982 0.235069 0.946778
0.362095 0.267325 0.921498
0.359457 0.296792 0.873308
0.360313 0.329356 0.797045
0.358797 0.359293 0.701068
0.359249 0.391940 0.589382
0.359589 0.420479 0.509940
0.360035 0.451751 0.521580
0.360646 0.484566 0.630129
0.362114 0.513971 0.735854
0.358834 0.547484 0.845229
0.361144 0.580752 0.912334
0.360509 0.611382 0.948091
0.359546 0.638939 0.966074
0.357148 0.674372 0.977913
0.357821 0.704072 0.979738
0.356280 0.737100 0.976257
0.357971 0.767867 0.963658
0.357993 0.799703 0.938150
0.359418 0.825768 0.900022
0.358853 0.860640 0.818690
0.358978 0.888173 0.721421
0.361039 0.919374 0.575502
0.359008 0.952154 0.406717
0.358107 0.985985 0.277348
0.389616 0.014567 0.918331
0.387848 0.047332 0.918073
0.390533 0.076266 0.930746
0.388215 0.112340 0.949300
0.392904 0.140574 0.962255
0.389796 0.173781 0.969206
0.388514 0.200997 0.969031
0.387861 0.232183 0.960251
0.390426 0.264879 0.937782
0.393023 0.296401 0.895717
0.390077 0.329071 0.822905
0.389427 0.356626 0.738777
0.392590 0.393110 0.604322
0.393247 0.424383 0.505236
0.392313 0.451067 0.498747
0.391078 0.481446 0.577980
0.392520 0.515764 0.692533
0.392885 0.545482 0.790975
0.392934 0.578668 0.871878
0.389932 0.611324 0.922021
0.390785 0.643374 0.945582
0.390125 0.672374 0.957255
0.392182 0.705505 0.958647
0.389613 0.732435 0.956684
0.392145 0.766993 0.937812
0.392995 0.794205 0.910536
0.391938 0.830494 0.848371
0.389746 0.856812 0.780723
0.388506 0.890105 0.655995
0.388103 0.922967 0.503131
0.391016 0.955082 0.338589
0.392989 0.986059 0.229868
0.422720 0.018103 0.894078
0.424240 0.046790 0.900114
0.419457 0.077359 0.923829
0.421141 0.110547 0.944507
0.419511 0.137980 0.958901
0.419646 0.171735 0.967649
0.423179 0.201488 0.966608
0.421194 0.237349 0.955557
0.422680 0.266757 0.932670
0.424429 0.296015 0.891723
0.424120 0.329964 0.814701
0.421430 0.356709 0.730911
0.421866 0.390524 0.597375
0.421567 0.421873 0.480746
0.423380 0.455830 0.450721
0.420626 0.482164 0.502874
0.419438 0.513002 0.618206
0.424828 0.546301 0.719324
0.420240 0.581020 0.823913
0.423959 0.607488 0.860599
0.419559 0.638727 0.903286
0.420869 0.672348 0.919833
0.421502 0.703660 0.923438
0.421455 0.733551 0.916938
0.421139 0.766251 0.897018
0.421434 0.794680 0.861755
0.422939 0.831221 0.777392
0.423113 0.858767 0.684661
0.424058 0.892622 0.535042
0.423709 0.921089 0.394133
0.418810 0.952999 0.284282
0.422744 0.985291 0.182777
0.454031 0.017494 0.815157
0.452359 0.045985 0.843989
0.452434 0.077089 0.878680
0.454335 0.107156 0.907655
0.451822 0.141668 0.937342
0.455340 0.170717 0.944981
0.450901 0.203764 0.950133
0.450035 0.237005 0.938580
0.452387 0.265728 0.912318
0.452153 0.295401 0.868471
0.451819 0.330210 0.782856
0.450777 0.360216 0.677789
0.450304 0.390363 0.550256
0.452355 0.419724 0.422597
0.454724 0.454162 0.369073
0.450072 0.486218 0.426550
0.453506 0.514304 0.510852
0.452597 0.545754 0.622577
0.453216 0.579495 0.719948
0.455263 0.607699 0.770785
0.452906 0.639833 0.822456
0.450313 0.669212 0.853229
0.451265 0.703539 0.859125
0.455197 0.733891 0.838980
0.455247 0.764332 0.814592
0.451132 0.795985 0.779860
0.455838 0.828684 0.678853
0.452307 0.859144 0.580845
0.453924 0.893403 0.414492
0.452536 0.919066 0.317102
0.452780 0.953725 0.205331
0.454677 0.986651 0.127593
0.482069 0.013154 0.640039
0.485408 0.048959 0.743478
0.484883 0.079116 0.802324
0.487388 0.106368 0.840528
0.487009 0.138717 0.879830
0.487298 0.172019 0.899448
0.482992 0.204499 0.909126
0.484940 0.236482 0.890819
0.486467 0.266624 0.856307
0.485815 0.297769 0.800935
0.483435 0.328343 0.719535
0.485401 0.358271 0.595555
0.486682 0.390265 0.430923
0.486987 0.420479 0.322288
0.487198 0.450733 0.274781
0.483850 0.486477 0.312029
0.487266 0.514581 0.364087
0.484539 0.547100 0.486570
0.486363 0.580812 0.578287
0.485393 0.607770 0.644710
0.487134 0.641230 0.686525
0.482038 0.670294 0.735903
0.486792 0.701226 0.724761
0.482268 0.736475 0.736813
0.485015 0.766395 0.698119
0.486492 0.797948 0.637220
0.483697 0.830446 0.559246
0.485421 0.856973 0.458344
0.481250 0.891725 0.329276
0.485180 0.921591 0.219537
0.484840 0.950202 0.148872
0.483446 0.986594 0.088550
0.514818 0.016634 0.508206
0.516103 0.044125 0.608695
0.517153 0.076747 0.685538
0.515266 0.107353 0.760008
0.513074 0.143108 0.818704
0.518703 0.172463 0.821779
0.512706 0.204318 0.841630
0.515545 0.234808 0.816796
0.518098 0.265216 0.771373
0.516804 0.295020 0.712897
0.515511 0.326703 0.617447
0.518419 0.357777 0.481979
0.518458 0.390481 0.331894
0.513294 0.424759 0.242768
0.517857 0.451359 0.197203
0.512544 0.486140 0.222785
0.512815 0.518500 0.277823
0.516509 0.547334 0.330548
0.513357 0.575807 0.418611
0.517654 0.609387 0.484407
0.516599 0.640657 0.531125
0.515790 0.669490 0.557438
0.518144 0.704181 0.554594
0.514235 0.733667 0.572589
0.514947 0.767694 0.543717
0.514019 0.794522 0.506850
0.517052 0.829050 0.389642
0.513758 0.861554 0.311495
0.512641 0.888160 0.238321
0.513675 0.921006 0.152813
0.517373 0.954495 0.088272
0.516665 0.984881 0.055745
0.545945 0.013482 0.358738
0.545576 0.044807 0.453310
0.545148 0.079196 0.569084
0.546280 0.111791 0.644156
0.547371 0.139637 0.685832
0.546483 0.173123 0.716629
0.548964 0.204950 0.707981
0.549057 0.233014 0.692184
0.545404 0.263562 0.667039
0.547085 0.294207 0.587084
0.549992 0.329689 0.461100
0.544514 0.357279 0.371710
0.546407 0.392333 0.245122
0.545085 0.421462 0.176841
0.543957 0.455808 0.140161
0.544413 0.482914 0.141024
0.546763 0.517455 0.168550
0.545360 0.545087 0.213810
0.545515 0.577379 0.272078
0.545051 0.612053 0.333855
0.548525 0.641354 0.346565
0.547349 0.670977 0.366425
0.549424 0.701237 0.359004
0.544463 0.736195 0.379909
0.548114 0.762614 0.343720
0.548425 0.794466 0.303427
0.549344 0.829091 0.238268
0.545912 0.858640 0.196442
0.545094 0.889571 0.141751
0.543861 0.924465 0.089190
0.548659 0.952459 0.053596
0.548312 0.986447 0.031663
0.580486 0.013310 0.217948
0.577146 0.049638 0.317415
0.577264 0.077200 0.387952
0.575504 0.109824 0.494532
0.579852 0.142776 0.525562
0.578083 0.173858 0.558316
0.579017 0.202721 0.556467
0.577202 0.233432 0.548816
0.576760 0.268244 0.497459
0.578913 0.298404 0.400871
0.575985 0.329853 0.331530
0.576575 0.360075 0.245888
0.580341 0.389466 0.162279
0.578803 0.419537 0.113189
0.577335 0.450833 0.086279
0.576637 0.482038 0.081955
0.576268 0.517191 0.099656
0.575443 0.546618 0.126456
0.581020 0.576467 0.141727
0.576234 0.610525 0.194852
0.575508 0.642839 0.223155
0.575954 0.669501 0.229744
0.580057 0.705901 0.212653
0.575285 0.731627 0.227215
0.580186 0.763382 0.192213
0.580007 0.795172 0.167380
0.577495 0.828745 0.140472
0.579095 0.856586 0.106523
0.581165 0.892577 0.067209
0.577585 0.918949 0.050234
0.575675 0.956090 0.030147
0.580419 0.985444 0.017372
0.611465 0.013989 0.127282
0.610731 0.047436 0.180682
0.607641 0.076424 0.244420
0.606260 0.109049 0.314334
0.608811 0.143331 0.349625
0.606390 0.171959 0.383180
0.608603 0.205372 0.371808
0.611212 0.235059 0.337556
0.608324 0.266400 0.313514
0.610337 0.297777 0.252622
0.607869 0.325163 0.213377
0.612419 0.357548 0.141889
0.610265 0.391002 0.096980
0.608606 0.419504 0.068962
0.609057 0.450861 0.048901
0.609911 0.484641 0.042476
0.609273 0.518041 0.050390
0.606760 0.546016 0.065669
0.606880 0.576870 0.081751
0.611510 0.611956 0.091593
0.611425 0.643564 0.104756
0.611333 0.673737 0.110216
0.611499 0.702805 0.109900
0.610263 0.735587 0.109258
0.611348 0.765426 0.098659
0.607460 0.796260 0.093296
0.612067 0.827920 0.068065
0.608615 0.859485 0.055030
0.607673 0.893120 0.037598
0.612412 0.919606 0.023480
0.609116 0.954307 0.015178
0.607994 0.983808 0.009916
0.642125 0.012695 0.068744
0.639400 0.044954 0.101519
0.642582 0.076718 0.124732
0.641986 0.108804 0.159778
0.642407 0.142014 0.187811
0.641107 0.172706 0.207832
0.642491 0.200002 0.203411
0.641424 0.233415 0.195475
0.640449 0.265576 0.175812
0.640810 0.295741 0.146224
0.642862 0.325863 0.110161
0.639995 0.358668 0.082439
0.642790 0.387851 0.053981
0.640355 0.423535 0.035393
0.639328 0.456012 0.025169
0.643750 0.487494 0.019882
0.642135 0.514686 0.022623
0.642479 0.544994 0.027751
0.641255 0.578393 0.036342
0.639073 0.607510 0.045752
0.641098 0.640711 0.050415
0.642173 0.672550 0.052569
0.643685 0.704990 0.051237
0.640967 0.732167 0.053495
0.638169 0.765774 0.052893
0.639039 0.797323 0.044809
0.639590 0.829242 0.035374
0.637934 0.861529 0.027197
0.642977 0.889575 0.017242
0.638409 0.923400 0.012153
0.641637 0.952517 0.007328
0.641156 0.984722 0.004496
0.671838 0.016341 0.037735
0.674530 0.047587 0.048489
0.670352 0.075248 0.067220
0.672629 0.108397 0.081621
0.668901 0.138571 0.104846
0.672567 0.171399 0.106242
0.672303 0.204565 0.108031
0.671087 0.233535 0.105036
0.671102 0.263041 0.093674
0.672394 0.296364 0.074708
0.669443 0.327033 0.062055
0.673032 0.359775 0.040120
0.674199 0.390824 0.026110
0.674841 0.419127 0.017391
0.671721 0.450688 0.012649
0.674951 0.484684 0.009497
0.673117 0.513295 0.010360
0.671719 0.544121 0.012855
0.671532 0.580737 0.016728
0.671497 0.611616 0.020180
0.674982 0.640933 0.020894
0.669527 0.674040 0.026291
0.669939 0.704152 0.026503
0.672852 0.737332 0.023637
0.671610 0.763496 0.022697
0.669620 0.795521 0.020526
0.674831 0.828737 0.014018
0.674076 0.856643 0.011091
0.674535 0.893434 0.007172
0.671667 0.920514 0.005427
0.671627 0.952693 0.003441
0.674163 0.982491 0.002021
0.702405 0.017245 0.018369
0.705089 0.047955 0.023551
0.704510 0.079271 0.031060
0.701962 0.107303 0.040657
0.704300 0.143256 0.046662
0.701036 0.168774 0.054513
0.701102 0.201113 0.055675
0.701238 0.235427 0.052035
0.704215 0.265734 0.042518
0.702021 0.296669 0.037059
0.702005 0.325585 0.029226
0.705440 0.359032 0.018684
0.700924 0.391575 0.013747
0.705887 0.424265 0.007783
0.704131 0.451274 0.005833
0.701065 0.481350 0.005075
0.701034 0.513182 0.005053
0.702257 0.547257 0.005704
0.706024 0.576534 0.006192
0.700149 0.606438 0.008830
0.705539 0.643040 0.008876
0.705708 0.672171 0.009551
0.701079 0.703044 0.011265
0.705090 0.737104 0.009623
0.703644 0.765931 0.009140
0.702948 0.798458 0.007832
0.702077 0.826078 0.006598
0.703206 0.858628 0.004770
0.705176 0.893544 0.003045
0.700030 0.920634 0.002507
0.702841 0.955565 0.001434
0.705272 0.982815 0.000873
0.735837 0.017747 0.007723
0.733894 0.048178 0.011287
0.733787 0.078289 0.014520
0.734535 0.106822 0.017376
0.733773 0.142388 0.021562
0.732905 0.170674 0.024072
0.732406 0.204729 0.024761
0.735129 0.235283 0.021625
0.733296 0.263464 0.020251
0.732402 0.296595 0.016908
0.734582 0.326015 0.012474
0.737036 0.358807 0.008227
0.731445 0.388546 0.006614
0.734782 0.424909 0.003752
0.732127 0.452085 0.002898
0.733182 0.483465 0.002205
0.732268 0.514513 0.002156
0.733622 0.547759 0.002328
0.735014 0.575236 0.002612
0.733344 0.606739 0.003292
0.734650 0.640570 0.003670
0.733049 0.670329 0.004184
0.733996 0.704116 0.004192
0.733285 0.731260 0.004175
0.737329 0.763130 0.003366
0.733240 0.799722 0.003173
0.733433 0.826034 0.002640
0.737409 0.856978 0.001784
0.731512 0.893506 0.001421
0.736158 0.920127 0.000896
0.731884 0.951591 0.000667
0.733984 0.982769 0.000388
0.764266 0.015933 0.003380
0.768014 0.049073 0.004397
0.766690 0.078485 0.005796
0.767236 0.111887 0.007059
0.767834 0.142248 0.008110
0.763962 0.174989 0.010031
0.764133 0.202344 0.010089
0.764372 0.235910 0.009428
0.768699 0.267289 0.007295
0.765179 0.297760 0.006697
0.765399 0.325640 0.005306
0.763637 0.361646 0.003811
0.765646 0.393319 0.002423
0.768113 0.420570 0.001584
0.766432 0.456096 0.001089
0.765900 0.486442 0.000863
0.762843 0.513685 0.000879
0.768596 0.548533 0.000808
0.767937 0.575202 0.000940
0.765740 0.608596 0.001194
0.768560 0.638707 0.001247
0.763929 0.672481 0.001599
0.768103 0.703434 0.001438
0.763030 0.736106 0.001631
0.767319 0.766927 0.001291
0.762825 0.799272 0.001280
0.762948 0.831217 0.001034
0.764187 0.859374 0.000768
0.766796 0.892178 0.000489
0.768404 0.923061 0.000319
0.768199 0.951070 0.000221
0.767596 0.983018 0.000138
0.796762 0.018193 0.001316
0.798145 0.046246 0.001745
0.794803 0.080641 0.002575
0.795063 0.109677 0.003063
0.796080 0.139145 0.003417
0.798792 0.170224 0.003441
0.797868 0.202098 0.003611
0.797013 0.234081 0.003528
0.797543 0.266669 0.003076
0.793886 0.298870 0.002851
0.796108 0.328386 0.002095
0.799811 0.360914 0.001313
0.798708 0.392242 0.000922
0.796583 0.421292 0.000679
0.795276 0.454389 0.000475
0.795086 0.485382 0.000365
0.796294 0.514227 0.000317
0.795895 0.545634 0.000336
0.798053 0.580964 0.000365
0.798614 0.611889 0.000415
0.793885 0.643589 0.000556
0.794086 0.671312 0.000599
0.794772 0.704975 0.000604
0.793822 0.735013 0.000602
0.799509 0.763187 0.000455
0.797156 0.794206 0.000427
0.797228 0.827396 0.000349
0.796759 0.858693 0.000271
0.796304 0.890994 0.000192
0.799632 0.923119 0.000117
0.797435 0.950070 0.000088
0.795517 0.983671 0.000056
0.829661 0.016036 0.000452
0.828464 0.045429 0.000673
0.825732 0.076010 0.000966
0.827214 0.111302 0.001162
0.826661 0.138698 0.001329
0.827590 0.172801 0.001391
0.828310 0.200455 0.001368
0.827937 0.233618 0.001320
0.825618 0.265583 0.001285
0.825830 0.295102 0.001091
0.827739 0.327207 0.000789
0.831211 0.361826 0.000485
0.827187 0.390245 0.000394
0.830010 0.424889 0.000235
0.826883 0.453604 0.000184
0.828450 0.482145 0.000134
0.828166 0.515624 0.000116
0.829560 0.544266 0.000112
0.826357 0.576081 0.000140
0.827408 0.608591 0.000156
0.826652 0.638529 0.000181
0.830353 0.670284 0.000172
0.830584 0.704945 0.000174
0.831026 0.732817 0.000168
0.826776 0.765936 0.000177
0.829493 0.796971 0.000138
0.828041 0.827199 0.000120
0.830365 0.858826 0.000085
0.825128 0.893223 0.000071
0.830997 0.922304 0.000042
0.831237 0.952503 0.000028
0.828673 0.986290 0.000018
0.858801 0.012771 0.000165
0.859659 0.044563 0.000238
0.859842 0.081058 0.000324
0.860508 0.107545 0.000378
0.859774 0.142692 0.000454
0.858080 0.170663 0.000510
0.862362 0.206156 0.000440
0.859898 0.233330 0.000456
0.859510 0.263015 0.000422
0.861298 0.298010 0.000328
0.859967 0.326276 0.000274
0.857503 0.357275 0.000219
0.858005 0.388734 0.000151
0.861207 0.424199 0.000088
0.861183 0.450567 0.000064
0.857250 0.482794 0.000053
0.861009 0.515732 0.000039
0.858699 0.549175 0.000042
0.858329 0.578729 0.000047
0.861126 0.612417 0.000048
0.862215 0.642642 0.000051
0.861106 0.673040 0.000056
0.861512 0.703925 0.000056
0.861052 0.733729 0.000057
0.859908 0.765125 0.000055
0.861260 0.796736 0.000045
0.860567 0.830085 0.000037
0.859693 0.858092 0.000030
0.859919 0.890465 0.000022
0.861866 0.921433 0.000015
0.857874 0.952900 0.000011
0.856250 0.985363 0.000007
0.888074 0.016014 0.000064
0.891744 0.047923 0.000081
0.892158 0.079078 0.000103
0.893637 0.107998 0.000118
0.892392 0.137532 0.000142
0.888043 0.169120 0.000181
0.893292 0.201342 0.000152
0.892383 0.232835 0.000149
0.889291 0.267114 0.000148
0.889349 0.296707 0.000125
0.893187 0.330769 0.000084
0.893074 0.357817 0.000065
0.892203 0.391774 0.000046
0.890426 0.421712 0.000034
0.888805 0.453165 0.000025
0.893111 0.486469 0.000015
0.893492 0.518582 0.000012
0.893240 0.544679 0.000012
0.889143 0.577478 0.000015
0.892322 0.611066 0.000015
0.892348 0.640340 0.000017
0.890117 0.672727 0.000019
0.891544 0.704638 0.000019
0.892684 0.732951 0.000018
0.892376 0.763628 0.000017
0.888250 0.798673 0.000017
0.893699 0.825483 0.000011
0.890156 0.861507 0.000010
0.891460 0.893405 0.000007
0.890190 0.924662 0.000005
0.892491 0.952357 0.000003
0.889042 0.986429 0.000002
0.919010 0.013929 0.000021
0.919338 0.049134 0.000031
0.919022 0.080967 0.000041
0.923901 0.111681 0.000042
0.921950 0.142188 0.000051
0.924989 0.171359 0.000049
0.920073 0.202523 0.000059
0.919431 0.233513 0.000058
0.919355 0.263775 0.000052
0.921169 0.298897 0.000040
0.924370 0.331036 0.000028
0.923857 0.358855 0.000022
0.923859 0.392031 0.000015
0.921616 0.421344 0.000012
0.922454 0.453771 0.000008
0.922922 0.487421 0.000005
0.923369 0.512526 0.000004
0.922659 0.544564 0.000004
0.924351 0.579236 0.000004
0.920802 0.607730 0.000005
0.921572 0.641755 0.000006
0.920368 0.669662 0.000006
0.923149 0.703742 0.000006
0.923069 0.731711 0.000006
0.924248 0.763769 0.000005
0.920105 0.798329 0.000005
0.923660 0.830989 0.000004
0.923222 0.860878 0.000003
0.919970 0.888847 0.000003
0.918878 0.923995 0.000002
0.923505 0.951366 0.000001
0.921376 0.982942 0.000001
0.954230 0.017724 0.000006
0.950316 0.047643 0.000011
0.953961 0.077861 0.000012
0.950685 0.110783 0.000017
0.950109 0.140080 0.000019
0.953364 0.169389 0.000018
0.954002 0.202724 0.000018
0.950174 0.232765 0.000020
0.952062 0.266449 0.000016
0.952349 0.297154 0.000014
0.954805 0.325493 0.000010
0.954767 0.356552 0.000008
0.951154 0.390440 0.000006
0.955241 0.420865 0.000004
0.952302 0.455336 0.000003
0.954917 0.482991 0.000002
0.955096 0.516896 0.000001
0.955612 0.549190 0.000001
0.952580 0.576137 0.000002
0.953465 0.609568 0.000002
0.952194 0.642033 0.000002
0.956075 0.670221 0.000002
0.950880 0.701486 0.000002
0.955010 0.736389 0.000002
0.952506 0.767924 0.000002
0.953765 0.793992 0.000001
0.954720 0.828048 0.000001
0.956116 0.858470 0.000001
0.954562 0.888532 0.000001
0.955493 0.920690 0.000000
0.954235 0.950940 0.000000
0.951799 0.986917 0.000000
0.981389 0.016198 0.000002
0.987154 0.048933 0.000003
0.984801 0.076321 0.000004
0.981440 0.109888 0.000006
0.985260 0.138469 0.000006
0.981677 0.170672 0.000007
0.984839 0.202304 0.000006
0.982563 0.231469 0.000006
0.985981 0.262908 0.000005
0.982971 0.298566 0.000005
0.983589 0.326893 0.000004
0.983465 0.362295 0.000003
0.985139 0.391861 0.000002
0.983416 0.419715 0.000001
0.984475 0.453534 0.000001
0.985603 0.485556 0.000001
0.986298 0.515368 0.000001
0.985851 0.544761 0.000000
0.983299 0.575078 0.000001
0.984004 0.611284 0.000001
0.987082 0.641022 0.000001
0.984794 0.672348 0.000001
0.987424 0.704553 0.000001
0.981945 0.734443 0.000001
0.984028 0.765467 0.000001
0.984656 0.797407 0.000000
0.982178 0.829535 0.000000
0.984534 0.858407 0.000000
0.984924 0.887706 0.000000
0.986931 0.923485 0.000000
0.984425 0.952557 0.000000
0.984145 0.982266 0.000000
