x  y  phi
0.012500 0.013322 0.011323
0.017223 0.046617 0.016770
0.015830 0.076368 0.019994
0.012794 0.110493 0.023031
0.016746 0.143342 0.027968
0.014897 0.171996 0.029400
0.017694 0.200216 0.031630
0.012834 0.234561 0.029056
0.016695 0.262548 0.029658
0.014896 0.294168 0.028228
0.015109 0.329292 0.030566
0.016181 0.362065 0.038256
0.017789 0.390793 0.050993
0.013075 0.422837 0.069957
0.015100 0.454382 0.104426
0.018190 0.486014 0.151991
0.014140 0.512797 0.190564
0.017101 0.545801 0.255289
0.016454 0.579728 0.318487
0.018694 0.608533 0.369170
0.014044 0.643641 0.405319
0.017017 0.673458 0.435713
0.016572 0.700454 0.443258
0.016448 0.736779 0.431160
0.014204 0.765228 0.400306
0.017291 0.796736 0.363678
0.013986 0.826718 0.307032
0.014745 0.857291 0.248940
0.015541 0.893110 0.181920
0.018183 0.919129 0.144893
0.018154 0.953153 0.105393
0.015727 0.983244 0.076522
0.049917 0.015587 0.022127
0.045413 0.044317 0.025658
0.049674 0.075461 0.033313
0.046879 0.108651 0.037885
0.045482 0.143211 0.042096
0.047061 0.171653 0.046253
0.049631 0.200313 0.049936
0.048509 0.236064 0.048464
0.048924 0.263284 0.046703
0.043849 0.298053 0.041723
0.049177 0.328935 0.046561
0.048351 0.360784 0.053660
0.049997 0.393054 0.070451
0.045207 0.420665 0.089681
0.045944 0.453208 0.130513
0.047444 0.486537 0.186124
0.046326 0.517759 0.242311
0.045433 0.546346 0.299429
0.047108 0.577924 0.367640
0.045545 0.607365 0.416633
0.044711 0.641073 0.461490
0.048765 0.668957 0.495775
0.047090 0.703116 0.504310
0.049721 0.735927 0.499427
0.047216 0.768067 0.462508
0.047655 0.799013 0.417907
0.044749 0.826330 0.362398
0.048217 0.857065 0.304448
0.044319 0.889216 0.228664
0.043769 0.921339 0.170106
0.043918 0.954436 0.127559
0.049612 0.982749 0.106222
0.076131 0.014485 0.034610
0.080544 0.047825 0.047291
0.075940 0.079258 0.052331
0.077411 0.108673 0.061948
0.078123 0.138422 0.070108
0.078670 0.174035 0.076890
0.078688 0.205971 0.078469
0.078476 0.232176 0.076765
0.081146 0.265055 0.075780
0.075886 0.297281 0.065958
0.076576 0.328053 0.066628
0.077900 0.362257 0.075897
0.075788 0.388748 0.088168
0.076995 0.422683 0.122749
0.075792 0.454070 0.168934
0.078885 0.486269 0.234529
0.076549 0.515478 0.291487
0.077433 0.545020 0.362001
0.075177 0.580635 0.438043
0.077666 0.607138 0.496518
0.080922 0.640064 0.553568
0.075820 0.674285 0.567008
0.075576 0.701014 0.573880
0.075444 0.733533 0.565226
0.076582 0.763344 0.542822
0.079895 0.796596 0.504456
0.077185 0.827827 0.435474
0.080056 0.862073 0.362443
0.079073 0.888845 0.295649
0.079247 0.924431 0.219937
0.076563 0.955380 0.166507
0.077945 0.984412 0.135433
0.110002 0.017610 0.064652
0.110974 0.046639 0.078463
0.112196 0.078955 0.094808
0.108996 0.111404 0.104701
0.110556 0.141889 0.119516
0.112420 0.174715 0.130997
0.111570 0.201808 0.130774
0.109609 0.234465 0.124116
0.106896 0.265088 0.113126
0.109854 0.299229 0.109810
0.109000 0.329561 0.104958
0.111683 0.360723 0.113983
0.111255 0.391916 0.132636
0.110886 0.418869 0.164708
0.111788 0.453281 0.228487
0.109146 0.481657 0.285797
0.110709 0.515556 0.374792
0.110423 0.548013 0.462877
0.107497 0.580729 0.535620
0.111662 0.611813 0.608064
0.109650 0.638370 0.638527
0.109065 0.674934 0.666394
0.107597 0.702788 0.668594
0.108223 0.734467 0.662137
0.111759 0.765248 0.646632
0.109172 0.798792 0.588461
0.108532 0.826322 0.529076
0.112494 0.857210 0.461292
0.110191 0.891352 0.362565
0.106254 0.918755 0.286266
0.111083 0.954546 0.226452
0.108245 0.983861 0.179881
0.141766 0.016754 0.108149
0.138783 0.048978 0.121680
0.141931 0.080179 0.147719
0.138091 0.106761 0.157730
0.142275 0.141435 0.187868
0.138837 0.170085 0.189135
0.138007 0.202430 0.190971
0.143451 0.237172 0.201523
0.139937 0.264183 0.183288
0.141826 0.295525 0.174116
0.142355 0.329899 0.163082
0.140140 0.358013 0.158286
0.138712 0.387571 0.171159
0.138699 0.424895 0.220974
0.139025 0.455123 0.284218
0.138353 0.483738 0.355937
0.141256 0.513606 0.450443
0.142677 0.544736 0.547052
0.143675 0.576607 0.633461
0.138960 0.606885 0.680177
0.138871 0.641467 0.726917
0.141850 0.673717 0.760846
0.141852 0.704706 0.767658
0.141685 0.735209 0.757046
0.137853 0.766239 0.719727
0.138919 0.795742 0.679794
0.141874 0.825734 0.625478
0.142266 0.859538 0.535688
0.140962 0.891175 0.440198
0.139560 0.923144 0.350752
0.138394 0.951011 0.287703
0.140533 0.986626 0.232733
0.173833 0.015980 0.171694
0.173369 0.045725 0.193872
0.169596 0.078303 0.213032
0.170692 0.109926 0.247178
0.171988 0.140193 0.274832
0.170368 0.171064 0.283888
0.171206 0.202793 0.292490
0.171724 0.233674 0.288424
0.170496 0.262989 0.269794
0.171061 0.295337 0.250671
0.172949 0.329226 0.235144
0.171962 0.360804 0.224907
0.173255 0.393405 0.242733
0.171629 0.424626 0.282059
0.170760 0.452878 0.342078
0.171982 0.485383 0.436319
0.171261 0.516285 0.531496
0.174916 0.544690 0.624650
0.172938 0.577149 0.704744
0.172136 0.609518 0.766087
0.173933 0.637593 0.807735
0.170464 0.672769 0.828246
0.172163 0.705737 0.837403
0.170416 0.737313 0.821768
0.170292 0.767775 0.794895
0.173088 0.796598 0.762011
0.173857 0.825138 0.707503
0.169755 0.860668 0.601882
0.173174 0.890229 0.521039
0.172390 0.923448 0.423839
0.174947 0.954348 0.358002
0.170497 0.985962 0.292010
0.201070 0.012527 0.240576
0.203098 0.044249 0.280653
0.201019 0.080646 0.317835
0.204894 0.110917 0.369525
0.202728 0.137540 0.386159
0.203655 0.171990 0.411242
0.200418 0.203400 0.403508
0.202436 0.232599 0.402509
0.202411 0.266418 0.377617
0.204119 0.298183 0.351609
0.203367 0.326752 0.321060
0.205100 0.358574 0.305704
0.204288 0.389439 0.306129
0.200058 0.419399 0.328565
0.203256 0.454849 0.410528
0.201379 0.481595 0.484423
0.200441 0.513502 0.582432
0.204524 0.545606 0.683730
0.200316 0.577986 0.758188
0.202857 0.609500 0.822418
0.202791 0.638439 0.859593
0.201787 0.673961 0.883468
0.204348 0.703611 0.891838
0.204257 0.733320 0.882617
0.200359 0.768668 0.848224
0.203390 0.793760 0.821625
0.205351 0.825183 0.768747
0.202360 0.859310 0.675352
0.203601 0.892118 0.577301
0.204246 0.922102 0.489170
0.200222 0.950766 0.411261
0.206083 0.982427 0.360084
0.233446 0.016338 0.359940
0.235048 0.044537 0.401737
0.234705 0.080963 0.449924
0.233481 0.111488 0.483134
0.237339 0.139119 0.526177
0.232822 0.171402 0.531724
0.236332 0.205612 0.551992
0.232779 0.236004 0.523063
0.235593 0.265324 0.503699
0.232898 0.297909 0.448663
0.231979 0.326310 0.406379
0.231960 0.359669 0.374553
0.231288 0.388600 0.366938
0.234996 0.421449 0.401770
0.231766 0.454296 0.460990
0.233596 0.486476 0.555056
0.232023 0.518583 0.650246
0.231435 0.544252 0.722037
0.234339 0.579809 0.811888
0.237088 0.607813 0.864350
0.233498 0.642307 0.900300
0.234375 0.673433 0.919733
0.235449 0.704260 0.925007
0.235980 0.731477 0.918710
0.232691 0.763885 0.893272
0.234766 0.797829 0.854660
0.235104 0.827322 0.803365
0.232655 0.857711 0.726189
0.235331 0.888537 0.637451
0.235901 0.919748 0.543207
0.231548 0.954137 0.448803
0.232031 0.987182 0.384064
0.265526 0.016382 0.491747
0.268213 0.043862 0.535098
0.266210 0.079512 0.572124
0.265604 0.106586 0.601491
0.265260 0.140745 0.635123
0.267325 0.169158 0.663978
0.265267 0.206107 0.660885
0.265423 0.233307 0.645381
0.265287 0.267145 0.605923
0.263783 0.294821 0.558036
0.264828 0.330873 0.502713
0.268530 0.357843 0.477108
0.262940 0.388274 0.442316
0.265790 0.419751 0.460423
0.265736 0.450657 0.507968
0.267760 0.483554 0.592406
0.265149 0.514545 0.679024
0.266960 0.547355 0.770205
0.267949 0.579739 0.842596
0.267729 0.610624 0.890729
0.264932 0.643345 0.922221
0.266285 0.671013 0.937754
0.265872 0.702844 0.942484
0.265011 0.732753 0.935792
0.263019 0.765135 0.914047
0.265452 0.795561 0.880498
0.263156 0.826352 0.827428
0.267513 0.859546 0.751480
0.266680 0.892898 0.653983
0.264023 0.923197 0.560813
0.264148 0.952393 0.484244
0.263006 0.984124 0.418145
0.295205 0.017471 0.614092
0.296821 0.043770 0.644753
0.295413 0.079154 0.675454
0.296407 0.107418 0.708371
0.299772 0.138338 0.747131
0.298724 0.174663 0.763624
0.294820 0.203788 0.751410
0.294149 0.233422 0.731900
0.295578 0.265685 0.699532
0.298911 0.298965 0.655634
0.298290 0.327059 0.603810
0.298763 0.360199 0.550774
0.294033 0.387759 0.511043
0.294708 0.423544 0.511799
0.294136 0.453246 0.548451
0.299557 0.482628 0.616831
0.295029 0.513056 0.695519
0.298123 0.548165 0.787595
0.296841 0.576636 0.846985
0.298197 0.608615 0.895370
0.295004 0.638954 0.925637
0.296476 0.671684 0.943560
0.299132 0.706108 0.947840
0.296528 0.731464 0.942442
0.297024 0.762698 0.924193
0.298457 0.797447 0.885725
0.298893 0.827060 0.835232
0.295200 0.859603 0.759190
0.296441 0.890022 0.672530
0.299921 0.924793 0.567691
0.299066 0.955422 0.489300
0.295698 0.982177 0.435334
0.331235 0.016497 0.750863
0.327925 0.049574 0.751371
0.329317 0.080096 0.775214
0.328385 0.109830 0.796173
0.325995 0.143408 0.814254
0.330133 0.169721 0.832044
0.325257 0.202148 0.821460
0.325688 0.231853 0.806800
0.328242 0.262640 0.779893
0.328509 0.299105 0.721655
0.328231 0.329216 0.664259
0.329607 0.360615 0.609766
0.325142 0.388700 0.563690
0.329194 0.420912 0.551543
0.325414 0.450879 0.569338
0.330757 0.482635 0.626530
0.327376 0.516163 0.706815
0.326046 0.543915 0.775689
0.329320 0.579765 0.847700
0.329461 0.606733 0.886803
0.328686 0.643284 0.922225
0.330811 0.671440 0.936030
0.328162 0.705195 0.941705
0.330745 0.735010 0.933368
0.329524 0.765746 0.913921
0.328068 0.794759 0.881953
0.331101 0.828590 0.821967
0.326708 0.859571 0.750863
0.329366 0.891669 0.657737
0.325609 0.922180 0.568013
0.328817 0.954175 0.482874
0.328095 0.984822 0.421230
0.359931 0.015258 0.819705
0.357195 0.046889 0.815958
0.360821 0.075198 0.832358
0.356573 0.109513 0.845968
0.358254 0.137719 0.862945
0.357782 0.169420 0.872113
0.358644 0.203449 0.870928
0.359982 0.235069 0.855530
0.362095 0.267325 0.822969
0.359457 0.296792 0.772285
0.360313 0.329356 0.709552
0.358797 0.359293 0.649018
0.359249 0.391940 0.594081
0.359589 0.420479 0.568074
0.360035 0.451751 0.575484
0.360646 0.484566 0.620256
0.362114 0.513971 0.679725
0.358834 0.547484 0.761071
0.361144 0.580752 0.826058
0.360509 0.611382 0.870544
0.359546 0.638939 0.898334
0.357148 0.674372 0.920195
0.357821 0.704072 0.923667
0.356280 0.737100 0.916177
0.357971 0.767867 0.892376
0.357993 0.799703 0.852481
0.359418 0.825768 0.803372
0.358853 0.860640 0.720045
0.358978 0.888173 0.641255
0.361039 0.919374 0.544597
0.359008 0.952154 0.459732
0.358107 0.985985 0.391275
0.389616 0.014567 0.849558
0.387848 0.047332 0.847537
0.390533 0.076266 0.858026
0.388215 0.112340 0.875341
0.392904 0.140574 0.889093
0.389796 0.173781 0.895292
0.388514 0.200997 0.891877
0.387861 0.232183 0.875502
0.390426 0.264879 0.842861
0.393023 0.296401 0.793992
0.390077 0.329071 0.728045
0.389427 0.356626 0.669323
0.392590 0.393110 0.596293
0.393247 0.424383 0.558498
0.392313 0.451067 0.556288
0.391078 0.481446 0.585707
0.392520 0.515764 0.644128
0.392885 0.545482 0.708713
0.392934 0.578668 0.777243
0.389932 0.611324 0.832329
0.390785 0.643374 0.863753
0.390125 0.672374 0.881677
0.392182 0.705505 0.883489
0.389613 0.732435 0.879733
0.392145 0.766993 0.849680
0.392995 0.794205 0.812983
0.391938 0.830494 0.744268
0.389746 0.856812 0.682818
0.388506 0.890105 0.588677
0.388103 0.922967 0.491264
0.391016 0.955082 0.405094
0.392989 0.986059 0.341142
0.422720 0.018103 0.834499
0.424240 0.046790 0.835736
0.419457 0.077359 0.852479
0.421141 0.110547 0.870117
0.419511 0.137980 0.884551
0.419646 0.171735 0.892660
0.423179 0.201488 0.887175
0.421194 0.237349 0.866919
0.422680 0.266757 0.834175
0.424429 0.296015 0.786643
0.424120 0.329964 0.716152
0.421430 0.356709 0.656999
0.421866 0.390524 0.581694
0.421567 0.421873 0.533574
0.423380 0.455830 0.517859
0.420626 0.482164 0.540688
0.419438 0.513002 0.589404
0.424828 0.546301 0.644768
0.420240 0.581020 0.725192
0.423959 0.607488 0.758279
0.419559 0.638727 0.805655
0.420869 0.672348 0.826226
0.421502 0.703660 0.830447
0.421455 0.733551 0.820613
0.421139 0.766251 0.794110
0.421434 0.794680 0.753846
0.422939 0.831221 0.673630
0.423113 0.858767 0.601194
0.424058 0.892622 0.500150
0.423709 0.921089 0.421979
0.418810 0.952999 0.358039
0.422744 0.985291 0.290977
0.454031 0.017494 0.779126
0.452359 0.045985 0.792081
0.452434 0.077089 0.809407
0.454335 0.107156 0.827359
0.451822 0.141668 0.853101
0.455340 0.170717 0.857156
0.450901 0.203764 0.860238
0.450035 0.237005 0.841086
0.452387 0.265728 0.806427
0.452153 0.295401 0.758794
0.451819 0.330210 0.684305
0.450777 0.360216 0.612948
0.450304 0.390363 0.541493
0.452355 0.419724 0.483462
0.454724 0.454162 0.453556
0.450072 0.486218 0.480354
0.453506 0.514304 0.507816
0.452597 0.545754 0.567929
0.453216 0.579495 0.631298
0.455263 0.607699 0.669820
0.452906 0.639833 0.716381
0.450313 0.669212 0.747813
0.451265 0.703539 0.753544
0.455197 0.733891 0.730381
0.455247 0.764332 0.703570
0.451132 0.795985 0.670277
0.455838 0.828684 0.586791
0.452307 0.859144 0.519901
0.453924 0.893403 0.422494
0.452536 0.919066 0.362176
0.452780 0.953725 0.288419
0.454677 0.986651 0.229369
0.482069 0.013154 0.692591
0.485408 0.048959 0.710581
0.484883 0.079116 0.737152
0.487388 0.106368 0.755181
0.487009 0.138717 0.781693
0.487298 0.172019 0.795578
0.482992 0.204499 0.803174
0.484940 0.236482 0.779032
0.486467 0.266624 0.740928
0.485815 0.297769 0.689262
0.483435 0.328343 0.626097
0.485401 0.358271 0.544412
0.486682 0.390265 0.459236
0.486987 0.420479 0.400366
0.487198 0.450733 0.372568
0.483850 0.486477 0.389942
0.487266 0.514581 0.409466
0.484539 0.547100 0.468529
0.486363 0.580812 0.522145
0.485393 0.607770 0.566220
0.487134 0.641230 0.596622
0.482038 0.670294 0.637534
0.486792 0.701226 0.628214
0.482268 0.736475 0.635609
0.485015 0.766395 0.600182
0.486492 0.797948 0.550471
0.483697 0.830446 0.494947
0.485421 0.856973 0.428404
0.481250 0.891725 0.356836
0.485180 0.921591 0.281673
0.484840 0.950202 0.229047
0.483446 0.986594 0.178143
0.514818 0.016634 0.582490
0.516103 0.044125 0.607132
0.517153 0.076747 0.638355
0.515266 0.107353 0.677639
0.513074 0.143108 0.714922
0.518703 0.172463 0.710652
0.512706 0.204318 0.726678
0.515545 0.234808 0.700085
0.518098 0.265216 0.658234
0.516804 0.295020 0.611054
0.515511 0.326703 0.542960
0.518419 0.357777 0.456745
0.518458 0.390481 0.378802
0.513294 0.424759 0.331732
0.517857 0.451359 0.298475
0.512544 0.486140 0.313738
0.512815 0.518500 0.340769
0.516509 0.547334 0.366557
0.513357 0.575807 0.420098
0.517654 0.609387 0.450380
0.516599 0.640657 0.481886
0.515790 0.669490 0.501329
0.518144 0.704181 0.499472
0.514235 0.733667 0.510129
0.514947 0.767694 0.484849
0.514019 0.794522 0.455958
0.517052 0.829050 0.384954
0.513758 0.861554 0.332883
0.512641 0.888160 0.283010
0.513675 0.921006 0.218298
0.517373 0.954495 0.160296
0.516665 0.984881 0.127185
0.545945 0.013482 0.459675
0.545576 0.044807 0.499280
0.545148 0.079196 0.542648
0.546280 0.111791 0.576941
0.547371 0.139637 0.597968
0.546483 0.173123 0.616464
0.548964 0.204950 0.606317
0.549057 0.233014 0.592106
0.545404 0.263562 0.572630
0.547085 0.294207 0.515046
0.549992 0.329689 0.430160
0.544514 0.357279 0.384655
0.546407 0.392333 0.305807
0.545085 0.421462 0.263027
0.543957 0.455808 0.237288
0.544413 0.482914 0.234234
0.546763 0.517455 0.247005
0.545360 0.545087 0.276149
0.545515 0.577379 0.313425
0.545051 0.612053 0.354212
0.548525 0.641354 0.362994
0.547349 0.670977 0.378232
0.549424 0.701237 0.373292
0.544463 0.736195 0.385434
0.548114 0.762614 0.356333
0.548425 0.794466 0.323879
0.549344 0.829091 0.274580
0.545912 0.858640 0.242765
0.545094 0.889571 0.198060
0.543861 0.924465 0.150600
0.548659 0.952459 0.111894
0.548312 0.986447 0.084901
0.580486 0.013310 0.323790
0.577146 0.049638 0.381844
0.577264 0.077200 0.416118
0.575504 0.109824 0.464060
0.579852 0.142776 0.476334
0.578083 0.173858 0.496647
0.579017 0.202721 0.493609
0.577202 0.233432 0.486515
0.576760 0.268244 0.450448
0.578913 0.298404 0.394463
0.575985 0.329853 0.347946
0.576575 0.360075 0.289115
0.580341 0.389466 0.227450
0.578803 0.419537 0.190539
0.577335 0.450833 0.168504
0.576637 0.482038 0.162764
0.576268 0.517191 0.174686
0.575443 0.546618 0.195125
0.581020 0.576467 0.203606
0.576234 0.610525 0.247264
0.575508 0.642839 0.270442
0.575954 0.669501 0.276401
0.580057 0.705901 0.262246
0.575285 0.731627 0.272646
0.580186 0.763382 0.241057
0.580007 0.795172 0.217582
0.577495 0.828745 0.192790
0.579095 0.856586 0.160283
0.581165 0.892577 0.118615
0.577585 0.918949 0.099804
0.575675 0.956090 0.075027
0.580419 0.985444 0.054828
0.611465 0.013989 0.221015
0.610731 0.047436 0.258188
0.607641 0.076424 0.300365
0.606260 0.109049 0.342388
0.608811 0.143331 0.361621
0.606390 0.171959 0.383753
0.608603 0.205372 0.374635
0.611212 0.235059 0.349413
0.608324 0.266400 0.331674
0.610337 0.297777 0.287202
0.607869 0.325163 0.257662
0.612419 0.357548 0.198738
0.610265 0.391002 0.160017
0.608606 0.419504 0.134187
0.609057 0.450861 0.112395
0.609911 0.484641 0.102627
0.609273 0.518041 0.109575
0.606760 0.546016 0.125740
0.606880 0.576870 0.140873
0.611510 0.611956 0.148849
0.611425 0.643564 0.162387
0.611333 0.673737 0.168334
0.611499 0.702805 0.167989
0.610263 0.735587 0.166564
0.611348 0.765426 0.154408
0.607460 0.796260 0.147526
0.612067 0.827920 0.118584
0.608615 0.859485 0.102380
0.607673 0.893120 0.079515
0.612412 0.919606 0.058580
0.609116 0.954307 0.045704
0.607994 0.983808 0.036336
0.642125 0.012695 0.143654
0.639400 0.044954 0.173772
0.642582 0.076718 0.188759
0.641986 0.108804 0.215441
0.642407 0.142014 0.236787
0.641107 0.172706 0.252707
0.642491 0.200002 0.248887
0.641424 0.233415 0.241920
0.640449 0.265576 0.225043
0.640810 0.295741 0.199103
0.642862 0.325863 0.165309
0.639995 0.358668 0.137669
0.642790 0.387851 0.105933
0.640355 0.423535 0.083959
0.639328 0.456012 0.070028
0.643750 0.487494 0.059740
0.642135 0.514686 0.063127
0.642479 0.544994 0.069466
0.641255 0.578393 0.080833
0.639073 0.607510 0.093106
0.641098 0.640711 0.098958
0.642173 0.672550 0.101978
0.643685 0.704990 0.100225
0.640967 0.732167 0.102868
0.638169 0.765774 0.101380
0.639039 0.797323 0.089775
0.639590 0.829242 0.075746
0.637934 0.861529 0.062984
0.642977 0.889575 0.045974
0.638409 0.923400 0.036819
0.641637 0.952517 0.026863
0.641156 0.984722 0.020341
0.671838 0.016341 0.092913
0.674530 0.047587 0.103184
0.670352 0.075248 0.123742
0.672629 0.108397 0.136938
0.668901 0.138571 0.160344
0.672567 0.171399 0.161335
0.672303 0.204565 0.163209
0.671087 0.233535 0.159960
0.671102 0.263041 0.147760
0.672394 0.296364 0.126714
0.669443 0.327033 0.112086
0.673032 0.359775 0.083921
0.674199 0.390824 0.063736
0.674841 0.419127 0.049816
0.671721 0.450688 0.042107
0.674951 0.484684 0.035359
0.673117 0.513295 0.036701
0.671719 0.544121 0.040739
0.671532 0.580737 0.047043
0.671497 0.611616 0.052840
0.674982 0.640933 0.053902
0.669527 0.674040 0.063367
0.669939 0.704152 0.063760
0.672852 0.737332 0.058575
0.671610 0.763496 0.056523
0.669620 0.795521 0.052093
0.674831 0.828737 0.039462
0.674076 0.856643 0.033361
0.674535 0.893434 0.024600
0.671667 0.920514 0.020542
0.671627 0.952693 0.015471
0.674163 0.982491 0.011143
0.702405 0.017245 0.055331
0.705089 0.047955 0.062014
0.704510 0.079271 0.072068
0.701962 0.107303 0.084961
0.704300 0.143256 0.092411
0.701036 0.168774 0.102668
0.701102 0.201113 0.104205
0.701238 0.235427 0.099354
0.704215 0.265734 0.086287
0.702021 0.296669 0.078419
0.702005 0.325585 0.066648
0.705440 0.359032 0.049182
0.700924 0.391575 0.040571
0.705887 0.424265 0.028291
0.704131 0.451274 0.024127
0.701065 0.481350 0.022573
0.701034 0.513182 0.022131
0.702257 0.547257 0.022926
0.706024 0.576534 0.023430
0.700149 0.606438 0.029590
0.705539 0.643040 0.029456
0.705708 0.672171 0.030977
0.701079 0.703044 0.034831
0.705090 0.737104 0.031015
0.703644 0.765931 0.029703
0.702948 0.798458 0.026313
0.702077 0.826078 0.023131
0.703206 0.858628 0.018293
0.705176 0.893544 0.013323
0.700030 0.920634 0.011778
0.702841 0.955565 0.008190
0.705272 0.982815 0.005974
0.735837 0.017747 0.029431
0.733894 0.048178 0.036676
0.733787 0.078289 0.042219
0.734535 0.106822 0.046848
0.733773 0.142388 0.053964
0.732905 0.170674 0.058255
0.732406 0.204729 0.059433
0.735129 0.235283 0.054033
0.733296 0.263464 0.051538
0.732402 0.296595 0.045351
0.734582 0.326015 0.036667
0.737036 0.358807 0.027553
0.731445 0.388546 0.024043
0.734782 0.424909 0.016726
0.732127 0.452085 0.014524
0.733182 0.483465 0.012304
0.732268 0.514513 0.011951
0.733622 0.547759 0.012071
0.735014 0.575236 0.012663
0.733344 0.606739 0.014608
0.734650 0.640570 0.015653
0.733049 0.670329 0.017161
0.733996 0.704116 0.017142
0.733285 0.731260 0.017043
0.737329 0.763130 0.014516
0.733240 0.799722 0.013803
0.733433 0.826034 0.012023
0.737409 0.856978 0.009009
0.731512 0.893506 0.007666
0.736158 0.920127 0.005541
0.731884 0.951591 0.004617
0.733984 0.982769 0.003251
0.764266 0.015933 0.016069
0.768014 0.049073 0.018471
0.766690 0.078485 0.021841
0.767236 0.111887 0.024570
0.767834 0.142248 0.026879
0.763962 0.174989 0.031304
0.764133 0.202344 0.031507
0.764372 0.235910 0.030032
0.768699 0.267289 0.024955
0.765179 0.297760 0.023487
0.765399 0.325640 0.019958
0.763637 0.361646 0.015871
0.765646 0.393319 0.011635
0.768113 0.420570 0.008796
0.766432 0.456096 0.007060
0.765900 0.486442 0.006136
0.762843 0.513685 0.006184
0.768596 0.548533 0.005573
0.767937 0.575202 0.006026
0.765740 0.608596 0.006975
0.768560 0.638707 0.007132
0.763929 0.672481 0.008546
0.768103 0.703434 0.007904
0.763030 0.736106 0.008623
0.767319 0.766927 0.007231
0.762825 0.799272 0.007154
0.762948 0.831217 0.006085
0.764187 0.859374 0.004866
0.766796 0.892178 0.003488
0.768404 0.923061 0.002563
0.768199 0.951070 0.002005
0.767596 0.983018 0.001476
0.796762 0.018193 0.007939
0.798145 0.046246 0.009419
0.794803 0.080641 0.012150
0.795063 0.109677 0.013552
0.796080 0.139145 0.014495
0.798792 0.170224 0.014493
0.797868 0.202098 0.015018
0.797013 0.234081 0.014793
0.797543 0.266669 0.013426
0.793886 0.298870 0.012738
0.796108 0.328386 0.010192
0.799811 0.360914 0.007260
0.798708 0.392242 0.005701
0.796583 0.421292 0.004700
0.795276 0.454389 0.003788
0.795086 0.485382 0.003230
0.796294 0.514227 0.002909
0.795895 0.545634 0.002939
0.798053 0.580964 0.002995
0.798614 0.611889 0.003216
0.793885 0.643589 0.003950
0.794086 0.671312 0.004165
0.794772 0.704975 0.004179
0.793822 0.735013 0.004148
0.799509 0.763187 0.003355
0.797156 0.794206 0.003181
0.797228 0.827396 0.002716
0.796759 0.858693 0.002240
0.796304 0.890994 0.001736
0.799632 0.923119 0.001207
0.797435 0.950070 0.000999
0.795517 0.983671 0.000736
0.829661 0.016036 0.003564
0.828464 0.045429 0.004645
0.825732 0.076010 0.005936
0.827214 0.111302 0.006694
0.826661 0.138698 0.007324
0.827590 0.172801 0.007515
0.828310 0.200455 0.007409
0.827937 0.233618 0.007224
0.825618 0.265583 0.007112
0.825830 0.295102 0.006313
0.827739 0.327207 0.004961
0.831211 0.361826 0.003484
0.827187 0.390245 0.003036
0.830010 0.424889 0.002135
0.826883 0.453604 0.001849
0.828450 0.482145 0.001516
0.828166 0.515624 0.001366
0.829560 0.544266 0.001298
0.826357 0.576081 0.001479
0.827408 0.608591 0.001565
0.826652 0.638529 0.001717
0.830353 0.670284 0.001628
0.830584 0.704945 0.001638
0.831026 0.732817 0.001588
0.826776 0.765936 0.001653
0.829493 0.796971 0.001362
0.828041 0.827199 0.001213
0.830365 0.858826 0.000935
0.825128 0.893223 0.000823
0.830997 0.922304 0.000554
0.831237 0.952503 0.000419
0.828673 0.986290 0.000306
0.858801 0.012771 0.001667
0.859659 0.044563 0.002118
0.859842 0.081058 0.002591
0.860508 0.107545 0.002878
0.859774 0.142692 0.003289
0.858080 0.170663 0.003583
0.862362 0.206156 0.003201
0.859898 0.233330 0.003287
0.859510 0.263015 0.003102
0.861298 0.298010 0.002571
0.859967 0.326276 0.002252
0.857503 0.357275 0.001923
0.858005 0.388734 0.001482
0.861207 0.424199 0.001012
0.861183 0.450567 0.000826
0.857250 0.482794 0.000746
0.861009 0.515732 0.000595
0.858699 0.549175 0.000616
0.858329 0.578729 0.000648
0.861126 0.612417 0.000642
0.862215 0.642642 0.000653
0.861106 0.673040 0.000692
0.861512 0.703925 0.000693
0.861052 0.733729 0.000695
0.859908 0.765125 0.000678
0.861260 0.796736 0.000580
0.860567 0.830085 0.000497
0.859693 0.858092 0.000426
0.859919 0.890465 0.000333
0.861866 0.921433 0.000246
0.857874 0.952900 0.000208
0.856250 0.985363 0.000151
0.888074 0.016014 0.000809
0.891744 0.047923 0.000934
0.892158 0.079078 0.001092
0.893637 0.107998 0.001194
0.892392 0.137532 0.001368
0.888043 0.169120 0.001640
0.893292 0.201342 0.001441
0.892383 0.232835 0.001425
0.889291 0.267114 0.001414
0.889349 0.296707 0.001246
0.893187 0.330769 0.000926
0.893074 0.357817 0.000771
0.892203 0.391774 0.000603
0.890426 0.421712 0.000493
0.888805 0.453165 0.000404
0.893111 0.486469 0.000287
0.893492 0.518582 0.000248
0.893240 0.544679 0.000241
0.889143 0.577478 0.000277
0.892322 0.611066 0.000268
0.892348 0.640340 0.000281
0.890117 0.672727 0.000311
0.891544 0.704638 0.000304
0.892684 0.732951 0.000289
0.892376 0.763628 0.000274
0.888250 0.798673 0.000272
0.893699 0.825483 0.000205
0.890156 0.861507 0.000180
0.891460 0.893405 0.000137
0.890190 0.924662 0.000111
0.892491 0.952357 0.000082
0.889042 0.986429 0.000061
0.919010 0.013929 0.000347
0.919338 0.049134 0.000458
0.919022 0.080967 0.000551
0.923901 0.111681 0.000552
0.921950 0.142188 0.000632
0.924989 0.171359 0.000615
0.920073 0.202523 0.000714
0.919431 0.233513 0.000707
0.919355 0.263775 0.000655
0.921169 0.298897 0.000534
0.924370 0.331036 0.000406
0.923857 0.358855 0.000339
0.923859 0.392031 0.000261
0.921616 0.421344 0.000219
0.922454 0.453771 0.000166
0.922922 0.487421 0.000129
0.923369 0.512526 0.000113
0.922659 0.544564 0.000108
0.924351 0.579236 0.000104
0.920802 0.607730 0.000120
0.921572 0.641755 0.000126
0.920368 0.669662 0.000135
0.923149 0.703742 0.000127
0.923069 0.731711 0.000124
0.924248 0.763769 0.000110
0.920105 0.798329 0.000110
0.923660 0.830989 0.000084
0.923222 0.860878 0.000071
0.919970 0.888847 0.000064
0.918878 0.923995 0.000051
0.923505 0.951366 0.000035
0.921376 0.982942 0.000026
0.954230 0.017724 0.000140
0.950316 0.047643 0.000204
0.953961 0.077861 0.000226
0.950685 0.110783 0.000285
0.950109 0.140080 0.000312
0.953364 0.169389 0.000301
0.954002 0.202724 0.000302
0.950174 0.232765 0.000323
0.952062 0.266449 0.000279
0.952349 0.297154 0.000241
0.954805 0.325493 0.000194
0.954767 0.356552 0.000159
0.951154 0.390440 0.000133
0.955241 0.420865 0.000094
0.952302 0.455336 0.000076
0.954917 0.482991 0.000058
0.955096 0.516896 0.000049
0.955612 0.549190 0.000045
0.952580 0.576137 0.000048
0.953465 0.609568 0.000050
0.952194 0.642033 0.000055
0.956075 0.670221 0.000051
0.950880 0.701486 0.000059
0.955010 0.736389 0.000051
0.952506 0.767924 0.000050
0.953765 0.793992 0.000043
0.954720 0.828048 0.000036
0.956116 0.858470 0.000029
0.954562 0.888532 0.000025
0.955493 0.920690 0.000019
0.954235 0.950940 0.000015
0.951799 0.986917 0.000010
0.981389 0.016198 0.000067
0.987154 0.048933 0.000082
0.984801 0.076321 0.000106
0.981440 0.109888 0.000137
0.985260 0.138469 0.000137
0.981677 0.170672 0.000156
0.984839 0.202304 0.000145
0.982563 0.231469 0.000147
0.985981 0.262908 0.000123
0.982971 0.298566 0.000115
0.983589 0.326893 0.000098
0.983465 0.362295 0.000078
0.985139 0.391861 0.000059
0.983416 0.419715 0.000048
0.984475 0.453534 0.000035
0.985603 0.485556 0.000027
0.986298 0.515368 0.000023
0.985851 0.544761 0.000021
0.983299 0.575078 0.000022
0.984004 0.611284 0.000023
0.987082 0.641022 0.000022
0.984794 0.672348 0.000024
0.987424 0.704553 0.000022
0.981945 0.734443 0.000025
0.984028 0.765467 0.000022
0.984656 0.797407 0.000019
0.982178 0.829535 0.000018
0.984534 0.858407 0.000014
0.984924 0.887706 0.000011
0.986931 0.923485 0.000008
0.984425 0.952557 0.000006
0.984145 0.982266 0.000004
