x  y  phi
0.012500 0.013322 0.065941
0.017223 0.046617 0.078527
0.015830 0.076368 0.084410
0.012794 0.110493 0.089743
0.016746 0.143342 0.097891
0.014897 0.171996 0.101006
0.017694 0.200216 0.105715
0.012834 0.234561 0.105620
0.016695 0.262548 0.110352
0.014896 0.294168 0.113978
0.015109 0.329292 0.124742
0.016181 0.362065 0.141994
0.017789 0.390793 0.162959
0.013075 0.422837 0.189590
0.015100 0.454382 0.229749
0.018190 0.486014 0.277466
0.014140 0.512797 0.315114
0.017101 0.545801 0.369135
0.016454 0.579728 0.420905
0.018694 0.608533 0.459635
0.014044 0.643641 0.493309
0.017017 0.673458 0.513693
0.016572 0.700454 0.519541
0.016448 0.736779 0.510545
0.014204 0.765228 0.489652
0.017291 0.796736 0.459786
0.013986 0.826718 0.420142
0.014745 0.857291 0.375303
0.015541 0.893110 0.321259
0.018183 0.919129 0.289735
0.018154 0.953153 0.255220
0.015727 0.983244 0.226407
0.049917 0.015587 0.090060
0.045413 0.044317 0.094819
0.049674 0.075461 0.105298
0.046879 0.108651 0.110515
0.045482 0.143211 0.115585
0.047061 0.171653 0.121097
0.049631 0.200313 0.126980
0.048509 0.236064 0.129413
0.048924 0.263284 0.131910
0.043849 0.298053 0.133508
0.049177 0.328935 0.147058
0.048351 0.360784 0.162135
0.049997 0.393054 0.185492
0.045207 0.420665 0.207987
0.045944 0.453208 0.248936
0.047444 0.486537 0.298049
0.046326 0.517759 0.344060
0.045433 0.546346 0.388309
0.047108 0.577924 0.437769
0.045545 0.607365 0.474860
0.044711 0.641073 0.509259
0.048765 0.668957 0.531217
0.047090 0.703116 0.538296
0.049721 0.735927 0.532592
0.047216 0.768067 0.508843
0.047655 0.799013 0.477881
0.044749 0.826330 0.441655
0.048217 0.857065 0.399995
0.044319 0.889216 0.348140
0.043769 0.921339 0.305491
0.043918 0.954436 0.273084
0.049612 0.982749 0.256285
0.076131 0.014485 0.112776
0.080544 0.047825 0.127760
0.075940 0.079258 0.130647
0.077411 0.108673 0.139329
0.078123 0.138422 0.146206
0.078670 0.174035 0.152653
0.078688 0.205971 0.156185
0.078476 0.232176 0.157832
0.081146 0.265055 0.163217
0.075886 0.297281 0.161647
0.076576 0.328053 0.171113
0.077900 0.362257 0.188734
0.075788 0.388748 0.204412
0.076995 0.422683 0.238422
0.075792 0.454070 0.277570
0.078885 0.486269 0.326885
0.076549 0.515478 0.367834
0.077433 0.545020 0.415643
0.075177 0.580635 0.468336
0.077666 0.607138 0.505925
0.080922 0.640064 0.543502
0.075820 0.674285 0.558834
0.075576 0.701014 0.564199
0.075444 0.733533 0.558003
0.076582 0.763344 0.541469
0.079895 0.796596 0.513543
0.077185 0.827827 0.471429
0.080056 0.862073 0.424786
0.079073 0.888845 0.384001
0.079247 0.924431 0.337062
0.076563 0.955380 0.302841
0.077945 0.984412 0.282570
0.110002 0.017610 0.158333
0.110974 0.046639 0.168907
0.112196 0.078955 0.179846
0.108996 0.111404 0.183336
0.110556 0.141889 0.192747
0.112420 0.174715 0.200711
0.111570 0.201808 0.201468
0.109609 0.234465 0.200254
0.106896 0.265088 0.197957
0.109854 0.299229 0.206256
0.109000 0.329561 0.212486
0.111683 0.360723 0.229532
0.111255 0.391916 0.249904
0.110886 0.418869 0.276382
0.111788 0.453281 0.321595
0.109146 0.481657 0.357944
0.110709 0.515556 0.411861
0.110423 0.548013 0.464852
0.107497 0.580729 0.511896
0.111662 0.611813 0.557432
0.109650 0.638370 0.580358
0.109065 0.674934 0.602313
0.107597 0.702788 0.605686
0.108223 0.734467 0.600388
0.111759 0.765248 0.586970
0.109172 0.798792 0.550331
0.108532 0.826322 0.514229
0.112494 0.857210 0.473944
0.110191 0.891352 0.419956
0.106254 0.918755 0.378067
0.111083 0.954546 0.346670
0.108245 0.983861 0.320163
0.141766 0.016754 0.214295
0.138783 0.048978 0.216962
0.141931 0.080179 0.231446
0.138091 0.106761 0.232091
0.142275 0.141435 0.248455
0.138837 0.170085 0.246010
0.138007 0.202430 0.247523
0.143451 0.237172 0.260343
0.139937 0.264183 0.254508
0.141826 0.295525 0.259727
0.142355 0.329899 0.265914
0.140140 0.358013 0.271338
0.138712 0.387571 0.286671
0.138699 0.424895 0.323437
0.139025 0.455123 0.362274
0.138353 0.483738 0.402464
0.141256 0.513606 0.454559
0.142677 0.544736 0.508846
0.143675 0.576607 0.560815
0.138960 0.606885 0.593074
0.138871 0.641467 0.626967
0.141850 0.673717 0.652029
0.141852 0.704706 0.657885
0.141685 0.735209 0.649950
0.137853 0.766239 0.624488
0.138919 0.795742 0.597417
0.141874 0.825734 0.563226
0.142266 0.859538 0.512440
0.140962 0.891175 0.463076
0.139560 0.923144 0.418953
0.138394 0.951011 0.388423
0.140533 0.986626 0.364041
0.173833 0.015980 0.282704
0.173369 0.045725 0.288074
0.169596 0.078303 0.288282
0.170692 0.109926 0.301399
0.171988 0.140193 0.311682
0.170368 0.171064 0.311930
0.171206 0.202793 0.316756
0.171724 0.233674 0.318694
0.170496 0.262989 0.315268
0.171061 0.295337 0.316486
0.172949 0.329226 0.322664
0.171962 0.360804 0.328631
0.173255 0.393405 0.349044
0.171629 0.424626 0.374358
0.170760 0.452878 0.406699
0.171982 0.485383 0.455401
0.171261 0.516285 0.504006
0.174916 0.544690 0.555652
0.172938 0.577149 0.603703
0.172136 0.609518 0.645508
0.173933 0.637593 0.677008
0.170464 0.672769 0.695215
0.172163 0.705737 0.703031
0.170416 0.737313 0.690637
0.170292 0.767775 0.669620
0.173088 0.796598 0.645632
0.173857 0.825138 0.610301
0.169755 0.860668 0.549560
0.173174 0.890229 0.509101
0.172390 0.923448 0.464489
0.174947 0.954348 0.437722
0.170497 0.985962 0.408813
0.201070 0.012527 0.347425
0.203098 0.044249 0.361202
0.201019 0.080646 0.367112
0.204894 0.110917 0.387237
0.202728 0.137540 0.387380
0.203655 0.171990 0.393582
0.200418 0.203400 0.386531
0.202436 0.232599 0.390090
0.202411 0.266418 0.385737
0.204119 0.298183 0.385108
0.203367 0.326752 0.381694
0.205100 0.358574 0.388605
0.204288 0.389439 0.399177
0.200058 0.419399 0.413946
0.203256 0.454849 0.457697
0.201379 0.481595 0.491950
0.200441 0.513502 0.539872
0.204524 0.545606 0.595789
0.200316 0.577986 0.640725
0.202857 0.609500 0.686440
0.202791 0.638439 0.716520
0.201787 0.673961 0.738141
0.204348 0.703611 0.745905
0.204257 0.733320 0.737255
0.200359 0.768668 0.707412
0.203390 0.793760 0.686239
0.205351 0.825183 0.649542
0.202360 0.859310 0.593553
0.203601 0.892118 0.543560
0.204246 0.922102 0.504290
0.200222 0.950766 0.471397
0.206083 0.982427 0.456193
0.233446 0.016338 0.437519
0.235048 0.044537 0.449813
0.234705 0.080963 0.458931
0.233481 0.111488 0.462572
0.237339 0.139119 0.477437
0.232822 0.171402 0.469683
0.236332 0.205612 0.478279
0.232779 0.236004 0.464003
0.235593 0.265324 0.461460
0.232898 0.297909 0.444367
0.231979 0.326310 0.436032
0.231960 0.359669 0.435981
0.231288 0.388600 0.443003
0.234996 0.421449 0.469282
0.231766 0.454296 0.497399
0.233596 0.486476 0.541442
0.232023 0.518583 0.586920
0.231435 0.544252 0.625740
0.234339 0.579809 0.683222
0.237088 0.607813 0.722550
0.233498 0.642307 0.753025
0.234375 0.673433 0.771583
0.235449 0.704260 0.776613
0.235980 0.731477 0.769780
0.232691 0.763885 0.744849
0.234766 0.797829 0.711438
0.235104 0.827322 0.673934
0.232655 0.857711 0.625874
0.235331 0.888537 0.579327
0.235901 0.919748 0.536831
0.231548 0.954137 0.498744
0.232031 0.987182 0.477760
0.265526 0.016382 0.526284
0.268213 0.043862 0.538318
0.266210 0.079512 0.540437
0.265604 0.106586 0.543393
0.265260 0.140745 0.548058
0.267325 0.169158 0.556166
0.265267 0.206107 0.547734
0.265423 0.233307 0.539452
0.265287 0.267145 0.523902
0.263783 0.294821 0.507798
0.264828 0.330873 0.496894
0.268530 0.357843 0.498711
0.262940 0.388274 0.492675
0.265790 0.419751 0.510834
0.265736 0.450657 0.535729
0.267760 0.483554 0.574546
0.265149 0.514545 0.614466
0.266960 0.547355 0.664399
0.267949 0.579739 0.711025
0.267729 0.610624 0.747492
0.264932 0.643345 0.775140
0.266285 0.671013 0.790294
0.265872 0.702844 0.794571
0.265011 0.732753 0.786583
0.263019 0.765135 0.763694
0.265452 0.795561 0.732655
0.263156 0.826352 0.691540
0.267513 0.859546 0.643100
0.266680 0.892898 0.591677
0.264023 0.923197 0.550192
0.264148 0.952393 0.521213
0.263006 0.984124 0.499783
0.295205 0.017471 0.599433
0.296821 0.043770 0.605092
0.295413 0.079154 0.607163
0.296407 0.107418 0.613800
0.299772 0.138338 0.625325
0.298724 0.174663 0.623411
0.294820 0.203788 0.609292
0.294149 0.233422 0.596278
0.295578 0.265685 0.582125
0.298911 0.298965 0.568854
0.298290 0.327059 0.553522
0.298763 0.360199 0.542093
0.294033 0.387759 0.533633
0.294708 0.423544 0.544080
0.294136 0.453246 0.563375
0.299557 0.482628 0.595081
0.295029 0.513056 0.630788
0.298123 0.548165 0.680193
0.296841 0.576636 0.717234
0.298197 0.608615 0.752898
0.295004 0.638954 0.779026
0.296476 0.671684 0.796066
0.299132 0.706108 0.799278
0.296528 0.731464 0.792526
0.297024 0.762698 0.772384
0.298457 0.797447 0.736001
0.298893 0.827060 0.696436
0.295200 0.859603 0.647511
0.296441 0.890022 0.601387
0.299921 0.924793 0.555111
0.299066 0.955422 0.526150
0.295698 0.982177 0.509475
0.331235 0.016497 0.674463
0.327925 0.049574 0.666576
0.329317 0.080096 0.670563
0.328385 0.109830 0.672117
0.325995 0.143408 0.671171
0.330133 0.169721 0.675562
0.325257 0.202148 0.660678
0.325688 0.231853 0.648864
0.328242 0.262640 0.634656
0.328509 0.299105 0.609201
0.328231 0.329216 0.588722
0.329607 0.360615 0.573689
0.325142 0.388700 0.562520
0.329194 0.420912 0.566333
0.325414 0.450879 0.577433
0.330757 0.482635 0.602713
0.327376 0.516163 0.639171
0.326046 0.543915 0.674507
0.329320 0.579765 0.717286
0.329461 0.606733 0.744711
0.328686 0.643284 0.773791
0.330811 0.671440 0.785860
0.328162 0.705195 0.790431
0.330745 0.735010 0.779974
0.329524 0.765746 0.759500
0.328068 0.794759 0.730265
0.331101 0.828590 0.683839
0.326708 0.859571 0.639460
0.329366 0.891669 0.590281
0.325609 0.922180 0.551898
0.328817 0.954175 0.519489
0.328095 0.984822 0.500633
0.359931 0.015258 0.713876
0.357195 0.046889 0.706229
0.360821 0.075198 0.709424
0.356573 0.109513 0.707167
0.358254 0.137719 0.709655
0.357782 0.169420 0.706958
0.358644 0.203449 0.699009
0.359982 0.235069 0.685199
0.362095 0.267325 0.664779
0.359457 0.296792 0.638653
0.360313 0.329356 0.612360
0.358797 0.359293 0.591561
0.359249 0.391940 0.576826
0.359589 0.420479 0.572629
0.360035 0.451751 0.579012
0.360646 0.484566 0.597599
0.362114 0.513971 0.622638
0.358834 0.547484 0.662436
0.361144 0.580752 0.698274
0.360509 0.611382 0.727439
0.359546 0.638939 0.748377
0.357148 0.674372 0.766601
0.357821 0.704072 0.768195
0.356280 0.737100 0.759338
0.357971 0.767867 0.735649
0.357993 0.799703 0.701824
0.359418 0.825768 0.665832
0.358853 0.860640 0.614952
0.358978 0.888173 0.574480
0.361039 0.919374 0.531203
0.359008 0.952154 0.500013
0.358107 0.985985 0.478640
0.389616 0.014567 0.732498
0.387848 0.047332 0.726199
0.390533 0.076266 0.726480
0.388215 0.112340 0.727499
0.392904 0.140574 0.728760
0.389796 0.173781 0.724198
0.388514 0.200997 0.715713
0.387861 0.232183 0.699599
0.390426 0.264879 0.676490
0.393023 0.296401 0.648902
0.390077 0.329071 0.618808
0.389427 0.356626 0.596431
0.392590 0.393110 0.572560
0.393247 0.424383 0.562749
0.392313 0.451067 0.564159
0.391078 0.481446 0.575815
0.392520 0.515764 0.597897
0.392885 0.545482 0.625628
0.392934 0.578668 0.659669
0.389932 0.611324 0.692939
0.390785 0.643374 0.713292
0.390125 0.672374 0.725750
0.392182 0.705505 0.724406
0.389613 0.732435 0.719948
0.392145 0.766993 0.692654
0.392995 0.794205 0.664039
0.391938 0.830494 0.618588
0.389746 0.856812 0.584082
0.388506 0.890105 0.537891
0.388103 0.922967 0.496244
0.391016 0.955082 0.461937
0.392989 0.986059 0.439056
0.422720 0.018103 0.725776
0.424240 0.046790 0.720783
0.419457 0.077359 0.723158
0.421141 0.110547 0.724249
0.419511 0.137980 0.725505
0.419646 0.171735 0.721390
0.423179 0.201488 0.709753
0.421194 0.237349 0.690031
0.422680 0.266757 0.666730
0.424429 0.296015 0.639120
0.424120 0.329964 0.605560
0.421430 0.356709 0.582708
0.421866 0.390524 0.556615
0.421567 0.421873 0.542404
0.423380 0.455830 0.537094
0.420626 0.482164 0.546027
0.419438 0.513002 0.563220
0.424828 0.546301 0.580918
0.420240 0.581020 0.619472
0.423959 0.607488 0.634278
0.419559 0.638727 0.663366
0.420869 0.672348 0.674531
0.421502 0.703660 0.674757
0.421455 0.733551 0.664857
0.421139 0.766251 0.643458
0.421434 0.794680 0.615061
0.422939 0.831221 0.565353
0.423113 0.858767 0.526522
0.424058 0.892622 0.478122
0.423709 0.921089 0.445406
0.418810 0.952999 0.424545
0.422744 0.985291 0.397359
0.454031 0.017494 0.696385
0.452359 0.045985 0.695349
0.452434 0.077089 0.694997
0.454335 0.107156 0.694274
0.451822 0.141668 0.698436
0.455340 0.170717 0.690750
0.450901 0.203764 0.685249
0.450035 0.237005 0.667051
0.452387 0.265728 0.642658
0.452153 0.295401 0.615732
0.451819 0.330210 0.580440
0.450777 0.360216 0.552120
0.450304 0.390363 0.526738
0.452355 0.419724 0.505843
0.454724 0.454162 0.493555
0.450072 0.486218 0.504688
0.453506 0.514304 0.509136
0.452597 0.545754 0.530287
0.453216 0.579495 0.554743
0.455263 0.607699 0.570254
0.452906 0.639833 0.594461
0.450313 0.669212 0.612159
0.451265 0.703539 0.612268
0.455197 0.733891 0.592819
0.455247 0.764332 0.573196
0.451132 0.795985 0.552855
0.455838 0.828684 0.503443
0.452307 0.859144 0.471081
0.453924 0.893403 0.425004
0.452536 0.919066 0.399767
0.452780 0.953725 0.369389
0.454677 0.986651 0.344510
0.482069 0.013154 0.652504
0.485408 0.048959 0.644102
0.484883 0.079116 0.645841
0.487388 0.106368 0.643032
0.487009 0.138717 0.644830
0.487298 0.172019 0.641207
0.482992 0.204499 0.638667
0.484940 0.236482 0.617706
0.486467 0.266624 0.592710
0.485815 0.297769 0.565316
0.483435 0.328343 0.537356
0.485401 0.358271 0.502464
0.486682 0.390265 0.469643
0.486987 0.420479 0.447839
0.487198 0.450733 0.436785
0.483850 0.486477 0.443516
0.487266 0.514581 0.444325
0.484539 0.547100 0.465306
0.486363 0.580812 0.483057
0.485393 0.607770 0.501207
0.487134 0.641230 0.512057
0.482038 0.670294 0.533936
0.486792 0.701226 0.523728
0.482268 0.736475 0.525864
0.485015 0.766395 0.501814
0.486492 0.797948 0.471762
0.483697 0.830446 0.442834
0.485421 0.856973 0.408650
0.481250 0.891725 0.377509
0.485180 0.921591 0.339974
0.484840 0.950202 0.315884
0.483446 0.986594 0.294425
0.514818 0.016634 0.583037
0.516103 0.044125 0.581022
0.517153 0.076747 0.581700
0.515266 0.107353 0.588838
0.513074 0.143108 0.594587
0.518703 0.172463 0.579402
0.512706 0.204318 0.582415
0.515545 0.234808 0.561101
0.518098 0.265216 0.534967
0.516804 0.295020 0.511098
0.515511 0.326703 0.480500
0.518419 0.357777 0.442530
0.518458 0.390481 0.412660
0.513294 0.424759 0.399348
0.517857 0.451359 0.381552
0.512544 0.486140 0.389268
0.512815 0.518500 0.395208
0.516509 0.547334 0.398517
0.513357 0.575807 0.420267
0.517654 0.609387 0.426732
0.516599 0.640657 0.438804
0.515790 0.669490 0.446193
0.518144 0.704181 0.440812
0.514235 0.733667 0.444994
0.514947 0.767694 0.427931
0.514019 0.794522 0.410872
0.517052 0.829050 0.371270
0.513758 0.861554 0.346081
0.512641 0.888160 0.321769
0.513675 0.921006 0.288044
0.517373 0.954495 0.254335
0.516665 0.984881 0.237024
0.545945 0.013482 0.504847
0.545576 0.044807 0.510117
0.545148 0.079196 0.516519
0.546280 0.111791 0.518471
0.547371 0.139637 0.517117
0.546483 0.173123 0.515944
0.548964 0.204950 0.501998
0.549057 0.233014 0.490353
0.545404 0.263562 0.479440
0.547085 0.294207 0.449393
0.549992 0.329689 0.408524
0.544514 0.357279 0.393194
0.546407 0.392333 0.359382
0.545085 0.421462 0.343127
0.543957 0.455808 0.332260
0.544413 0.482914 0.327836
0.546763 0.517455 0.326095
0.545360 0.545087 0.336199
0.545515 0.577379 0.348910
0.545051 0.612053 0.364282
0.548525 0.641354 0.363480
0.547349 0.670977 0.368948
0.549424 0.701237 0.362492
0.544463 0.736195 0.367302
0.548114 0.762614 0.347680
0.548425 0.794466 0.327126
0.549344 0.829091 0.297740
0.545912 0.858640 0.281061
0.545094 0.889571 0.256131
0.543861 0.924465 0.229364
0.548659 0.952459 0.202351
0.548312 0.986447 0.184918
0.580486 0.013310 0.405904
0.577146 0.049638 0.425265
0.577264 0.077200 0.432482
0.575504 0.109824 0.444907
0.579852 0.142776 0.436753
0.578083 0.173858 0.439436
0.579017 0.202721 0.431844
0.577202 0.233432 0.424917
0.576760 0.268244 0.404348
0.578913 0.298404 0.375056
0.575985 0.329853 0.354557
0.576575 0.360075 0.327020
0.580341 0.389466 0.295261
0.578803 0.419537 0.278850
0.577335 0.450833 0.268498
0.576637 0.482038 0.263483
0.576268 0.517191 0.265166
0.575443 0.546618 0.272396
0.581020 0.576467 0.268746
0.576234 0.610525 0.291327
0.575508 0.642839 0.301306
0.575954 0.669501 0.302042
0.580057 0.705901 0.289010
0.575285 0.731627 0.294404
0.580186 0.763382 0.271414
0.580007 0.795172 0.254906
0.577495 0.828745 0.238673
0.579095 0.856586 0.216341
0.581165 0.892577 0.186693
0.577585 0.918949 0.175491
0.575675 0.956090 0.159248
0.580419 0.985444 0.140753
0.611465 0.013989 0.320256
0.610731 0.047436 0.332835
0.607641 0.076424 0.350288
0.606260 0.109049 0.363481
0.608811 0.143331 0.362372
0.606390 0.171959 0.369060
0.608603 0.205372 0.358138
0.611212 0.235059 0.340618
0.608324 0.266400 0.330397
0.610337 0.297777 0.305206
0.607869 0.325163 0.290743
0.612419 0.357548 0.256660
0.610265 0.391002 0.237126
0.608606 0.419504 0.223605
0.609057 0.450861 0.208794
0.609911 0.484641 0.198652
0.609273 0.518041 0.200138
0.606760 0.546016 0.209551
0.606880 0.576870 0.215378
0.611510 0.611956 0.213917
0.611425 0.643564 0.220219
0.611333 0.673737 0.222071
0.611499 0.702805 0.219865
0.610263 0.735587 0.217248
0.611348 0.765426 0.206837
0.607460 0.796260 0.201284
0.612067 0.827920 0.177478
0.608615 0.859485 0.164911
0.607673 0.893120 0.146183
0.612412 0.919606 0.126247
0.609116 0.954307 0.116469
0.607994 0.983808 0.108570
0.642125 0.012695 0.246849
0.639400 0.044954 0.261410
0.642582 0.076718 0.261571
0.641986 0.108804 0.270945
0.642407 0.142014 0.276981
0.641107 0.172706 0.282375
0.642491 0.200002 0.276646
0.641424 0.233415 0.270280
0.640449 0.265576 0.259097
0.640810 0.295741 0.242703
0.642862 0.325863 0.220793
0.639995 0.358668 0.204545
0.642790 0.387851 0.181877
0.640355 0.423535 0.167464
0.639328 0.456012 0.156178
0.643750 0.487494 0.142711
0.642135 0.514686 0.144444
0.642479 0.544994 0.147206
0.641255 0.578393 0.154171
0.639073 0.607510 0.162402
0.641098 0.640711 0.164111
0.642173 0.672550 0.164563
0.643685 0.704990 0.161251
0.640967 0.732167 0.162763
0.638169 0.765774 0.160560
0.639039 0.797323 0.149055
0.639590 0.829242 0.135182
0.637934 0.861529 0.122792
0.642977 0.889575 0.103887
0.638409 0.923400 0.095250
0.641637 0.952517 0.083047
0.641156 0.984722 0.075415
0.671838 0.016341 0.187568
0.674530 0.047587 0.188853
0.670352 0.075248 0.202137
0.672629 0.108397 0.205309
0.668901 0.138571 0.218786
0.672567 0.171399 0.214698
0.672303 0.204565 0.213603
0.671087 0.233535 0.210071
0.671102 0.263041 0.200419
0.672394 0.296364 0.184324
0.669443 0.327033 0.174302
0.673032 0.359775 0.150984
0.674199 0.390824 0.133243
0.674841 0.419127 0.119927
0.671721 0.450688 0.113342
0.674951 0.484684 0.103983
0.673117 0.513295 0.104815
0.671719 0.544121 0.107441
0.671532 0.580737 0.111293
0.671497 0.611616 0.115395
0.674982 0.640933 0.114116
0.669527 0.674040 0.123673
0.669939 0.704152 0.122954
0.672852 0.737332 0.115865
0.671610 0.763496 0.112829
0.669620 0.795521 0.106994
0.674831 0.828737 0.090700
0.674076 0.856643 0.082872
0.674535 0.893434 0.071002
0.671667 0.920514 0.065994
0.671627 0.952693 0.058717
0.674163 0.982491 0.051090
0.702405 0.017245 0.135984
0.705089 0.047955 0.137970
0.704510 0.079271 0.144287
0.701962 0.107303 0.153682
0.704300 0.143256 0.155955
0.701036 0.168774 0.163528
0.701102 0.201113 0.163003
0.701238 0.235427 0.157510
0.704215 0.265734 0.144844
0.702021 0.296669 0.137830
0.702005 0.325585 0.126851
0.705440 0.359032 0.108807
0.700924 0.391575 0.101144
0.705887 0.424265 0.085440
0.704131 0.451274 0.080603
0.701065 0.481350 0.079152
0.701034 0.513182 0.077393
0.702257 0.547257 0.075907
0.706024 0.576534 0.073763
0.700149 0.606438 0.081928
0.705539 0.643040 0.079180
0.705708 0.672171 0.080247
0.701079 0.703044 0.085162
0.705090 0.737104 0.078706
0.703644 0.765931 0.076315
0.702948 0.798458 0.070688
0.702077 0.826078 0.065544
0.703206 0.858628 0.057529
0.705176 0.893544 0.048756
0.700030 0.920634 0.046795
0.702841 0.955565 0.039628
0.705272 0.982815 0.034463
0.735837 0.017747 0.091695
0.733894 0.048178 0.099618
0.733787 0.078289 0.103970
0.734535 0.106822 0.106758
0.733773 0.142388 0.112364
0.732905 0.170674 0.115776
0.732406 0.204729 0.115891
0.735129 0.235283 0.108943
0.733296 0.263464 0.105954
0.732402 0.296595 0.098801
0.734582 0.326015 0.088182
0.737036 0.358807 0.076310
0.731445 0.388546 0.072951
0.734782 0.424909 0.061730
0.732127 0.452085 0.058862
0.733182 0.483465 0.054369
0.732268 0.514513 0.052976
0.733622 0.547759 0.051392
0.735014 0.575236 0.050947
0.733344 0.606739 0.053421
0.734650 0.640570 0.054005
0.733049 0.670329 0.056117
0.733996 0.704116 0.055308
0.733285 0.731260 0.054700
0.737329 0.763130 0.049338
0.733240 0.799722 0.047781
0.733433 0.826034 0.044013
0.737409 0.856978 0.037193
0.731512 0.893506 0.034572
0.736158 0.920127 0.029077
0.731884 0.951591 0.027307
0.733984 0.982769 0.023326
0.764266 0.015933 0.062972
0.768014 0.049073 0.064797
0.766690 0.078485 0.069074
0.767236 0.111887 0.071353
0.767834 0.142248 0.073282
0.763962 0.174989 0.079023
0.764133 0.202344 0.078744
0.764372 0.235910 0.076159
0.768699 0.267289 0.068096
0.765179 0.297760 0.066163
0.765399 0.325640 0.060767
0.763637 0.361646 0.054382
0.765646 0.393319 0.046618
0.768113 0.420570 0.040820
0.766432 0.456096 0.037454
0.765900 0.486442 0.035138
0.762843 0.513685 0.035192
0.768596 0.548533 0.031887
0.767937 0.575202 0.032304
0.765740 0.608596 0.033888
0.768560 0.638707 0.033392
0.763929 0.672481 0.036595
0.768103 0.703434 0.034462
0.763030 0.736106 0.035996
0.767319 0.766927 0.032122
0.762825 0.799272 0.031899
0.762948 0.831217 0.028938
0.764187 0.859374 0.025369
0.766796 0.892178 0.020983
0.768404 0.923061 0.017815
0.768199 0.951070 0.015894
0.767596 0.983018 0.013904
0.796762 0.018193 0.040065
0.798145 0.046246 0.042635
0.794803 0.080641 0.047912
0.795063 0.109677 0.049692
0.796080 0.139145 0.050413
0.798792 0.170224 0.049401
0.797868 0.202098 0.049936
0.797013 0.234081 0.049311
0.797543 0.266669 0.046612
0.793886 0.298870 0.045511
0.796108 0.328386 0.040123
0.799811 0.360914 0.033249
0.798708 0.392242 0.029699
0.796583 0.421292 0.027476
0.795276 0.454389 0.025175
0.795086 0.485382 0.023445
0.796294 0.514227 0.021959
0.795895 0.545634 0.021514
0.798053 0.580964 0.020825
0.798614 0.611889 0.020981
0.793885 0.643589 0.023145
0.794086 0.671312 0.023500
0.794772 0.704975 0.023172
0.793822 0.735013 0.022830
0.799509 0.763187 0.019863
0.797156 0.794206 0.019152
0.797228 0.827396 0.017352
0.796759 0.858693 0.015489
0.796304 0.890994 0.013427
0.799632 0.923119 0.010984
0.797435 0.950070 0.010099
0.795517 0.983671 0.008812
0.829661 0.016036 0.024071
0.828464 0.045429 0.027217
0.825732 0.076010 0.030636
0.827214 0.111302 0.031898
0.826661 0.138698 0.033039
0.827590 0.172801 0.032915
0.828310 0.200455 0.032299
0.827937 0.233618 0.031644
0.825618 0.265583 0.031417
0.825830 0.295102 0.029325
0.827739 0.327207 0.025499
0.831211 0.361826 0.021002
0.827187 0.390245 0.019909
0.830010 0.424889 0.016688
0.826883 0.453604 0.015882
0.828450 0.482145 0.014421
0.828166 0.515624 0.013575
0.829560 0.544266 0.012867
0.826357 0.576081 0.013468
0.827408 0.608591 0.013402
0.826652 0.638529 0.013739
0.830353 0.670284 0.012900
0.830584 0.704945 0.012691
0.831026 0.732817 0.012358
0.826776 0.765936 0.012645
0.829493 0.796971 0.011145
0.828041 0.827199 0.010355
0.830365 0.858826 0.008827
0.825128 0.893223 0.008310
0.830997 0.922304 0.006610
0.831237 0.952503 0.005736
0.828673 0.986290 0.004965
0.858801 0.012771 0.014871
0.859659 0.044563 0.016433
0.859842 0.081058 0.017829
0.860508 0.107545 0.018581
0.859774 0.142692 0.019797
0.858080 0.170663 0.020668
0.862362 0.206156 0.019047
0.859898 0.233330 0.019295
0.859510 0.263015 0.018601
0.861298 0.298010 0.016613
0.859967 0.326276 0.015468
0.857503 0.357275 0.014353
0.858005 0.388734 0.012567
0.861207 0.424199 0.010308
0.861183 0.450567 0.009393
0.857250 0.482794 0.009101
0.861009 0.515732 0.007919
0.858699 0.549175 0.007934
0.858329 0.578729 0.007921
0.861126 0.612417 0.007524
0.862215 0.642642 0.007343
0.861106 0.673040 0.007433
0.861512 0.703925 0.007321
0.861052 0.733729 0.007275
0.859908 0.765125 0.007131
0.861260 0.796736 0.006442
0.860567 0.830085 0.005840
0.859693 0.858092 0.005315
0.859919 0.890465 0.004600
0.861866 0.921433 0.003884
0.857874 0.952900 0.003619
0.856250 0.985363 0.003107
0.888074 0.016014 0.009316
0.891744 0.047923 0.009706
0.892158 0.079078 0.010323
0.893637 0.107998 0.010643
0.892392 0.137532 0.011378
0.888043 0.169120 0.012615
0.893292 0.201342 0.011572
0.892383 0.232835 0.011462
0.889291 0.267114 0.011399
0.889349 0.296707 0.010556
0.893187 0.330769 0.008849
0.893074 0.357817 0.008005
0.892203 0.391774 0.007066
0.890426 0.421712 0.006467
0.888805 0.453165 0.005925
0.893111 0.486469 0.004887
0.893492 0.518582 0.004473
0.893240 0.544679 0.004348
0.889143 0.577478 0.004593
0.892322 0.611066 0.004315
0.892348 0.640340 0.004317
0.890117 0.672727 0.004489
0.891544 0.704638 0.004347
0.892684 0.732951 0.004166
0.892376 0.763628 0.003994
0.888250 0.798673 0.003958
0.893699 0.825483 0.003293
0.890156 0.861507 0.003047
0.891460 0.893405 0.002596
0.890190 0.924662 0.002319
0.892491 0.952357 0.001959
0.889042 0.986429 0.001709
0.919010 0.013929 0.005471
0.919338 0.049134 0.006233
0.919022 0.080967 0.006787
0.923901 0.111681 0.006666
0.921950 0.142188 0.007118
0.924989 0.171359 0.006953
0.920073 0.202523 0.007562
0.919431 0.233513 0.007502
0.919355 0.263775 0.007138
0.921169 0.298897 0.006279
0.924370 0.331036 0.005335
0.923857 0.358855 0.004825
0.923859 0.392031 0.004201
0.921616 0.421344 0.003878
0.922454 0.453771 0.003364
0.922922 0.487421 0.002945
0.923369 0.512526 0.002734
0.922659 0.544564 0.002617
0.924351 0.579236 0.002473
0.920802 0.607730 0.002631
0.921572 0.641755 0.002622
0.920368 0.669662 0.002680
0.923149 0.703742 0.002525
0.923069 0.731711 0.002448
0.924248 0.763769 0.002251
0.920105 0.798329 0.002223
0.923660 0.830989 0.001875
0.923222 0.860878 0.001685
0.919970 0.888847 0.001598
0.918878 0.923995 0.001400
0.923505 0.951366 0.001125
0.921376 0.982942 0.000960
0.954230 0.017724 0.003146
0.950316 0.047643 0.003852
0.953961 0.077861 0.004052
0.950685 0.110783 0.004578
0.950109 0.140080 0.004789
0.953364 0.169389 0.004674
0.954002 0.202724 0.004645
0.950174 0.232765 0.004788
0.952062 0.266449 0.004372
0.952349 0.297154 0.003984
0.954805 0.325493 0.003519
0.954767 0.356552 0.003134
0.951154 0.390440 0.002838
0.955241 0.420865 0.002351
0.952302 0.455336 0.002112
0.954917 0.482991 0.001838
0.955096 0.516896 0.001668
0.955612 0.549190 0.001555
0.952580 0.576137 0.001585
0.953465 0.609568 0.001562
0.952194 0.642033 0.001599
0.956075 0.670221 0.001503
0.950880 0.701486 0.001607
0.955010 0.736389 0.001445
0.952506 0.767924 0.001400
0.953765 0.793992 0.001280
0.954720 0.828048 0.001129
0.956116 0.858470 0.000987
0.954562 0.888532 0.000894
0.955493 0.920690 0.000759
0.954235 0.950940 0.000663
0.951799 0.986917 0.000540
0.981389 0.016198 0.002088
0.987154 0.048933 0.002347
0.984801 0.076321 0.002704
0.981440 0.109888 0.003121
0.985260 0.138469 0.003133
0.981677 0.170672 0.003334
0.984839 0.202304 0.003183
0.982563 0.231469 0.003172
0.985981 0.262908 0.002858
0.982971 0.298566 0.002710
0.983589 0.326893 0.002471
0.983465 0.362295 0.002151
0.985139 0.391861 0.001840
0.983416 0.419715 0.001651
0.984475 0.453534 0.001395
0.985603 0.485556 0.001214
0.986298 0.515368 0.001102
0.985851 0.544761 0.001044
0.983299 0.575078 0.001043
0.984004 0.611284 0.001017
0.987082 0.641022 0.000971
0.984794 0.672348 0.000998
0.987424 0.704553 0.000947
0.981945 0.734443 0.000992
0.984028 0.765467 0.000910
0.984656 0.797407 0.000825
0.982178 0.829535 0.000766
0.984534 0.858407 0.000665
0.984924 0.887706 0.000580
0.986931 0.923485 0.000467
0.984425 0.952557 0.000412
0.984145 0.982266 0.000331
