x  y  phi
0.012500 0.013322 0.033886
0.017223 0.046617 0.043856
0.015830 0.076368 0.048966
0.012794 0.110493 0.053661
0.016746 0.143342 0.060907
0.014897 0.171996 0.063311
0.017694 0.200216 0.066905
0.012834 0.234561 0.064898
0.016695 0.262548 0.067333
0.014896 0.294168 0.067834
0.015109 0.329292 0.074353
0.016181 0.362065 0.087714
0.017789 0.390793 0.106130
0.013075 0.422837 0.131028
0.015100 0.454382 0.171623
0.018190 0.486014 0.222510
0.014140 0.512797 0.263045
0.017101 0.545801 0.324349
0.016454 0.579728 0.383356
0.018694 0.608533 0.428427
0.014044 0.643641 0.465354
0.017017 0.673458 0.490079
0.016572 0.700454 0.496744
0.016448 0.736779 0.485814
0.014204 0.765228 0.460062
0.017291 0.796736 0.425378
0.013986 0.826718 0.377085
0.014745 0.857291 0.323967
0.015541 0.893110 0.260548
0.018183 0.919129 0.224038
0.018154 0.953153 0.184205
0.015727 0.983244 0.152208
0.049917 0.015587 0.053161
0.045413 0.044317 0.057836
0.049674 0.075461 0.067894
0.046879 0.108651 0.073295
0.045482 0.143211 0.078324
0.047061 0.171653 0.083467
0.049631 0.200313 0.088468
0.048509 0.236064 0.088649
0.048924 0.263284 0.088704
0.043849 0.298053 0.086309
0.049177 0.328935 0.096049
0.048351 0.360784 0.107850
0.049997 0.393054 0.129421
0.045207 0.420665 0.151615
0.045944 0.453208 0.194810
0.047444 0.486537 0.249072
0.046326 0.517759 0.301234
0.045433 0.546346 0.352347
0.047108 0.577924 0.410714
0.045545 0.607365 0.453840
0.044711 0.641073 0.493683
0.048765 0.668957 0.520685
0.047090 0.703116 0.528542
0.049721 0.735927 0.522341
0.047216 0.768067 0.492673
0.047655 0.799013 0.455055
0.044749 0.826330 0.410117
0.048217 0.857065 0.359947
0.044319 0.889216 0.296130
0.043769 0.921339 0.244399
0.043918 0.954436 0.205439
0.049612 0.982749 0.185331
0.076131 0.014485 0.072682
0.080544 0.047825 0.087904
0.075940 0.079258 0.092111
0.077411 0.108673 0.101866
0.078123 0.138422 0.109733
0.078670 0.174035 0.116549
0.078688 0.205971 0.119133
0.078476 0.232176 0.119027
0.081146 0.265055 0.121294
0.075886 0.297281 0.115119
0.076576 0.328053 0.120545
0.077900 0.362257 0.134963
0.075788 0.388748 0.149631
0.076995 0.422683 0.185308
0.075792 0.454070 0.228806
0.078885 0.486269 0.286120
0.076549 0.515478 0.334370
0.077433 0.545020 0.391948
0.075177 0.580635 0.454940
0.077666 0.607138 0.501053
0.080922 0.640064 0.546975
0.075820 0.674285 0.562791
0.075576 0.701014 0.568890
0.075444 0.733533 0.561273
0.076582 0.763344 0.541503
0.079895 0.796596 0.508120
0.077185 0.827827 0.454798
0.080056 0.862073 0.396572
0.079073 0.888845 0.344620
0.079247 0.924431 0.284752
0.076563 0.955380 0.241262
0.077945 0.984412 0.215453
0.110002 0.017610 0.114408
0.110974 0.046639 0.127264
0.112196 0.078955 0.141224
0.108996 0.111404 0.147642
0.110556 0.141889 0.159693
0.112420 0.174715 0.169280
0.111570 0.201808 0.169471
0.109609 0.234465 0.165633
0.106896 0.265088 0.159176
0.109854 0.299229 0.162454
0.109000 0.329561 0.163828
0.111683 0.360723 0.178059
0.111255 0.391916 0.198241
0.110886 0.418869 0.227630
0.111788 0.453281 0.281001
0.109146 0.481657 0.325646
0.110709 0.515556 0.393143
0.110423 0.548013 0.459650
0.107497 0.580729 0.517454
0.111662 0.611813 0.574401
0.109650 0.638370 0.601325
0.109065 0.674934 0.626813
0.107597 0.702788 0.630008
0.108223 0.734467 0.623772
0.111759 0.765248 0.608481
0.109172 0.798792 0.562082
0.108532 0.826322 0.516000
0.112494 0.857210 0.464356
0.110191 0.891352 0.392963
0.106254 0.918755 0.337288
0.111083 0.954546 0.294514
0.108245 0.983861 0.259216
0.141766 0.016754 0.168655
0.138783 0.048978 0.176013
0.141931 0.080179 0.195759
0.138091 0.106761 0.200069
0.142275 0.141435 0.222202
0.138837 0.170085 0.220993
0.138007 0.202430 0.222492
0.143451 0.237172 0.234584
0.139937 0.264183 0.223599
0.141826 0.295525 0.223121
0.142355 0.329899 0.222551
0.140140 0.358013 0.223947
0.138712 0.387571 0.238599
0.138699 0.424895 0.280984
0.139025 0.455123 0.329199
0.138353 0.483738 0.380923
0.141256 0.513606 0.448526
0.142677 0.544736 0.518958
0.143675 0.576607 0.585248
0.138960 0.606885 0.624545
0.138871 0.641467 0.665439
0.141850 0.673717 0.695723
0.141852 0.704706 0.702395
0.141685 0.735209 0.692723
0.137853 0.766239 0.660880
0.138919 0.795742 0.627244
0.141874 0.825734 0.583805
0.142266 0.859538 0.516897
0.140962 0.891175 0.449956
0.139560 0.923144 0.388860
0.138394 0.951011 0.346091
0.140533 0.986626 0.310290
0.173833 0.015980 0.239288
0.173369 0.045725 0.251175
0.169596 0.078303 0.258140
0.170692 0.109926 0.279176
0.171988 0.140193 0.295795
0.170368 0.171064 0.298979
0.171206 0.202793 0.305124
0.171724 0.233674 0.304895
0.170496 0.262989 0.295795
0.171061 0.295337 0.289497
0.172949 0.329226 0.287971
0.171962 0.360804 0.288329
0.173255 0.393405 0.308518
0.171629 0.424626 0.338972
0.170760 0.452878 0.381010
0.171982 0.485383 0.445721
0.171261 0.516285 0.510953
0.174916 0.544690 0.578862
0.172938 0.577149 0.640894
0.172136 0.609518 0.692915
0.173933 0.637593 0.731012
0.170464 0.672769 0.751881
0.172163 0.705737 0.761006
0.170416 0.737313 0.746083
0.170292 0.767775 0.720835
0.173088 0.796598 0.691491
0.173857 0.825138 0.646499
0.169755 0.860668 0.566119
0.173174 0.890229 0.509977
0.172390 0.923448 0.446302
0.174947 0.954348 0.405998
0.170497 0.985962 0.363775
0.201070 0.012527 0.309459
0.203098 0.044249 0.332918
0.201019 0.080646 0.349312
0.204894 0.110917 0.380550
0.202728 0.137540 0.385989
0.203655 0.171990 0.398306
0.200418 0.203400 0.390713
0.202436 0.232599 0.392899
0.202411 0.266418 0.381196
0.204119 0.298183 0.371715
0.203367 0.326752 0.359038
0.205100 0.358574 0.359017
0.204288 0.389439 0.366706
0.200058 0.419399 0.383997
0.203256 0.454849 0.440999
0.201379 0.481595 0.488390
0.200441 0.513502 0.554107
0.204524 0.545606 0.628241
0.200316 0.577986 0.686751
0.202857 0.609500 0.743392
0.202791 0.638439 0.779346
0.201787 0.673961 0.804370
0.204348 0.703611 0.813367
0.204257 0.733320 0.803504
0.200359 0.768668 0.768506
0.203390 0.793760 0.743105
0.205351 0.825183 0.697019
0.202360 0.859310 0.623289
0.203601 0.892118 0.553817
0.204246 0.922102 0.496703
0.200222 0.950766 0.448260
0.206083 0.982427 0.421712
0.233446 0.016338 0.415152
0.235048 0.044537 0.437149
0.234705 0.080963 0.458637
0.233481 0.111488 0.471476
0.237339 0.139119 0.495994
0.232822 0.171402 0.492076
0.236332 0.205612 0.504855
0.232779 0.236004 0.484855
0.235593 0.265324 0.476225
0.232898 0.297909 0.445596
0.231979 0.326310 0.426011
0.231960 0.359669 0.416080
0.231288 0.388600 0.418971
0.234996 0.421449 0.449047
0.231766 0.454296 0.487094
0.233596 0.486476 0.547805
0.232023 0.518583 0.611121
0.231435 0.544252 0.663432
0.234339 0.579809 0.737223
0.237088 0.607813 0.785549
0.233498 0.642307 0.821826
0.234375 0.673433 0.843213
0.235449 0.704260 0.849140
0.235980 0.731477 0.841736
0.232691 0.763885 0.813496
0.234766 0.797829 0.774185
0.235104 0.827322 0.727575
0.232655 0.857711 0.664669
0.235331 0.888537 0.600184
0.235901 0.919748 0.538357
0.231548 0.954137 0.481068
0.232031 0.987182 0.446175
0.265526 0.016382 0.523248
0.268213 0.043862 0.544923
0.266210 0.079512 0.557355
0.265604 0.106586 0.568699
0.265260 0.140745 0.583049
0.267325 0.169158 0.598616
0.265267 0.206107 0.591374
0.265423 0.233307 0.579873
0.265287 0.267145 0.554807
0.263783 0.294821 0.526921
0.264828 0.330873 0.501108
0.268530 0.357843 0.494865
0.262940 0.388274 0.479930
0.265790 0.419751 0.499027
0.265736 0.450657 0.531348
0.267760 0.483554 0.585033
0.265149 0.514545 0.641409
0.266960 0.547355 0.708663
0.267949 0.579739 0.768863
0.267729 0.610624 0.813913
0.264932 0.643345 0.846744
0.266285 0.671013 0.864297
0.265872 0.702844 0.869585
0.265011 0.732753 0.861200
0.263019 0.765135 0.835819
0.265452 0.795561 0.799965
0.263156 0.826352 0.749594
0.267513 0.859546 0.686446
0.266680 0.892898 0.615136
0.264023 0.923197 0.554375
0.264148 0.952393 0.509523
0.263006 0.984124 0.473986
0.295205 0.017471 0.615826
0.296821 0.043770 0.628564
0.295413 0.079154 0.639706
0.296407 0.107418 0.655448
0.299772 0.138338 0.677294
0.298724 0.174663 0.681944
0.294820 0.203788 0.667388
0.294149 0.233422 0.650828
0.295578 0.265685 0.628714
0.298911 0.298965 0.603509
0.298290 0.327059 0.575074
0.298763 0.360199 0.550090
0.294033 0.387759 0.532000
0.294708 0.423544 0.540097
0.294136 0.453246 0.564927
0.299557 0.482628 0.608534
0.295029 0.513056 0.659242
0.298123 0.548165 0.726470
0.296841 0.576636 0.775066
0.298197 0.608615 0.819749
0.295004 0.638954 0.851105
0.296476 0.671684 0.871217
0.299132 0.706108 0.875739
0.296528 0.731464 0.868761
0.297024 0.762698 0.846827
0.298457 0.797447 0.805046
0.298893 0.827060 0.756688
0.295200 0.859603 0.692830
0.296441 0.890022 0.628970
0.299921 0.924793 0.560885
0.299066 0.955422 0.515498
0.295698 0.982177 0.487139
0.331235 0.016497 0.712765
0.327925 0.049574 0.707734
0.329317 0.080096 0.718978
0.328385 0.109830 0.727920
0.325995 0.143408 0.734365
0.330133 0.169721 0.744501
0.325257 0.202148 0.730079
0.325688 0.231853 0.715992
0.328242 0.262640 0.695374
0.328509 0.299105 0.655460
0.328231 0.329216 0.620731
0.329607 0.360615 0.592132
0.325142 0.388700 0.569918
0.329194 0.420912 0.569222
0.325414 0.450879 0.582292
0.330757 0.482635 0.617522
0.327376 0.516163 0.669280
0.326046 0.543915 0.718279
0.329320 0.579765 0.775617
0.329461 0.606733 0.810769
0.328686 0.643284 0.846502
0.330811 0.671440 0.861394
0.328162 0.705195 0.867442
0.330745 0.735010 0.856793
0.329524 0.765746 0.834165
0.328068 0.794759 0.800187
0.331101 0.828590 0.743382
0.326708 0.859571 0.684726
0.329366 0.891669 0.616524
0.325609 0.922180 0.558995
0.328817 0.954175 0.508862
0.328095 0.984822 0.476522
0.359931 0.015258 0.763669
0.357195 0.046889 0.757710
0.360821 0.075198 0.766443
0.356573 0.109513 0.770896
0.358254 0.137719 0.779915
0.357782 0.169420 0.782344
0.358644 0.203449 0.776701
0.359982 0.235069 0.760773
0.362095 0.267325 0.733165
0.359457 0.296792 0.694949
0.360313 0.329356 0.653305
0.358797 0.359293 0.617885
0.359249 0.391940 0.589889
0.359589 0.420479 0.579037
0.360035 0.451751 0.585525
0.360646 0.484566 0.611899
0.362114 0.513971 0.648509
0.358834 0.547484 0.704656
0.361144 0.580752 0.754268
0.360509 0.611382 0.792655
0.359546 0.638939 0.819213
0.357148 0.674372 0.841808
0.357821 0.704072 0.844876
0.356280 0.737100 0.835725
0.357971 0.767867 0.809258
0.357993 0.799703 0.769142
0.359418 0.825768 0.724395
0.358853 0.860640 0.656993
0.358978 0.888173 0.600232
0.361039 0.919374 0.536867
0.359008 0.952154 0.487443
0.358107 0.985985 0.450857
0.389616 0.014567 0.787232
0.387848 0.047332 0.782893
0.390533 0.076266 0.787794
0.388215 0.112340 0.796423
0.392904 0.140574 0.803764
0.389796 0.173781 0.804042
0.388514 0.200997 0.797148
0.387861 0.232183 0.779191
0.390426 0.264879 0.749497
0.393023 0.296401 0.710619
0.390077 0.329071 0.664570
0.389427 0.356626 0.628181
0.392590 0.393110 0.587436
0.393247 0.424383 0.568741
0.392313 0.451067 0.568735
0.391078 0.481446 0.585372
0.392520 0.515764 0.619089
0.392885 0.545482 0.660353
0.392934 0.578668 0.709195
0.389932 0.611324 0.754004
0.390785 0.643374 0.781487
0.390125 0.672374 0.798147
0.392182 0.705505 0.798626
0.389613 0.732435 0.794138
0.392145 0.766993 0.763025
0.392995 0.794205 0.728405
0.391938 0.830494 0.670002
0.389746 0.856812 0.622940
0.388506 0.890105 0.557123
0.388103 0.922967 0.494865
0.391016 0.955082 0.442665
0.392989 0.986059 0.405800
0.422720 0.018103 0.777969
0.424240 0.046790 0.775344
0.419457 0.077359 0.783670
0.421141 0.110547 0.792216
0.419511 0.137980 0.799734
0.419646 0.171735 0.801199
0.423179 0.201488 0.791439
0.421194 0.237349 0.769406
0.422680 0.266757 0.739658
0.424429 0.296015 0.701433
0.424120 0.329964 0.651323
0.421430 0.356709 0.614390
0.421866 0.390524 0.571147
0.421567 0.421873 0.546019
0.423380 0.455830 0.536877
0.420626 0.482164 0.549707
0.419438 0.513002 0.576529
0.424828 0.546301 0.606978
0.420240 0.581020 0.662444
0.423959 0.607488 0.685560
0.419559 0.638727 0.724540
0.420869 0.672348 0.741285
0.421502 0.703660 0.743746
0.421455 0.733551 0.733272
0.421139 0.766251 0.708019
0.421434 0.794680 0.672692
0.422939 0.831221 0.608131
0.423113 0.858767 0.555046
0.424058 0.892622 0.486263
0.423709 0.921089 0.437031
0.418810 0.952999 0.400933
0.422744 0.985291 0.359375
0.454031 0.017494 0.739120
0.452359 0.045985 0.742647
0.452434 0.077089 0.748558
0.454335 0.107156 0.755104
0.451822 0.141668 0.768763
0.455340 0.170717 0.765829
0.450901 0.203764 0.763790
0.450035 0.237005 0.743485
0.452387 0.265728 0.712583
0.452153 0.295401 0.675120
0.451819 0.330210 0.622722
0.450777 0.360216 0.578009
0.450304 0.390363 0.536668
0.452355 0.419724 0.503547
0.454724 0.454162 0.484978
0.450072 0.486218 0.500570
0.453506 0.514304 0.511484
0.452597 0.545754 0.545620
0.453216 0.579495 0.584528
0.455263 0.607699 0.609561
0.452906 0.639833 0.644172
0.450313 0.669212 0.668918
0.451265 0.703539 0.671906
0.455197 0.733891 0.650141
0.455247 0.764332 0.626490
0.451132 0.795985 0.599719
0.455838 0.828684 0.535413
0.452307 0.859144 0.489298
0.453924 0.893403 0.423977
0.452536 0.919066 0.385761
0.452780 0.953725 0.339266
0.454677 0.986651 0.301177
0.482069 0.013154 0.681156
0.485408 0.048959 0.678762
0.484883 0.079116 0.688483
0.487388 0.106368 0.692765
0.487009 0.138717 0.704151
0.487298 0.172019 0.707606
0.482992 0.204499 0.709293
0.484940 0.236482 0.685610
0.486467 0.266624 0.653617
0.485815 0.297769 0.615059
0.483435 0.328343 0.572623
0.485401 0.358271 0.520169
0.486682 0.390265 0.469296
0.486987 0.420479 0.434972
0.487198 0.450733 0.417974
0.483850 0.486477 0.427595
0.487266 0.514581 0.433714
0.484539 0.547100 0.467259
0.486363 0.580812 0.497828
0.485393 0.607770 0.526081
0.487134 0.641230 0.545318
0.482038 0.670294 0.575680
0.486792 0.701226 0.566172
0.482268 0.736475 0.570314
0.485015 0.766395 0.540952
0.486492 0.797948 0.502311
0.483697 0.830446 0.462499
0.485421 0.856973 0.415824
0.481250 0.891725 0.369498
0.485180 0.921591 0.317481
0.484840 0.950202 0.282103
0.483446 0.986594 0.248482
0.514818 0.016634 0.594608
0.516103 0.044125 0.599286
0.517153 0.076747 0.609151
0.515266 0.107353 0.627224
0.513074 0.143108 0.644760
0.518703 0.172463 0.633274
0.512706 0.204318 0.641730
0.515545 0.234808 0.617391
0.518098 0.265216 0.583976
0.516804 0.295020 0.550226
0.515511 0.326703 0.504840
0.518419 0.357777 0.449032
0.518458 0.390481 0.402459
0.513294 0.424759 0.377772
0.517857 0.451359 0.353995
0.512544 0.486140 0.363983
0.512815 0.518500 0.376488
0.516509 0.547334 0.387177
0.513357 0.575807 0.420395
0.517654 0.609387 0.435883
0.516599 0.640657 0.455984
0.515790 0.669490 0.468660
0.518144 0.704181 0.465163
0.514235 0.733667 0.471732
0.514947 0.767694 0.450942
0.514019 0.794522 0.428772
0.517052 0.829050 0.376884
0.513758 0.861554 0.341059
0.512641 0.888160 0.306647
0.513675 0.921006 0.260232
0.517373 0.954495 0.215776
0.516665 0.984881 0.191035
0.545945 0.013482 0.497702
0.545576 0.044807 0.512947
0.545148 0.079196 0.530612
0.546280 0.111791 0.543133
0.547371 0.139637 0.549648
0.546483 0.173123 0.555949
0.548964 0.204950 0.543315
0.549057 0.233014 0.530468
0.545404 0.263562 0.515929
0.547085 0.294207 0.474911
0.549992 0.329689 0.417167
0.544514 0.357279 0.390863
0.546407 0.392333 0.340674
0.545085 0.421462 0.314849
0.543957 0.455808 0.298321
0.544413 0.482914 0.293884
0.546763 0.517455 0.296723
0.545360 0.545087 0.313695
0.545515 0.577379 0.335642
0.545051 0.612053 0.361128
0.548525 0.641354 0.364669
0.547349 0.670977 0.374523
0.549424 0.701237 0.369127
0.544463 0.736195 0.376654
0.548114 0.762614 0.353110
0.548425 0.794466 0.327407
0.549344 0.829091 0.289660
0.545912 0.858640 0.266434
0.545094 0.889571 0.232845
0.543861 0.924465 0.196546
0.548659 0.952459 0.163369
0.548312 0.986447 0.140477
0.580486 0.013310 0.380706
0.577146 0.049638 0.413144
0.577264 0.077200 0.429186
0.575504 0.109824 0.453640
0.579852 0.142776 0.452658
0.578083 0.173858 0.462129
0.579017 0.202721 0.456411
0.577202 0.233432 0.449437
0.576760 0.268244 0.422827
0.578913 0.298404 0.383368
0.575985 0.329853 0.352712
0.576575 0.360075 0.313067
0.580341 0.389466 0.269508
0.578803 0.419537 0.244971
0.577335 0.450833 0.229795
0.576637 0.482038 0.224112
0.576268 0.517191 0.229515
0.575443 0.546618 0.241980
0.581020 0.576467 0.243171
0.576234 0.610525 0.274910
0.575508 0.642839 0.290869
0.575954 0.669501 0.294221
0.580057 0.705901 0.281169
0.575285 0.731627 0.288575
0.580186 0.763382 0.261805
0.580007 0.795172 0.241927
0.577495 0.828745 0.221460
0.579095 0.856586 0.194074
0.581165 0.892577 0.157924
0.577585 0.918949 0.142519
0.575675 0.956090 0.121143
0.580419 0.985444 0.100364
0.611465 0.013989 0.284279
0.610731 0.047436 0.306034
0.607641 0.076424 0.332693
0.606260 0.109049 0.356464
0.608811 0.143331 0.363052
0.606390 0.171959 0.375863
0.608603 0.205372 0.365969
0.611212 0.235059 0.345679
0.608324 0.266400 0.332445
0.610337 0.297777 0.299511
0.607869 0.325163 0.278741
0.612419 0.357548 0.234086
0.610265 0.391002 0.206157
0.608606 0.419504 0.187087
0.609057 0.450861 0.168665
0.609911 0.484641 0.158054
0.609273 0.518041 0.161843
0.606760 0.546016 0.174575
0.606880 0.576870 0.184800
0.611510 0.611956 0.187854
0.611425 0.643564 0.197970
0.611333 0.673737 0.202116
0.611499 0.702805 0.200989
0.610263 0.735587 0.198939
0.611348 0.765426 0.187466
0.607460 0.796260 0.180912
0.612067 0.827920 0.153865
0.608615 0.859485 0.138733
0.607673 0.893120 0.116809
0.612412 0.919606 0.095048
0.609116 0.954307 0.082638
0.607994 0.983808 0.072996
0.642125 0.012695 0.205532
0.639400 0.044954 0.226964
0.642582 0.076718 0.232953
0.641986 0.108804 0.249556
0.642407 0.142014 0.262137
0.641107 0.172706 0.272173
0.642491 0.200002 0.267515
0.641424 0.233415 0.261069
0.640449 0.265576 0.247437
0.640810 0.295741 0.226726
0.642862 0.325863 0.199188
0.639995 0.358668 0.177282
0.642790 0.387851 0.149637
0.640355 0.423535 0.130955
0.639328 0.456012 0.117708
0.643750 0.487494 0.104829
0.642135 0.514686 0.107448
0.642479 0.544994 0.112202
0.641255 0.578393 0.121957
0.639073 0.607510 0.132850
0.641098 0.640711 0.137083
0.642173 0.672550 0.139203
0.643685 0.704990 0.136794
0.640967 0.732167 0.138988
0.638169 0.765774 0.136982
0.639039 0.797323 0.124779
0.639590 0.829242 0.109902
0.637934 0.861529 0.096295
0.642977 0.889575 0.076891
0.638409 0.923400 0.066938
0.641637 0.952517 0.054697
0.641156 0.984722 0.046621
0.671838 0.016341 0.146771
0.674530 0.047587 0.152283
0.670352 0.075248 0.169410
0.672629 0.108397 0.177338
0.668901 0.138571 0.195789
0.672567 0.171399 0.194281
0.672303 0.204565 0.194806
0.671087 0.233535 0.191466
0.671102 0.263041 0.180464
0.672394 0.296364 0.161557
0.669443 0.327033 0.148808
0.673032 0.359775 0.121961
0.674199 0.390824 0.101820
0.674841 0.419127 0.087167
0.671721 0.450688 0.079378
0.674951 0.484684 0.070582
0.673117 0.513295 0.071766
0.671719 0.544121 0.075476
0.671532 0.580737 0.081235
0.671497 0.611616 0.086865
0.674982 0.640933 0.087088
0.669527 0.674040 0.097554
0.669939 0.704152 0.097588
0.672852 0.737332 0.091141
0.671610 0.763496 0.088398
0.669620 0.795521 0.082782
0.674831 0.828737 0.067086
0.674076 0.856643 0.059366
0.674535 0.893434 0.047883
0.671667 0.920514 0.042693
0.671627 0.952693 0.035720
0.674163 0.982491 0.029026
0.702405 0.017245 0.098675
0.705089 0.047955 0.103360
0.704510 0.079271 0.112072
0.701962 0.107303 0.123879
0.704300 0.143256 0.129192
0.701036 0.168774 0.138606
0.701102 0.201113 0.139332
0.701238 0.235427 0.134084
0.704215 0.265734 0.120683
0.702021 0.296669 0.112747
0.702005 0.325585 0.100561
0.705440 0.359032 0.081386
0.700924 0.391575 0.072332
0.705887 0.424265 0.056992
0.704131 0.451274 0.051952
0.701065 0.481350 0.050228
0.701034 0.513182 0.049079
0.702257 0.547257 0.048922
0.706024 0.576534 0.048332
0.700149 0.606438 0.056378
0.705539 0.643040 0.055229
0.705708 0.672171 0.056879
0.701079 0.703044 0.061809
0.705090 0.737104 0.056363
0.703644 0.765931 0.054366
0.702948 0.798458 0.049417
0.702077 0.826078 0.044806
0.703206 0.858628 0.037683
0.705176 0.893544 0.030041
0.700030 0.920634 0.027910
0.702841 0.955565 0.021942
0.705272 0.982815 0.017882
0.735837 0.017747 0.060688
0.733894 0.048178 0.069167
0.733787 0.078289 0.074712
0.734535 0.106822 0.078942
0.733773 0.142388 0.086091
0.732905 0.170674 0.090439
0.732406 0.204729 0.091340
0.735129 0.235283 0.084862
0.733296 0.263464 0.081908
0.732402 0.296595 0.074630
0.734582 0.326015 0.064064
0.737036 0.358807 0.052464
0.731445 0.388546 0.048424
0.734782 0.424909 0.038124
0.732127 0.452085 0.035207
0.733182 0.483465 0.031539
0.732268 0.514513 0.030654
0.733622 0.547759 0.030079
0.735014 0.575236 0.030393
0.733344 0.606739 0.033047
0.734650 0.640570 0.034230
0.733049 0.670329 0.036382
0.733996 0.704116 0.036104
0.733285 0.731260 0.035804
0.737329 0.763130 0.031584
0.733240 0.799722 0.030326
0.733433 0.826034 0.027292
0.737409 0.856978 0.021957
0.731512 0.893506 0.019659
0.736158 0.920127 0.015569
0.731884 0.951591 0.013970
0.733984 0.982769 0.011098
0.764266 0.015933 0.038109
0.768014 0.049073 0.040753
0.766690 0.078485 0.045116
0.767236 0.111887 0.048128
0.767834 0.142248 0.050694
0.763962 0.174989 0.056421
0.764133 0.202344 0.056530
0.764372 0.235910 0.054421
0.768699 0.267289 0.047300
0.765179 0.297760 0.045354
0.765399 0.325640 0.040385
0.763637 0.361646 0.034471
0.765646 0.393319 0.027800
0.768113 0.420570 0.023036
0.766432 0.456096 0.020156
0.765900 0.486442 0.018402
0.762843 0.513685 0.018465
0.768596 0.548533 0.016631
0.767937 0.575202 0.017237
0.765740 0.608596 0.018773
0.768560 0.638707 0.018791
0.763929 0.672481 0.021376
0.768103 0.703434 0.020025
0.763030 0.736106 0.021289
0.767319 0.766927 0.018539
0.762825 0.799272 0.018364
0.762948 0.831217 0.016215
0.764187 0.859374 0.013679
0.766796 0.892178 0.010664
0.768404 0.923061 0.008539
0.768199 0.951070 0.007237
0.767596 0.983018 0.005927
0.796762 0.018193 0.021934
0.798145 0.046246 0.024288
0.794803 0.080641 0.028753
0.795063 0.109677 0.030672
0.796080 0.139145 0.031781
0.798792 0.170224 0.031433
0.797868 0.202098 0.032132
0.797013 0.234081 0.031732
0.797543 0.266669 0.029533
0.793886 0.298870 0.028495
0.796108 0.328386 0.024157
0.799811 0.360914 0.018827
0.798708 0.392242 0.015982
0.796583 0.421292 0.014159
0.795276 0.454389 0.012385
0.795086 0.485382 0.011177
0.796294 0.514227 0.010306
0.795895 0.545634 0.010190
0.798053 0.580964 0.010032
0.798614 0.611889 0.010359
0.793885 0.643589 0.011937
0.794086 0.671312 0.012325
0.794772 0.704975 0.012259
0.793822 0.735013 0.012121
0.799509 0.763187 0.010245
0.797156 0.794206 0.009803
0.797228 0.827396 0.008660
0.796759 0.858693 0.007473
0.796304 0.890994 0.006180
0.799632 0.923119 0.004731
0.797435 0.950070 0.004173
0.795517 0.983671 0.003409
0.829661 0.016036 0.011730
0.828464 0.045429 0.014003
0.825732 0.076010 0.016556
0.827214 0.111302 0.017796
0.826661 0.138698 0.018846
0.827590 0.172801 0.019016
0.828310 0.200455 0.018713
0.827937 0.233618 0.018317
0.825618 0.265583 0.018133
0.825830 0.295102 0.016585
0.827739 0.327207 0.013830
0.831211 0.361826 0.010677
0.827187 0.390245 0.009788
0.830010 0.424889 0.007665
0.826883 0.453604 0.007051
0.828450 0.482145 0.006168
0.828166 0.515624 0.005710
0.829560 0.544266 0.005404
0.826357 0.576081 0.005834
0.827408 0.608591 0.005943
0.826652 0.638529 0.006261
0.830353 0.670284 0.005908
0.830584 0.704945 0.005872
0.831026 0.732817 0.005714
0.826776 0.765936 0.005889
0.829493 0.796971 0.005047
0.828041 0.827199 0.004604
0.830365 0.858826 0.003760
0.825128 0.893223 0.003438
0.830997 0.922304 0.002554
0.831237 0.952503 0.002098
0.828673 0.986290 0.001698
0.858801 0.012771 0.006477
0.859659 0.044563 0.007552
0.859842 0.081058 0.008586
0.860508 0.107545 0.009181
0.859774 0.142692 0.010076
0.858080 0.170663 0.010713
0.862362 0.206156 0.009761
0.859898 0.233330 0.009947
0.859510 0.263015 0.009509
0.861298 0.298010 0.008236
0.859967 0.326276 0.007475
0.857503 0.357275 0.006706
0.858005 0.388734 0.005578
0.861207 0.424199 0.004256
0.861183 0.450567 0.003721
0.857250 0.482794 0.003519
0.861009 0.515732 0.002959
0.858699 0.549175 0.002997
0.858329 0.578729 0.003048
0.861126 0.612417 0.002939
0.862215 0.642642 0.002915
0.861106 0.673040 0.003008
0.861512 0.703925 0.002987
0.861052 0.733729 0.002984
0.859908 0.765125 0.002920
0.861260 0.796736 0.002580
0.860567 0.830085 0.002283
0.859693 0.858092 0.002024
0.859919 0.890465 0.001677
0.861866 0.921433 0.001340
0.857874 0.952900 0.001200
0.856250 0.985363 0.000964
0.888074 0.016014 0.003655
0.891744 0.047923 0.003958
0.892158 0.079078 0.004369
0.893637 0.107998 0.004614
0.892392 0.137532 0.005077
0.888043 0.169120 0.005820
0.893292 0.201342 0.005252
0.892383 0.232835 0.005204
0.889291 0.267114 0.005172
0.889349 0.296707 0.004692
0.893187 0.330769 0.003742
0.893074 0.357817 0.003270
0.892203 0.391774 0.002747
0.890426 0.421712 0.002407
0.888805 0.453165 0.002115
0.893111 0.486469 0.001647
0.893492 0.518582 0.001473
0.893240 0.544679 0.001432
0.889143 0.577478 0.001561
0.892322 0.611066 0.001480
0.892348 0.640340 0.001509
0.890117 0.672727 0.001611
0.891544 0.704638 0.001568
0.892684 0.732951 0.001500
0.892376 0.763628 0.001432
0.888250 0.798673 0.001420
0.893699 0.825483 0.001132
0.890156 0.861507 0.001023
0.891460 0.893405 0.000832
0.890190 0.924662 0.000713
0.892491 0.952357 0.000570
0.889042 0.986429 0.000467
0.919010 0.013929 0.001885
0.919338 0.049134 0.002277
0.919022 0.080967 0.002580
0.923901 0.111681 0.002554
0.921950 0.142188 0.002806
0.924989 0.171359 0.002740
0.920073 0.202523 0.003065
0.919431 0.233513 0.003043
0.919355 0.263775 0.002864
0.921169 0.298897 0.002439
0.924370 0.331036 0.001978
0.923857 0.358855 0.001731
0.923859 0.392031 0.001432
0.921616 0.421344 0.001275
0.922454 0.453771 0.001050
0.922922 0.487421 0.000878
0.923369 0.512526 0.000797
0.922659 0.544564 0.000761
0.924351 0.579236 0.000722
0.920802 0.607730 0.000796
0.921572 0.641755 0.000809
0.920368 0.669662 0.000844
0.923149 0.703742 0.000795
0.923069 0.731711 0.000772
0.924248 0.763769 0.000701
0.920105 0.798329 0.000695
0.923660 0.830989 0.000563
0.923222 0.860878 0.000492
0.919970 0.888847 0.000457
0.918878 0.923995 0.000383
0.923505 0.951366 0.000289
0.921376 0.982942 0.000232
0.954230 0.017724 0.000934
0.950316 0.047643 0.001228
0.953961 0.077861 0.001321
0.950685 0.110783 0.001561
0.950109 0.140080 0.001666
0.953364 0.169389 0.001620
0.954002 0.202724 0.001617
0.950174 0.232765 0.001694
0.952062 0.266449 0.001512
0.952349 0.297154 0.001346
0.954805 0.325493 0.001145
0.954767 0.356552 0.000984
0.951154 0.390440 0.000862
0.955241 0.420865 0.000669
0.952302 0.455336 0.000577
0.954917 0.482991 0.000479
0.955096 0.516896 0.000422
0.955612 0.549190 0.000390
0.952580 0.576137 0.000406
0.953465 0.609568 0.000407
0.952194 0.642033 0.000428
0.956075 0.670221 0.000401
0.950880 0.701486 0.000444
0.955010 0.736389 0.000392
0.952506 0.767924 0.000381
0.953765 0.793992 0.000342
0.954720 0.828048 0.000294
0.956116 0.858470 0.000248
0.954562 0.888532 0.000219
0.955493 0.920690 0.000177
0.954235 0.950940 0.000148
0.951799 0.986917 0.000113
0.981389 0.016198 0.000543
0.987154 0.048933 0.000632
0.984801 0.076321 0.000765
0.981440 0.109888 0.000928
0.985260 0.138469 0.000932
0.981677 0.170672 0.001018
0.984839 0.202304 0.000961
0.982563 0.231469 0.000965
0.985981 0.262908 0.000844
0.982971 0.298566 0.000794
0.983589 0.326893 0.000706
0.983465 0.362295 0.000590
0.985139 0.391861 0.000480
0.983416 0.419715 0.000415
0.984475 0.453534 0.000331
0.985603 0.485556 0.000275
0.986298 0.515368 0.000242
0.985851 0.544761 0.000228
0.983299 0.575078 0.000231
0.984004 0.611284 0.000229
0.987082 0.641022 0.000219
0.984794 0.672348 0.000231
0.987424 0.704553 0.000219
0.981945 0.734443 0.000236
0.984028 0.765467 0.000213
0.984656 0.797407 0.000190
0.982178 0.829535 0.000174
0.984534 0.858407 0.000146
0.984924 0.887706 0.000123
0.986931 0.923485 0.000093
0.984425 0.952557 0.000080
0.984145 0.982266 0.000060
