x  y  phi
0.012500 0.013322 0.007160
0.017223 0.046617 0.011190
0.015830 0.076368 0.013708
0.012794 0.110493 0.016106
0.016746 0.143342 0.020107
0.014897 0.171996 0.021225
0.017694 0.200216 0.023017
0.012834 0.234561 0.020667
0.016695 0.262548 0.020945
0.014896 0.294168 0.019412
0.015109 0.329292 0.020836
0.016181 0.362065 0.026741
0.017789 0.390793 0.037210
0.013075 0.422837 0.053411
0.015100 0.454382 0.084118
0.018190 0.486014 0.128345
0.014140 0.512797 0.164567
0.017101 0.545801 0.228274
0.016454 0.579728 0.291132
0.018694 0.608533 0.342831
0.014044 0.643641 0.377172
0.017017 0.673458 0.409354
0.016572 0.700454 0.417068
0.016448 0.736779 0.404998
0.014204 0.765228 0.372876
0.017291 0.796736 0.336936
0.013986 0.826718 0.278508
0.014745 0.857291 0.220668
0.015541 0.893110 0.155256
0.018183 0.919129 0.119914
0.018154 0.953153 0.082769
0.015727 0.983244 0.056840
0.049917 0.015587 0.015259
0.045413 0.044317 0.018202
0.049674 0.075461 0.024678
0.046879 0.108651 0.028695
0.045482 0.143211 0.032420
0.047061 0.171653 0.036087
0.049631 0.200313 0.039258
0.048509 0.236064 0.037584
0.048924 0.263284 0.035632
0.043849 0.298053 0.030603
0.049177 0.328935 0.034054
0.048351 0.360784 0.039646
0.049997 0.393054 0.054261
0.045207 0.420665 0.071738
0.045944 0.453208 0.110113
0.047444 0.486537 0.164379
0.046326 0.517759 0.220622
0.045433 0.546346 0.278888
0.047108 0.577924 0.350113
0.045545 0.607365 0.400755
0.044711 0.641073 0.446865
0.048765 0.668957 0.484046
0.047090 0.703116 0.492663
0.049721 0.735927 0.488885
0.047216 0.768067 0.449447
0.047655 0.799013 0.402736
0.044749 0.826330 0.343517
0.048217 0.857065 0.283703
0.044319 0.889216 0.205043
0.043769 0.921339 0.145975
0.043918 0.954436 0.104025
0.049612 0.982749 0.083421
0.076131 0.014485 0.025153
0.080544 0.047825 0.036261
0.075940 0.079258 0.041167
0.077411 0.108673 0.050193
0.078123 0.138422 0.058036
0.078670 0.174035 0.064538
0.078688 0.205971 0.065811
0.078476 0.232176 0.063803
0.081146 0.265055 0.062101
0.075886 0.297281 0.051994
0.076576 0.328053 0.051503
0.077900 0.362257 0.058980
0.075788 0.388748 0.070106
0.076995 0.422683 0.103111
0.075792 0.454070 0.148955
0.078885 0.486269 0.216463
0.076549 0.515478 0.276230
0.077433 0.545020 0.351548
0.075177 0.580635 0.432497
0.077666 0.607138 0.496748
0.080922 0.640064 0.558084
0.075820 0.674285 0.569793
0.075576 0.701014 0.576863
0.075444 0.733533 0.568078
0.076582 0.763344 0.545174
0.079895 0.796596 0.505455
0.077185 0.827827 0.429498
0.080056 0.862073 0.350808
0.079073 0.888845 0.278521
0.079247 0.924431 0.197875
0.076563 0.955380 0.142263
0.077945 0.984412 0.110557
0.110002 0.017610 0.050223
0.110974 0.046639 0.063481
0.112196 0.078955 0.079786
0.108996 0.111404 0.090359
0.110556 0.141889 0.105611
0.112420 0.174715 0.117464
0.111570 0.201808 0.117140
0.109609 0.234465 0.109772
0.106896 0.265088 0.097770
0.109854 0.299229 0.092684
0.109000 0.329561 0.086228
0.111683 0.360723 0.093304
0.111255 0.391916 0.110934
0.110886 0.418869 0.143183
0.111788 0.453281 0.209856
0.109146 0.481657 0.271925
0.110709 0.515556 0.369855
0.110423 0.548013 0.467861
0.107497 0.580729 0.546401
0.111662 0.611813 0.624554
0.109650 0.638370 0.655828
0.109065 0.674934 0.683838
0.107597 0.702788 0.685472
0.108223 0.734467 0.679226
0.111759 0.765248 0.664260
0.109172 0.798792 0.602269
0.108532 0.826322 0.537909
0.112494 0.857210 0.463546
0.110191 0.891352 0.352506
0.106254 0.918755 0.268187
0.111083 0.954546 0.202397
0.108245 0.983861 0.152890
0.141766 0.016754 0.088295
0.138783 0.048978 0.103179
0.141931 0.080179 0.130555
0.138091 0.106761 0.142313
0.142275 0.141435 0.174898
0.138837 0.170085 0.177103
0.138007 0.202430 0.179029
0.143451 0.237172 0.188806
0.139937 0.264183 0.168173
0.141826 0.295525 0.156222
0.142355 0.329899 0.141863
0.140140 0.358013 0.135021
0.138712 0.387571 0.146951
0.138699 0.424895 0.198727
0.139025 0.455123 0.267563
0.138353 0.483738 0.347765
0.141256 0.513606 0.454724
0.142677 0.544736 0.562324
0.143675 0.576607 0.655950
0.138960 0.606885 0.704521
0.138871 0.641467 0.752063
0.141850 0.673717 0.786057
0.141852 0.704706 0.792624
0.141685 0.735209 0.782156
0.137853 0.766239 0.744100
0.138919 0.795742 0.702833
0.141874 0.825734 0.645198
0.142266 0.859538 0.546730
0.140962 0.891175 0.438390
0.139560 0.923144 0.336929
0.138394 0.951011 0.265825
0.140533 0.986626 0.203993
0.173833 0.015980 0.146744
0.173369 0.045725 0.172038
0.169596 0.078303 0.195593
0.170692 0.109926 0.234529
0.171988 0.140193 0.266618
0.170368 0.171064 0.278237
0.171206 0.202793 0.287731
0.171724 0.233674 0.281791
0.170496 0.262989 0.259307
0.171061 0.295337 0.235432
0.172949 0.329226 0.214603
0.171962 0.360804 0.200094
0.173255 0.393405 0.216367
0.171629 0.424626 0.259032
0.170760 0.452878 0.326726
0.171982 0.485383 0.434198
0.171261 0.516285 0.543182
0.174916 0.544690 0.646165
0.172938 0.577149 0.731737
0.172136 0.609518 0.794407
0.173933 0.637593 0.835385
0.170464 0.672769 0.854625
0.172163 0.705737 0.863285
0.170416 0.737313 0.848280
0.170292 0.767775 0.822161
0.173088 0.796598 0.789302
0.173857 0.825138 0.732896
0.169755 0.860668 0.619226
0.173174 0.890229 0.528572
0.172390 0.923448 0.416144
0.174947 0.954348 0.338979
0.170497 0.985962 0.263338
0.201070 0.012527 0.212520
0.203098 0.044249 0.258511
0.201019 0.080646 0.304425
0.204894 0.110917 0.364897
0.202728 0.137540 0.386682
0.203655 0.171990 0.418418
0.200418 0.203400 0.410409
0.202436 0.232599 0.406920
0.202411 0.266418 0.376413
0.204119 0.298183 0.343648
0.203367 0.326752 0.305455
0.205100 0.358574 0.282971
0.204288 0.389439 0.279667
0.200058 0.419399 0.304282
0.203256 0.454849 0.397430
0.201379 0.481595 0.484446
0.200441 0.513502 0.596638
0.204524 0.545606 0.707790
0.200316 0.577986 0.786170
0.202857 0.609500 0.850199
0.202791 0.638439 0.885611
0.201787 0.673961 0.907484
0.204348 0.703611 0.915042
0.204257 0.733320 0.906661
0.200359 0.768668 0.874653
0.203390 0.793760 0.849068
0.205351 0.825183 0.796059
0.202360 0.859310 0.698002
0.203601 0.892118 0.589786
0.204246 0.922102 0.488471
0.200222 0.950766 0.396371
0.206083 0.982427 0.333557
0.233446 0.016338 0.333457
0.235048 0.044537 0.384044
0.234705 0.080963 0.444921
0.233481 0.111488 0.488516
0.237339 0.139119 0.539894
0.232822 0.171402 0.549876
0.236332 0.205612 0.572948
0.232779 0.236004 0.540263
0.235593 0.265324 0.516615
0.232898 0.297909 0.451376
0.231979 0.326310 0.398181
0.231960 0.359669 0.355662
0.231288 0.388600 0.342423
0.234996 0.421449 0.378583
0.231766 0.454296 0.448221
0.233596 0.486476 0.558940
0.232023 0.518583 0.667767
0.231435 0.544252 0.746108
0.234339 0.579809 0.838606
0.237088 0.607813 0.889620
0.233498 0.642307 0.922994
0.234375 0.673433 0.940277
0.235449 0.704260 0.944882
0.235980 0.731477 0.939399
0.232691 0.763885 0.916741
0.234766 0.797829 0.880879
0.235104 0.827322 0.830669
0.232655 0.857711 0.751215
0.235331 0.888537 0.654905
0.235901 0.919748 0.547445
0.231548 0.954137 0.435050
0.232031 0.987182 0.356089
0.265526 0.016382 0.472084
0.268213 0.043862 0.526420
0.266210 0.079512 0.576797
0.265604 0.106586 0.614650
0.265260 0.140745 0.656607
0.267325 0.169158 0.690543
0.265267 0.206107 0.689215
0.265423 0.233307 0.672461
0.265287 0.267145 0.628081
0.263783 0.294821 0.572466
0.264828 0.330873 0.503922
0.268530 0.357843 0.467719
0.262940 0.388274 0.422566
0.265790 0.419751 0.439185
0.265736 0.450657 0.494307
0.267760 0.483554 0.594769
0.265149 0.514545 0.694744
0.266960 0.547355 0.793592
0.267949 0.579739 0.867374
0.267729 0.610624 0.913634
0.264932 0.643345 0.942308
0.266285 0.671013 0.955875
0.265872 0.702844 0.959961
0.265011 0.732753 0.954305
0.263019 0.765135 0.935416
0.265452 0.795561 0.905026
0.263156 0.826352 0.854236
0.267513 0.859546 0.776981
0.266680 0.892898 0.671555
0.264023 0.923197 0.565104
0.264148 0.952393 0.472737
0.263006 0.984124 0.391735
0.295205 0.017471 0.605829
0.296821 0.043770 0.647630
0.295413 0.079154 0.687682
0.296407 0.107418 0.727895
0.299772 0.138338 0.772690
0.298724 0.174663 0.793301
0.294820 0.203788 0.782515
0.294149 0.233422 0.762695
0.295578 0.265685 0.727638
0.298911 0.298965 0.677422
0.298290 0.327059 0.616063
0.298763 0.360199 0.549576
0.294033 0.387759 0.497879
0.294708 0.423544 0.494022
0.294136 0.453246 0.536886
0.299557 0.482628 0.618574
0.295029 0.513056 0.709912
0.298123 0.548165 0.810072
0.296841 0.576636 0.870889
0.298197 0.608615 0.917582
0.295004 0.638954 0.945160
0.296476 0.671684 0.960798
0.299132 0.706108 0.964516
0.296528 0.731464 0.960019
0.297024 0.762698 0.944378
0.298457 0.797447 0.909823
0.298893 0.827060 0.861747
0.295200 0.859603 0.784808
0.296441 0.890022 0.691478
0.299921 0.924793 0.571597
0.299066 0.955422 0.476706
0.295698 0.982177 0.410094
0.331235 0.016497 0.762500
0.327925 0.049574 0.765186
0.329317 0.080096 0.794067
0.328385 0.109830 0.819260
0.325995 0.143408 0.840987
0.330133 0.169721 0.860612
0.325257 0.202148 0.851919
0.325688 0.231853 0.837863
0.328242 0.262640 0.810137
0.328509 0.299105 0.747317
0.328231 0.329216 0.681792
0.329607 0.360615 0.615723
0.325142 0.388700 0.556847
0.329194 0.420912 0.538092
0.325414 0.450879 0.558624
0.330757 0.482635 0.628243
0.327376 0.516163 0.721514
0.326046 0.543915 0.797127
0.329320 0.579765 0.871623
0.329461 0.606733 0.909707
0.328686 0.643284 0.942294
0.330811 0.671440 0.954482
0.328162 0.705195 0.959440
0.330745 0.735010 0.952418
0.329524 0.765746 0.935485
0.328068 0.794759 0.906484
0.331101 0.828590 0.848992
0.326708 0.859571 0.776523
0.329366 0.891669 0.675875
0.325609 0.922180 0.572956
0.328817 0.954175 0.470600
0.328095 0.984822 0.394661
0.359931 0.015258 0.838071
0.357195 0.046889 0.834922
0.360821 0.075198 0.853644
0.356573 0.109513 0.869738
0.358254 0.137719 0.888407
0.357782 0.169420 0.899055
0.358644 0.203449 0.899259
0.359982 0.235069 0.885060
0.362095 0.267325 0.852902
0.359457 0.296792 0.800333
0.360313 0.329356 0.731445
0.358797 0.359293 0.660828
0.359249 0.391940 0.592796
0.359589 0.420479 0.557934
0.360035 0.451751 0.566099
0.360646 0.484566 0.621769
0.362114 0.513971 0.692173
0.358834 0.547484 0.782664
0.361144 0.580752 0.850922
0.360509 0.611382 0.894978
0.359546 0.638939 0.921146
0.357148 0.674372 0.940911
0.357821 0.704072 0.944080
0.356280 0.737100 0.937614
0.357971 0.767867 0.916371
0.357993 0.799703 0.879146
0.359418 0.825768 0.831175
0.358853 0.860640 0.745270
0.358978 0.888173 0.659523
0.361039 0.919374 0.549423
0.359008 0.952154 0.447371
0.358107 0.985985 0.363835
0.389616 0.014567 0.869725
0.387848 0.047332 0.868295
0.390533 0.076266 0.880093
0.388215 0.112340 0.899084
0.392904 0.140574 0.913756
0.389796 0.173781 0.921058
0.388514 0.200997 0.918819
0.387861 0.232183 0.904122
0.390426 0.264879 0.872801
0.393023 0.296401 0.823273
0.390077 0.329071 0.752436
0.389427 0.356626 0.685545
0.392590 0.393110 0.597625
0.393247 0.424383 0.549167
0.392313 0.451067 0.546021
0.391078 0.481446 0.583436
0.392520 0.515764 0.654380
0.392885 0.545482 0.728496
0.392934 0.578668 0.802764
0.389932 0.611324 0.858911
0.390785 0.643374 0.889589
0.390125 0.672374 0.906528
0.392182 0.705505 0.908417
0.389613 0.732435 0.905097
0.392145 0.766993 0.877232
0.392995 0.794205 0.841820
0.391938 0.830494 0.772367
0.389746 0.856812 0.707321
0.388506 0.890105 0.603319
0.388103 0.922967 0.491287
0.391016 0.955082 0.388958
0.392989 0.986059 0.313115
0.422720 0.018103 0.852039
0.424240 0.046790 0.854688
0.419457 0.077359 0.874033
0.421141 0.110547 0.893740
0.419511 0.137980 0.909329
0.419646 0.171735 0.918641
0.423179 0.201488 0.914675
0.421194 0.237349 0.896420
0.422680 0.266757 0.864912
0.424429 0.296015 0.816796
0.424120 0.329964 0.741383
0.421430 0.356709 0.674200
0.421866 0.390524 0.584454
0.421567 0.421873 0.523883
0.423380 0.455830 0.505101
0.420626 0.482164 0.533755
0.419438 0.513002 0.594649
0.424828 0.546301 0.661398
0.420240 0.581020 0.750329
0.423959 0.607488 0.785853
0.419559 0.638727 0.833940
0.420869 0.672348 0.854410
0.421502 0.703660 0.858767
0.421455 0.733551 0.849591
0.421139 0.766251 0.823989
0.421434 0.794680 0.783670
0.422939 0.831221 0.699972
0.423113 0.858767 0.621002
0.424058 0.892622 0.507057
0.423709 0.921089 0.415833
0.418810 0.952999 0.339961
0.422744 0.985291 0.262712
0.454031 0.017494 0.789871
0.452359 0.045985 0.807053
0.452434 0.077089 0.829111
0.454335 0.107156 0.850907
0.451822 0.141668 0.879484
0.455340 0.170717 0.885375
0.450901 0.203764 0.889710
0.450035 0.237005 0.872119
0.452387 0.265728 0.838248
0.452153 0.295401 0.789375
0.451819 0.330210 0.708949
0.450777 0.360216 0.627469
0.450304 0.390363 0.542300
0.452355 0.419724 0.471204
0.454724 0.454162 0.435973
0.450072 0.486218 0.469107
0.453506 0.514304 0.506361
0.452597 0.545754 0.578756
0.453216 0.579495 0.651859
0.455263 0.607699 0.694777
0.452906 0.639833 0.744270
0.450313 0.669212 0.776750
0.451265 0.703539 0.782936
0.455197 0.733891 0.759961
0.455247 0.764332 0.732953
0.451132 0.795985 0.698270
0.455838 0.828684 0.608632
0.452307 0.859144 0.533548
0.453924 0.893403 0.421808
0.452536 0.919066 0.352147
0.452780 0.953725 0.267568
0.454677 0.986651 0.201419
0.482069 0.013154 0.687400
0.485408 0.048959 0.719427
0.484883 0.079116 0.753948
0.487388 0.106368 0.777697
0.487009 0.138717 0.809136
0.487298 0.172019 0.825903
0.482992 0.204499 0.834915
0.484940 0.236482 0.811654
0.486467 0.266624 0.773015
0.485815 0.297769 0.718315
0.483435 0.328343 0.648459
0.485401 0.358271 0.555089
0.486682 0.390265 0.453488
0.486987 0.420479 0.382936
0.487198 0.450733 0.350274
0.483850 0.486477 0.371965
0.487266 0.514581 0.398658
0.484539 0.547100 0.470394
0.486363 0.580812 0.533868
0.485393 0.607770 0.584053
0.487134 0.641230 0.618058
0.482038 0.670294 0.662122
0.486792 0.701226 0.652520
0.482268 0.736475 0.661215
0.485015 0.766395 0.624172
0.486492 0.797948 0.570812
0.483697 0.830446 0.509246
0.485421 0.856973 0.434291
0.481250 0.891725 0.351289
0.485180 0.921591 0.266876
0.484840 0.950202 0.208199
0.483446 0.986594 0.152360
0.514818 0.016634 0.569503
0.516103 0.044125 0.606973
0.517153 0.076747 0.648934
0.515266 0.107353 0.697480
0.513074 0.143108 0.741871
0.518703 0.172463 0.740141
0.512706 0.204318 0.758182
0.515545 0.234808 0.731421
0.518098 0.265216 0.687451
0.516804 0.295020 0.636070
0.515511 0.326703 0.559683
0.518419 0.357777 0.460754
0.518458 0.390481 0.367960
0.513294 0.424759 0.310548
0.517857 0.451359 0.273626
0.512544 0.486140 0.291473
0.512815 0.518500 0.325458
0.516509 0.547334 0.358109
0.513357 0.575807 0.420389
0.517654 0.609387 0.457161
0.516599 0.640657 0.492800
0.515790 0.669490 0.514401
0.518144 0.704181 0.512684
0.514235 0.733667 0.525143
0.514947 0.767694 0.498524
0.514019 0.794522 0.467292
0.517052 0.829050 0.387634
0.513758 0.861554 0.328934
0.512641 0.888160 0.272923
0.513675 0.921006 0.201756
0.517373 0.954495 0.140124
0.516665 0.984881 0.105491
0.545945 0.013482 0.437821
0.545576 0.044807 0.490124
0.545148 0.079196 0.547253
0.546280 0.111791 0.591565
0.547371 0.139637 0.618426
0.546483 0.173123 0.641117
0.548964 0.204950 0.631653
0.549057 0.233014 0.616932
0.545404 0.263562 0.595749
0.547085 0.294207 0.531914
0.549992 0.329689 0.436153
0.544514 0.357279 0.382026
0.546407 0.392333 0.290971
0.545085 0.421462 0.241153
0.543957 0.455808 0.211932
0.544413 0.482914 0.209784
0.546763 0.517455 0.226854
0.545360 0.545087 0.260825
0.545515 0.577379 0.304077
0.545051 0.612053 0.350610
0.548525 0.641354 0.360839
0.547349 0.670977 0.377690
0.549424 0.701237 0.372474
0.544463 0.736195 0.386687
0.548114 0.762614 0.355543
0.548425 0.794466 0.320753
0.549344 0.829091 0.267132
0.545912 0.858640 0.232334
0.545094 0.889571 0.184103
0.543861 0.924465 0.133796
0.548659 0.952459 0.094536
0.548312 0.986447 0.067660
0.580486 0.013310 0.297729
0.577146 0.049638 0.367019
0.577264 0.077200 0.409925
0.575504 0.109824 0.469261
0.579852 0.142776 0.486815
0.578083 0.173858 0.511006
0.579017 0.202721 0.508630
0.577202 0.233432 0.501370
0.576760 0.268244 0.461423
0.578913 0.298404 0.397960
0.575985 0.329853 0.345293
0.576575 0.360075 0.279028
0.580341 0.389466 0.210701
0.578803 0.419537 0.169525
0.577335 0.450833 0.145360
0.576637 0.482038 0.139852
0.576268 0.517191 0.154034
0.575443 0.546618 0.177046
0.581020 0.576467 0.187918
0.576234 0.610525 0.235188
0.575508 0.642839 0.260406
0.575954 0.669501 0.266890
0.580057 0.705901 0.252017
0.575285 0.731627 0.263576
0.580186 0.763382 0.230539
0.580007 0.795172 0.206192
0.577495 0.828745 0.180339
0.579095 0.856586 0.146688
0.581165 0.892577 0.104385
0.577585 0.918949 0.085294
0.575675 0.956090 0.060736
0.580419 0.985444 0.041942
0.611465 0.013989 0.195719
0.610731 0.047436 0.238487
0.607641 0.076424 0.286814
0.606260 0.109049 0.336290
0.608811 0.143331 0.360231
0.606390 0.171959 0.385721
0.608603 0.205372 0.376384
0.611212 0.235059 0.348900
0.608324 0.266400 0.329421
0.610337 0.297777 0.280527
0.607869 0.325163 0.247998
0.612419 0.357548 0.184524
0.610265 0.391002 0.142806
0.608606 0.419504 0.115331
0.609057 0.450861 0.093154
0.609911 0.484641 0.084092
0.609273 0.518041 0.091817
0.606760 0.546016 0.108498
0.606880 0.576870 0.124662
0.611510 0.611956 0.133746
0.611425 0.643564 0.147788
0.611333 0.673737 0.153925
0.611499 0.702805 0.153672
0.610263 0.735587 0.152455
0.611348 0.765426 0.140388
0.607460 0.796260 0.133702
0.612067 0.827920 0.104988
0.608615 0.859485 0.089144
0.607673 0.893120 0.067036
0.612412 0.919606 0.047400
0.609116 0.954307 0.035304
0.607994 0.983808 0.026774
0.642125 0.012695 0.121623
0.639400 0.044954 0.153862
0.642582 0.076718 0.171829
0.641986 0.108804 0.201654
0.642407 0.142014 0.225617
0.641107 0.172706 0.243212
0.642491 0.200002 0.239391
0.641424 0.233415 0.232108
0.640449 0.265576 0.214189
0.640810 0.295741 0.186754
0.642862 0.325863 0.151469
0.639995 0.358668 0.122787
0.642790 0.387851 0.090814
0.640355 0.423535 0.068806
0.639328 0.456012 0.055373
0.643750 0.487494 0.046382
0.642135 0.514686 0.049795
0.642479 0.544994 0.056183
0.641255 0.578393 0.067316
0.639073 0.607510 0.079304
0.641098 0.640711 0.085162
0.642173 0.672550 0.088127
0.643685 0.704990 0.086503
0.640967 0.732167 0.089151
0.638169 0.765774 0.087899
0.639039 0.797323 0.076971
0.639590 0.829242 0.063862
0.637934 0.861529 0.052048
0.642977 0.889575 0.036662
0.638409 0.923400 0.028409
0.641637 0.952517 0.019765
0.641156 0.984722 0.014215
0.671838 0.016341 0.075538
0.674530 0.047587 0.086726
0.670352 0.075248 0.107618
0.672629 0.108397 0.121919
0.668901 0.138571 0.146182
0.672567 0.171399 0.147605
0.672303 0.204565 0.149643
0.671087 0.233535 0.146404
0.671102 0.263041 0.134086
0.672394 0.296364 0.112972
0.669443 0.327033 0.098359
0.673032 0.359775 0.070985
0.674199 0.390824 0.051849
0.674841 0.419127 0.038964
0.671721 0.450688 0.031811
0.674951 0.484684 0.026033
0.673117 0.513295 0.027310
0.671719 0.544121 0.031100
0.671532 0.580737 0.037002
0.671497 0.611616 0.042357
0.674982 0.640933 0.043431
0.669527 0.674040 0.051988
0.669939 0.704152 0.052372
0.672852 0.737332 0.047767
0.671610 0.763496 0.046018
0.669620 0.795521 0.042183
0.674831 0.828737 0.031121
0.674076 0.856643 0.025861
0.674535 0.893434 0.018429
0.671667 0.920514 0.015000
0.671627 0.952693 0.010818
0.674163 0.982491 0.007406
0.702405 0.017245 0.042797
0.705089 0.047955 0.049507
0.704510 0.079271 0.059326
0.701962 0.107303 0.071823
0.704300 0.143256 0.079321
0.701036 0.168774 0.089302
0.701102 0.201113 0.090863
0.701238 0.235427 0.086234
0.704215 0.265734 0.073776
0.702021 0.296669 0.066336
0.702005 0.325585 0.055321
0.705440 0.359032 0.039356
0.700924 0.391575 0.031515
0.705887 0.424265 0.020870
0.704131 0.451274 0.017267
0.701065 0.481350 0.015898
0.701034 0.513182 0.015630
0.702257 0.547257 0.016506
0.706024 0.576534 0.017122
0.700149 0.606438 0.022315
0.705539 0.643040 0.022307
0.705708 0.672171 0.023620
0.701079 0.703044 0.026898
0.705090 0.737104 0.023709
0.703644 0.765931 0.022649
0.702948 0.798458 0.019881
0.702077 0.826078 0.017280
0.703206 0.858628 0.013351
0.705176 0.893544 0.009395
0.700030 0.920634 0.008151
0.702841 0.955565 0.005393
0.705272 0.982815 0.003758
0.735837 0.017747 0.021465
0.733894 0.048178 0.027813
0.733787 0.078289 0.032906
0.734535 0.106822 0.037239
0.733773 0.142388 0.043777
0.732905 0.170674 0.047709
0.732406 0.204729 0.048809
0.735129 0.235283 0.043948
0.733296 0.263464 0.041722
0.732402 0.296595 0.036221
0.734582 0.326015 0.028607
0.737036 0.358807 0.020786
0.731445 0.388546 0.017749
0.734782 0.424909 0.011731
0.732127 0.452085 0.009908
0.733182 0.483465 0.008186
0.732268 0.514513 0.007958
0.733622 0.547759 0.008157
0.735014 0.575236 0.008700
0.733344 0.606739 0.010271
0.734650 0.640570 0.011134
0.733049 0.670329 0.012340
0.733996 0.704116 0.012344
0.733285 0.731260 0.012281
0.737329 0.763130 0.010314
0.733240 0.799722 0.009780
0.733433 0.826034 0.008416
0.737409 0.856978 0.006139
0.731512 0.893506 0.005131
0.736158 0.920127 0.003579
0.731884 0.951591 0.002897
0.733984 0.982769 0.001942
0.764266 0.015933 0.011083
0.768014 0.049073 0.013140
0.766690 0.078485 0.015969
0.767236 0.111887 0.018343
0.767834 0.142248 0.020344
0.763962 0.174989 0.024086
0.764133 0.202344 0.024255
0.764372 0.235910 0.023011
0.768699 0.267289 0.018779
0.765179 0.297760 0.017556
0.765399 0.325640 0.014651
0.763637 0.361646 0.011343
0.765646 0.393319 0.008012
0.768113 0.420570 0.005837
0.766432 0.456096 0.004513
0.765900 0.486442 0.003838
0.762843 0.513685 0.003876
0.768596 0.548533 0.003505
0.767937 0.575202 0.003858
0.765740 0.608596 0.004575
0.768560 0.638707 0.004710
0.763929 0.672481 0.005750
0.768103 0.703434 0.005284
0.763030 0.736106 0.005822
0.767319 0.766927 0.004810
0.762825 0.799272 0.004759
0.762948 0.831217 0.003993
0.764187 0.859374 0.003131
0.766796 0.892178 0.002176
0.768404 0.923061 0.001549
0.768199 0.951070 0.001174
0.767596 0.983018 0.000828
0.796762 0.018193 0.005155
0.798145 0.046246 0.006293
0.794803 0.080641 0.008402
0.795063 0.109677 0.009533
0.796080 0.139145 0.010316
0.798792 0.170224 0.010343
0.797868 0.202098 0.010762
0.797013 0.234081 0.010582
0.797543 0.266669 0.009507
0.793886 0.298870 0.008964
0.796108 0.328386 0.007016
0.799811 0.360914 0.004831
0.798708 0.392242 0.003683
0.796583 0.421292 0.002950
0.795276 0.454389 0.002297
0.795086 0.485382 0.001911
0.796294 0.514227 0.001704
0.795895 0.545634 0.001741
0.798053 0.580964 0.001801
0.798614 0.611889 0.001964
0.793885 0.643589 0.002470
0.794086 0.671312 0.002621
0.794772 0.704975 0.002635
0.793822 0.735013 0.002619
0.799509 0.763187 0.002082
0.797156 0.794206 0.001968
0.797228 0.827396 0.001660
0.796759 0.858693 0.001347
0.796304 0.890994 0.001020
0.799632 0.923119 0.000684
0.797435 0.950070 0.000552
0.795517 0.983671 0.000391
0.829661 0.016036 0.002161
0.828464 0.045429 0.002916
0.825732 0.076010 0.003842
0.827214 0.111302 0.004410
0.826661 0.138698 0.004883
0.827590 0.172801 0.005039
0.828310 0.200455 0.004967
0.827937 0.233618 0.004832
0.825618 0.265583 0.004745
0.825830 0.295102 0.004164
0.827739 0.327207 0.003201
0.831211 0.361826 0.002170
0.827187 0.390245 0.001855
0.830010 0.424889 0.001250
0.826883 0.453604 0.001056
0.828450 0.482145 0.000842
0.828166 0.515624 0.000751
0.829560 0.544266 0.000715
0.826357 0.576081 0.000834
0.827408 0.608591 0.000896
0.826652 0.638529 0.000997
0.830353 0.670284 0.000946
0.830584 0.704945 0.000955
0.831026 0.732817 0.000925
0.826776 0.765936 0.000966
0.829493 0.796971 0.000784
0.828041 0.827199 0.000693
0.830365 0.858826 0.000523
0.825128 0.893223 0.000454
0.830997 0.922304 0.000295
0.831237 0.952503 0.000216
0.828673 0.986290 0.000152
0.858801 0.012771 0.000948
0.859659 0.044563 0.001246
0.859842 0.081058 0.001568
0.860508 0.107545 0.001765
0.859774 0.142692 0.002046
0.858080 0.170663 0.002249
0.862362 0.206156 0.001992
0.859898 0.233330 0.002051
0.859510 0.263015 0.001925
0.861298 0.298010 0.001569
0.859967 0.326276 0.001357
0.857503 0.357275 0.001138
0.858005 0.388734 0.000852
0.861207 0.424199 0.000558
0.861183 0.450567 0.000442
0.857250 0.482794 0.000391
0.861009 0.515732 0.000306
0.858699 0.549175 0.000320
0.858329 0.578729 0.000341
0.861126 0.612417 0.000342
0.862215 0.642642 0.000351
0.861106 0.673040 0.000375
0.861512 0.703925 0.000377
0.861052 0.733729 0.000378
0.859908 0.765125 0.000368
0.861260 0.796736 0.000312
0.860567 0.830085 0.000264
0.859693 0.858092 0.000223
0.859919 0.890465 0.000171
0.861866 0.921433 0.000123
0.857874 0.952900 0.000101
0.856250 0.985363 0.000071
0.888074 0.016014 0.000435
0.891744 0.047923 0.000514
0.892158 0.079078 0.000614
0.893637 0.107998 0.000681
0.892392 0.137532 0.000791
0.888043 0.169120 0.000963
0.893292 0.201342 0.000837
0.892383 0.232835 0.000826
0.889291 0.267114 0.000820
0.889349 0.296707 0.000715
0.893187 0.330769 0.000518
0.893074 0.357817 0.000423
0.892203 0.391774 0.000322
0.890426 0.421712 0.000256
0.888805 0.453165 0.000204
0.893111 0.486469 0.000140
0.893492 0.518582 0.000119
0.893240 0.544679 0.000116
0.889143 0.577478 0.000136
0.892322 0.611066 0.000133
0.892348 0.640340 0.000141
0.890117 0.672727 0.000158
0.891544 0.704638 0.000154
0.892684 0.732951 0.000147
0.892376 0.763628 0.000139
0.888250 0.798673 0.000137
0.893699 0.825483 0.000101
0.890156 0.861507 0.000088
0.891460 0.893405 0.000066
0.890190 0.924662 0.000052
0.892491 0.952357 0.000037
0.889042 0.986429 0.000027
0.919010 0.013929 0.000174
0.919338 0.049134 0.000237
0.919022 0.080967 0.000292
0.923901 0.111681 0.000294
0.921950 0.142188 0.000342
0.924989 0.171359 0.000332
0.920073 0.202523 0.000389
0.919431 0.233513 0.000385
0.919355 0.263775 0.000354
0.921169 0.298897 0.000284
0.924370 0.331036 0.000211
0.923857 0.358855 0.000174
0.923859 0.392031 0.000130
0.921616 0.421344 0.000107
0.922454 0.453771 0.000078
0.922922 0.487421 0.000059
0.923369 0.512526 0.000051
0.922659 0.544564 0.000049
0.924351 0.579236 0.000047
0.920802 0.607730 0.000056
0.921572 0.641755 0.000059
0.920368 0.669662 0.000064
0.923149 0.703742 0.000060
0.923069 0.731711 0.000058
0.924248 0.763769 0.000052
0.920105 0.798329 0.000052
0.923660 0.830989 0.000039
0.923222 0.860878 0.000032
0.919970 0.888847 0.000029
0.918878 0.923995 0.000022
0.923505 0.951366 0.000015
0.921376 0.982942 0.000011
0.954230 0.017724 0.000065
0.950316 0.047643 0.000098
0.953961 0.077861 0.000110
0.950685 0.110783 0.000142
0.950109 0.140080 0.000157
0.953364 0.169389 0.000151
0.954002 0.202724 0.000151
0.950174 0.232765 0.000163
0.952062 0.266449 0.000139
0.952349 0.297154 0.000119
0.954805 0.325493 0.000094
0.954767 0.356552 0.000076
0.951154 0.390440 0.000062
0.955241 0.420865 0.000042
0.952302 0.455336 0.000033
0.954917 0.482991 0.000025
0.955096 0.516896 0.000021
0.955612 0.549190 0.000019
0.952580 0.576137 0.000020
0.953465 0.609568 0.000021
0.952194 0.642033 0.000024
0.956075 0.670221 0.000022
0.950880 0.701486 0.000026
0.955010 0.736389 0.000022
0.952506 0.767924 0.000022
0.953765 0.793992 0.000019
0.954720 0.828048 0.000015
0.956116 0.858470 0.000012
0.954562 0.888532 0.000010
0.955493 0.920690 0.000008
0.954235 0.950940 0.000006
0.951799 0.986917 0.000004
0.981389 0.016198 0.000029
0.987154 0.048933 0.000036
0.984801 0.076321 0.000048
0.981440 0.109888 0.000063
0.985260 0.138469 0.000063
0.981677 0.170672 0.000073
0.984839 0.202304 0.000067
0.982563 0.231469 0.000068
0.985981 0.262908 0.000056
0.982971 0.298566 0.000052
0.983589 0.326893 0.000044
0.983465 0.362295 0.000034
0.985139 0.391861 0.000025
0.983416 0.419715 0.000020
0.984475 0.453534 0.000014
0.985603 0.485556 0.000011
0.986298 0.515368 0.000009
0.985851 0.544761 0.000008
0.983299 0.575078 0.000009
0.984004 0.611284 0.000009
0.987082 0.641022 0.000009
0.984794 0.672348 0.000010
0.987424 0.704553 0.000009
0.981945 0.734443 0.000010
0.984028 0.765467 0.000009
0.984656 0.797407 0.000008
0.982178 0.829535 0.000007
0.984534 0.858407 0.000005
0.984924 0.887706 0.000004
0.986931 0.923485 0.000003
0.984425 0.952557 0.000002
0.984145 0.982266 0.000002
