x  y  phi
0.012500 0.013322 0.000006
0.017223 0.046617 0.000018
0.015830 0.076368 0.000032
0.012794 0.110493 0.000049
0.016746 0.143342 0.000088
0.014897 0.171996 0.000099
0.017694 0.200216 0.000119
0.012834 0.234561 0.000079
0.016695 0.262548 0.000072
0.014896 0.294168 0.000045
0.015109 0.329292 0.000038
0.016181 0.362065 0.000074
0.017789 0.390793 0.000208
0.013075 0.422837 0.000563
0.015100 0.454382 0.001748
0.018190 0.486014 0.004996
0.014140 0.512797 0.008556
0.017101 0.545801 0.020416
0.016454 0.579728 0.037661
0.018694 0.608533 0.058576
0.014044 0.643641 0.062315
0.017017 0.673458 0.078359
0.016572 0.700454 0.080948
0.016448 0.736779 0.077998
0.014204 0.765228 0.064198
0.017291 0.796736 0.055953
0.013986 0.826718 0.032305
0.014745 0.857291 0.018057
0.015541 0.893110 0.007649
0.018183 0.919129 0.003981
0.018154 0.953153 0.001318
0.015727 0.983244 0.000420
0.049917 0.015587 0.000038
0.045413 0.044317 0.000065
0.049674 0.075461 0.000159
0.046879 0.108651 0.000252
0.045482 0.143211 0.000371
0.047061 0.171653 0.000498
0.049631 0.200313 0.000589
0.048509 0.236064 0.000456
0.048924 0.263284 0.000346
0.043849 0.298053 0.000169
0.049177 0.328935 0.000161
0.048351 0.360784 0.000216
0.049997 0.393054 0.000637
0.045207 0.420665 0.001529
0.045944 0.453208 0.004927
0.047444 0.486537 0.014677
0.046326 0.517759 0.031928
0.045433 0.546346 0.057489
0.047108 0.577924 0.104706
0.045545 0.607365 0.140825
0.044711 0.641073 0.168841
0.048765 0.668957 0.204950
0.047090 0.703116 0.206390
0.049721 0.735927 0.214755
0.047216 0.768067 0.182625
0.047655 0.799013 0.148421
0.044749 0.826330 0.096727
0.048217 0.857065 0.062063
0.044319 0.889216 0.024973
0.043769 0.921339 0.009207
0.043918 0.954436 0.002944
0.049612 0.982749 0.001263
0.076131 0.014485 0.000120
0.080544 0.047825 0.000354
0.075940 0.079258 0.000580
0.077411 0.108673 0.001072
0.078123 0.138422 0.001716
0.078670 0.174035 0.002371
0.078688 0.205971 0.002375
0.078476 0.232176 0.001980
0.081146 0.265055 0.001547
0.075886 0.297281 0.000765
0.076576 0.328053 0.000530
0.077900 0.362257 0.000610
0.075788 0.388748 0.001186
0.076995 0.422683 0.004392
0.075792 0.454070 0.013503
0.078885 0.486269 0.042069
0.076549 0.515478 0.082362
0.077433 0.545020 0.147038
0.075177 0.580635 0.223793
0.077666 0.607138 0.745235
0.080922 0.640064 0.807908
0.075820 0.674285 0.799229
0.075576 0.701014 0.802000
0.075444 0.733533 0.798678
0.076582 0.763344 0.787740
0.079895 0.796596 0.757174
0.077185 0.827827 0.223679
0.080056 0.862073 0.143069
0.079073 0.888845 0.076406
0.079247 0.924431 0.025308
0.076563 0.955380 0.007619
0.077945 0.984412 0.002722
0.110002 0.017610 0.000558
0.110974 0.046639 0.001266
0.112196 0.078955 0.002816
0.108996 0.111404 0.004646
0.110556 0.141889 0.008075
0.112420 0.174715 0.011928
0.111570 0.201808 0.011664
0.109609 0.234465 0.008333
0.106896 0.265088 0.004996
0.109854 0.299229 0.003459
0.109000 0.329561 0.002125
0.111683 0.360723 0.001913
0.111255 0.391916 0.003479
0.110886 0.418869 0.009330
0.111788 0.453281 0.035513
0.109146 0.481657 0.083968
0.110709 0.515556 0.191607
0.110423 0.548013 0.756730
0.107497 0.580729 0.830815
0.111662 0.611813 0.900014
0.109650 0.638370 0.919330
0.109065 0.674934 0.929811
0.107597 0.702788 0.927275
0.108223 0.734467 0.926481
0.111759 0.765248 0.924518
0.109172 0.798792 0.879988
0.108532 0.826322 0.819497
0.112494 0.857210 0.735400
0.110191 0.891352 0.145017
0.106254 0.918755 0.061299
0.111083 0.954546 0.020190
0.108245 0.983861 0.006437
0.141766 0.016754 0.001923
0.138783 0.048978 0.004132
0.141931 0.080179 0.010012
0.138091 0.106761 0.014884
0.142275 0.141435 0.032247
0.138837 0.170085 0.038200
0.138007 0.202430 0.038639
0.143451 0.237172 0.035623
0.139937 0.264183 0.021321
0.141826 0.295525 0.014952
0.142355 0.329899 0.008900
0.140140 0.358013 0.005349
0.138712 0.387571 0.006132
0.138699 0.424895 0.021894
0.139025 0.455123 0.067252
0.138353 0.483738 0.155905
0.141256 0.513606 0.736185
0.142677 0.544736 0.863961
0.143675 0.576607 0.935844
0.138960 0.606885 0.958276
0.138871 0.641467 0.974506
0.141850 0.673717 0.982036
0.141852 0.704706 0.982789
0.141685 0.735209 0.981286
0.137853 0.766239 0.971530
0.138919 0.795742 0.955911
0.141874 0.825734 0.921727
0.142266 0.859538 0.826602
0.140962 0.891175 0.236991
0.139560 0.923144 0.110820
0.138394 0.951011 0.046524
0.140533 0.986626 0.013915
0.173833 0.015980 0.006236
0.173369 0.045725 0.014555
0.169596 0.078303 0.029261
0.170692 0.109926 0.057830
0.171988 0.140193 0.096118
0.170368 0.171064 0.123367
0.171206 0.202793 0.130488
0.171724 0.233674 0.104870
0.170496 0.262989 0.072524
0.171061 0.295337 0.050906
0.172949 0.329226 0.031932
0.171962 0.360804 0.016291
0.173255 0.393405 0.015661
0.171629 0.424626 0.039930
0.170760 0.452878 0.105109
0.171982 0.485383 0.246793
0.171261 0.516285 0.828434
0.174916 0.544690 0.927744
0.172938 0.577149 0.972702
0.172136 0.609518 0.988034
0.173933 0.637593 0.993471
0.170464 0.672769 0.994846
0.172163 0.705737 0.995542
0.170416 0.737313 0.994387
0.170292 0.767775 0.991597
0.173088 0.796598 0.985560
0.173857 0.825138 0.967038
0.169755 0.860668 0.892776
0.173174 0.890229 0.794919
0.172390 0.923448 0.198176
0.174947 0.954348 0.094068
0.170497 0.985962 0.028979
0.201070 0.012527 0.014952
0.203098 0.044249 0.040711
0.201019 0.080646 0.092723
0.204894 0.110917 0.170639
0.202728 0.137540 0.217371
0.203655 0.171990 0.732015
0.200418 0.203400 0.717027
0.202436 0.232599 0.241378
0.202411 0.266418 0.190703
0.204119 0.298183 0.149352
0.203367 0.326752 0.095149
0.205100 0.358574 0.050312
0.204288 0.389439 0.029989
0.200058 0.419399 0.048969
0.203256 0.454849 0.158084
0.201379 0.481595 0.729933
0.200441 0.513502 0.873366
0.204524 0.545606 0.958855
0.200316 0.577986 0.986285
0.202857 0.609500 0.995447
0.202791 0.638439 0.997851
0.201787 0.673961 0.998695
0.204348 0.703611 0.998942
0.204257 0.733320 0.998685
0.200359 0.768668 0.997099
0.203390 0.793760 0.994791
0.205351 0.825183 0.985782
0.202360 0.859310 0.949529
0.203601 0.892118 0.866898
0.204246 0.922102 0.739942
0.200222 0.950766 0.149944
0.206083 0.982427 0.057070
0.233446 0.016338 0.049829
0.235048 0.044537 0.107643
0.234705 0.080963 0.217659
0.233481 0.111488 0.750732
0.237339 0.139119 0.832863
0.232822 0.171402 0.866959
0.236332 0.205612 0.883032
0.232779 0.236004 0.836677
0.235593 0.265324 0.808009
0.232898 0.297909 0.724723
0.231979 0.326310 0.194108
0.231960 0.359669 0.101321
0.231288 0.388600 0.055652
0.234996 0.421449 0.072609
0.231766 0.454296 0.181133
0.233596 0.486476 0.802029
0.232023 0.518583 0.925352
0.231435 0.544252 0.971461
0.234339 0.579809 0.993384
0.237088 0.607813 0.997913
0.233498 0.642307 0.999310
0.234375 0.673433 0.999668
0.235449 0.704260 0.999734
0.235980 0.731477 0.999649
0.232691 0.763885 0.999123
0.234766 0.797829 0.997428
0.235104 0.827322 0.992311
0.232655 0.857711 0.974183
0.235331 0.888537 0.922772
0.235901 0.919748 0.805227
0.231548 0.954137 0.173299
0.232031 0.987182 0.057810
0.265526 0.016382 0.120931
0.268213 0.043862 0.220589
0.266210 0.079512 0.797908
0.265604 0.106586 0.869680
0.265260 0.140745 0.927832
0.267325 0.169158 0.956705
0.265267 0.206107 0.957457
0.265423 0.233307 0.945977
0.265287 0.267145 0.917647
0.263783 0.294821 0.865318
0.264828 0.330873 0.755116
0.268530 0.357843 0.217885
0.262940 0.388274 0.108738
0.265790 0.419751 0.093866
0.265736 0.450657 0.182589
0.267760 0.483554 0.806073
0.265149 0.514545 0.929223
0.266960 0.547355 0.981949
0.267949 0.579739 0.995604
0.267729 0.610624 0.998849
0.264932 0.643345 0.999693
0.266285 0.671013 0.999882
0.265872 0.702844 0.999920
0.265011 0.732753 0.999868
0.263019 0.765135 0.999589
0.265452 0.795561 0.998675
0.263156 0.826352 0.995149
0.267513 0.859546 0.981138
0.266680 0.892898 0.926961
0.264023 0.923197 0.809115
0.264148 0.952393 0.198652
0.263006 0.984124 0.072466
0.295205 0.017471 0.225603
0.296821 0.043770 0.817829
0.295413 0.079154 0.893671
0.296407 0.107418 0.946593
0.299772 0.138338 0.977269
0.298724 0.174663 0.987772
0.294820 0.203788 0.987004
0.294149 0.233422 0.982457
0.295578 0.265685 0.971614
0.298911 0.298965 0.942052
0.298290 0.327059 0.875811
0.298763 0.360199 0.749489
0.294033 0.387759 0.181826
0.294708 0.423544 0.127541
0.294136 0.453246 0.208908
0.299557 0.482628 0.808379
0.295029 0.513056 0.929081
0.298123 0.548165 0.984086
0.296841 0.576636 0.995529
0.298197 0.608615 0.998929
0.295004 0.638954 0.999722
0.296476 0.671684 0.999924
0.299132 0.706108 0.999955
0.296528 0.731464 0.999923
0.297024 0.762698 0.999743
0.298457 0.797447 0.998838
0.298893 0.827060 0.995765
0.295200 0.859603 0.982526
0.296441 0.890022 0.937218
0.299921 0.924793 0.804680
0.299066 0.955422 0.187971
0.295698 0.982177 0.081082
0.331235 0.016497 0.921723
0.327925 0.049574 0.928368
0.329317 0.080096 0.963086
0.328385 0.109830 0.982847
0.325995 0.143408 0.992259
0.330133 0.169721 0.996111
0.325257 0.202148 0.996189
0.325688 0.231853 0.994992
0.328242 0.262640 0.991120
0.328509 0.299105 0.972796
0.328231 0.329216 0.926368
0.329607 0.360615 0.829442
0.325142 0.388700 0.254564
0.329194 0.420912 0.172772
0.325414 0.450879 0.214997
0.330757 0.482635 0.812944
0.327376 0.516163 0.937271
0.326046 0.543915 0.980186
0.329320 0.579765 0.995731
0.329461 0.606733 0.998650
0.328686 0.643284 0.999696
0.330811 0.671440 0.999871
0.328162 0.705195 0.999919
0.330745 0.735010 0.999854
0.329524 0.765746 0.999594
0.328068 0.794759 0.998716
0.331101 0.828590 0.994601
0.326708 0.859571 0.981005
0.329366 0.891669 0.929259
0.325609 0.922180 0.812914
0.328817 0.954175 0.189999
0.328095 0.984822 0.071292
0.359931 0.015258 0.975126
0.357195 0.046889 0.975872
0.360821 0.075198 0.987327
0.356573 0.109513 0.993744
0.358254 0.137719 0.997212
0.357782 0.169420 0.998619
0.358644 0.203449 0.998967
0.359982 0.235069 0.998411
0.362095 0.267325 0.995990
0.359457 0.296792 0.987630
0.360313 0.329356 0.959704
0.358797 0.359293 0.889990
0.359249 0.391940 0.760580
0.359589 0.420479 0.212966
0.360035 0.451751 0.227490
0.360646 0.484566 0.808721
0.362114 0.513971 0.917795
0.358834 0.547484 0.977617
0.361144 0.580752 0.993913
0.360509 0.611382 0.998106
0.359546 0.638939 0.999249
0.357148 0.674372 0.999693
0.357821 0.704072 0.999742
0.356280 0.737100 0.999643
0.357971 0.767867 0.999122
0.357993 0.799703 0.997291
0.359418 0.825768 0.992589
0.358853 0.860640 0.972580
0.358978 0.888173 0.924940
0.361039 0.919374 0.806894
0.359008 0.952154 0.185311
0.358107 0.985985 0.061496
0.389616 0.014567 0.989814
0.387848 0.047332 0.990886
0.390533 0.076266 0.994454
0.388215 0.112340 0.997639
0.392904 0.140574 0.998982
0.389796 0.173781 0.999520
0.388514 0.200997 0.999594
0.387861 0.232183 0.999259
0.390426 0.264879 0.997764
0.393023 0.296401 0.992619
0.390077 0.329071 0.973440
0.389427 0.356626 0.926390
0.392590 0.393110 0.788831
0.393247 0.424383 0.219317
0.392313 0.451067 0.207867
0.391078 0.481446 0.748504
0.392520 0.515764 0.886424
0.392885 0.545482 0.957413
0.392934 0.578668 0.987161
0.389932 0.611324 0.995780
0.390785 0.643374 0.998006
0.390125 0.672374 0.998759
0.392182 0.705505 0.998826
0.389613 0.732435 0.998748
0.392145 0.766993 0.997427
0.392995 0.794205 0.994309
0.391938 0.830494 0.981076
0.389746 0.856812 0.955496
0.388506 0.890105 0.879350
0.388103 0.922967 0.746100
0.391016 0.955082 0.136564
0.392989 0.986059 0.046475
0.422720 0.018103 0.973965
0.424240 0.046790 0.979555
0.419457 0.077359 0.991531
0.421141 0.110547 0.996780
0.419511 0.137980 0.998687
0.419646 0.171735 0.999446
0.423179 0.201488 0.999503
0.421194 0.237349 0.999059
0.422680 0.266757 0.997451
0.424429 0.296015 0.992292
0.424120 0.329964 0.971812
0.421430 0.356709 0.925629
0.421866 0.390524 0.795642
0.421567 0.421873 0.210053
0.423380 0.455830 0.167824
0.420626 0.482164 0.248311
0.419438 0.513002 0.823415
0.424828 0.546301 0.922449
0.420240 0.581020 0.975243
0.423959 0.607488 0.985506
0.419559 0.638727 0.993347
0.420869 0.672348 0.995343
0.421502 0.703660 0.995702
0.421455 0.733551 0.995135
0.421139 0.766251 0.992751
0.421434 0.794680 0.986081
0.422939 0.831221 0.956171
0.423113 0.858767 0.897753
0.424058 0.892622 0.768427
0.423709 0.921089 0.199671
0.418810 0.952999 0.097737
0.422744 0.985291 0.029903
0.454031 0.017494 0.921504
0.452359 0.045985 0.946013
0.452434 0.077089 0.975742
0.454335 0.107156 0.990455
0.451822 0.141668 0.996916
0.455340 0.170717 0.998093
0.450901 0.203764 0.998633
0.450035 0.237005 0.997909
0.452387 0.265728 0.995335
0.452153 0.295401 0.988003
0.451819 0.330210 0.958546
0.450777 0.360216 0.888462
0.450304 0.390363 0.760105
0.452355 0.419724 0.172943
0.454724 0.454162 0.109363
0.450072 0.486218 0.188733
0.453506 0.514304 0.736633
0.452597 0.545754 0.857336
0.453216 0.579495 0.928005
0.455263 0.607699 0.954685
0.452906 0.639833 0.974919
0.450313 0.669212 0.982906
0.451265 0.703539 0.983778
0.455197 0.733891 0.979156
0.455247 0.764332 0.973553
0.451132 0.795985 0.961690
0.455838 0.828684 0.906547
0.452307 0.859144 0.821217
0.453924 0.893403 0.225559
0.452536 0.919066 0.129510
0.452780 0.953725 0.046727
0.454677 0.986651 0.013622
0.482069 0.013154 0.260355
0.485408 0.048959 0.885013
0.484883 0.079116 0.945240
0.487388 0.106368 0.974031
0.487009 0.138717 0.989086
0.487298 0.172019 0.993341
0.482992 0.204499 0.994810
0.484940 0.236482 0.992360
0.486467 0.266624 0.985764
0.485815 0.297769 0.969200
0.483435 0.328343 0.927823
0.485401 0.358271 0.828486
0.486682 0.390265 0.222243
0.486987 0.420479 0.104814
0.487198 0.450733 0.059598
0.483850 0.486477 0.105245
0.487266 0.514581 0.176160
0.484539 0.547100 0.734333
0.486363 0.580812 0.820167
0.485393 0.607770 0.877817
0.487134 0.641230 0.908932
0.482038 0.670294 0.935480
0.486792 0.701226 0.926203
0.482268 0.736475 0.935226
0.485015 0.766395 0.917497
0.486492 0.797948 0.879333
0.483697 0.830446 0.815699
0.485421 0.856973 0.717195
0.481250 0.891725 0.155678
0.485180 0.921591 0.062482
0.484840 0.950202 0.023883
0.483446 0.986594 0.006428
0.514818 0.016634 0.189802
0.516103 0.044125 0.789576
0.517153 0.076747 0.876494
0.515266 0.107353 0.942813
0.513074 0.143108 0.974506
0.518703 0.172463 0.975863
0.512706 0.204318 0.981840
0.515545 0.234808 0.975035
0.518098 0.265216 0.957066
0.516804 0.295020 0.926682
0.515511 0.326703 0.861440
0.518419 0.357777 0.736367
0.518458 0.390481 0.147703
0.513294 0.424759 0.058336
0.517857 0.451359 0.029622
0.512544 0.486140 0.050916
0.512815 0.518500 0.104427
0.516509 0.547334 0.156101
0.513357 0.575807 0.241594
0.517654 0.609387 0.737290
0.516599 0.640657 0.781003
0.515790 0.669490 0.800158
0.518144 0.704181 0.793520
0.514235 0.733667 0.811056
0.514947 0.767694 0.794373
0.514019 0.794522 0.767221
0.517052 0.829050 0.222544
0.513758 0.861554 0.151767
0.512641 0.888160 0.088359
0.513675 0.921006 0.031838
0.517373 0.954495 0.008591
0.516665 0.984881 0.002793
0.545945 0.013482 0.102217
0.545576 0.044807 0.209583
0.545148 0.079196 0.791593
0.546280 0.111791 0.875006
0.547371 0.139637 0.910276
0.546483 0.173123 0.927346
0.548964 0.204950 0.922015
0.549057 0.233014 0.913548
0.545404 0.263562 0.895212
0.547085 0.294207 0.831441
0.549992 0.329689 0.720816
0.544514 0.357279 0.206305
0.546407 0.392333 0.086944
0.545085 0.421462 0.034381
0.543957 0.455808 0.014710
0.544413 0.482914 0.017484
0.546763 0.517455 0.034514
0.545360 0.545087 0.063508
0.545515 0.577379 0.109329
0.545051 0.612053 0.165107
0.548525 0.641354 0.173777
0.547349 0.670977 0.185655
0.549424 0.701237 0.174543
0.544463 0.736195 0.196941
0.548114 0.762614 0.170889
0.548425 0.794466 0.142373
0.549344 0.829091 0.090499
0.545912 0.858640 0.061213
0.545094 0.889571 0.031336
0.543861 0.924465 0.011269
0.548659 0.952459 0.003600
0.548312 0.986447 0.001044
0.580486 0.013310 0.040978
0.577146 0.049638 0.117517
0.577264 0.077200 0.197565
0.575504 0.109824 0.751121
0.579852 0.142776 0.780129
0.578083 0.173858 0.802464
0.579017 0.202721 0.799658
0.577202 0.233432 0.797341
0.576760 0.268244 0.750639
0.578913 0.298404 0.227626
0.575985 0.329853 0.166506
0.576575 0.360075 0.096802
0.580341 0.389466 0.040323
0.578803 0.419537 0.015484
0.577335 0.450833 0.006232
0.576637 0.482038 0.005580
0.576268 0.517191 0.011001
0.575443 0.546618 0.020919
0.581020 0.576467 0.029173
0.576234 0.610525 0.056620
0.575508 0.642839 0.070854
0.575954 0.669501 0.072262
0.580057 0.705901 0.060691
0.575285 0.731627 0.071375
0.580186 0.763382 0.054207
0.580007 0.795172 0.043968
0.577495 0.828745 0.030953
0.579095 0.856586 0.017281
0.581165 0.892577 0.007002
0.577585 0.918949 0.003877
0.575675 0.956090 0.001258
0.580419 0.985444 0.000379
0.611465 0.013989 0.014833
0.610731 0.047436 0.040266
0.607641 0.076424 0.087293
0.606260 0.109049 0.150161
0.608811 0.143331 0.179201
0.606390 0.171959 0.205841
0.608603 0.205372 0.194690
0.611212 0.235059 0.167155
0.608324 0.266400 0.148718
0.610337 0.297777 0.097640
0.607869 0.325163 0.069743
0.612419 0.357548 0.031364
0.610265 0.391002 0.014012
0.608606 0.419504 0.005996
0.609057 0.450861 0.002302
0.609911 0.484641 0.001652
0.609273 0.518041 0.002873
0.606760 0.546016 0.005488
0.606880 0.576870 0.009403
0.611510 0.611956 0.011986
0.611425 0.643564 0.014794
0.611333 0.673737 0.015643
0.611499 0.702805 0.015358
0.610263 0.735587 0.015519
0.611348 0.765426 0.013314
0.607460 0.796260 0.012707
0.612067 0.827920 0.006859
0.608615 0.859485 0.004588
0.607673 0.893120 0.002272
0.612412 0.919606 0.000931
0.609116 0.954307 0.000377
0.607994 0.983808 0.000147
0.642125 0.012695 0.004637
0.639400 0.044954 0.012894
0.642582 0.076718 0.023805
0.641986 0.108804 0.041475
0.642407 0.142014 0.054636
0.641107 0.172706 0.063797
0.642491 0.200002 0.060397
0.641424 0.233415 0.057145
0.640449 0.265576 0.047286
0.640810 0.295741 0.032098
0.642862 0.325863 0.017676
0.639995 0.358668 0.010081
0.642790 0.387851 0.004327
0.640355 0.423535 0.001699
0.639328 0.456012 0.000708
0.643750 0.487494 0.000432
0.642135 0.514686 0.000650
0.642479 0.544994 0.001096
0.641255 0.578393 0.001945
0.639073 0.607510 0.003047
0.641098 0.640711 0.003510
0.642173 0.672550 0.003622
0.643685 0.704990 0.003380
0.640967 0.732167 0.003712
0.638169 0.765774 0.003777
0.639039 0.797323 0.002887
0.639590 0.829242 0.001921
0.637934 0.861529 0.001208
0.642977 0.889575 0.000535
0.638409 0.923400 0.000281
0.641637 0.952517 0.000106
0.641156 0.984722 0.000038
0.671838 0.016341 0.001627
0.674530 0.047587 0.003198
0.670352 0.075248 0.006805
0.672629 0.108397 0.010279
0.668901 0.138571 0.016296
0.672567 0.171399 0.015702
0.672303 0.204565 0.015900
0.671087 0.233535 0.015288
0.671102 0.263041 0.012472
0.672394 0.296364 0.007994
0.669443 0.327033 0.005520
0.673032 0.359775 0.002432
0.674199 0.390824 0.001101
0.674841 0.419127 0.000496
0.671721 0.450688 0.000231
0.674951 0.484684 0.000116
0.673117 0.513295 0.000155
0.671719 0.544121 0.000272
0.671532 0.580737 0.000469
0.671497 0.611616 0.000653
0.674982 0.640933 0.000670
0.669527 0.674040 0.000971
0.669939 0.704152 0.000965
0.672852 0.737332 0.000798
0.671610 0.763496 0.000771
0.669620 0.795521 0.000680
0.674831 0.828737 0.000360
0.674076 0.856643 0.000242
0.674535 0.893434 0.000114
0.671667 0.920514 0.000069
0.671627 0.952693 0.000029
0.674163 0.982491 0.000010
0.702405 0.017245 0.000464
0.705089 0.047955 0.000849
0.704510 0.079271 0.001546
0.701962 0.107303 0.002570
0.704300 0.143256 0.003163
0.701036 0.168774 0.004102
0.701102 0.201113 0.004162
0.701238 0.235427 0.003709
0.704215 0.265734 0.002604
0.702021 0.296669 0.002050
0.702005 0.325585 0.001326
0.705440 0.359032 0.000595
0.700924 0.391575 0.000342
0.705887 0.424265 0.000115
0.704131 0.451274 0.000059
0.701065 0.481350 0.000039
0.701034 0.513182 0.000042
0.702257 0.547257 0.000063
0.706024 0.576534 0.000079
0.700149 0.606438 0.000148
0.705539 0.643040 0.000144
0.705708 0.672171 0.000158
0.701079 0.703044 0.000207
0.705090 0.737104 0.000159
0.703644 0.765931 0.000151
0.702948 0.798458 0.000123
0.702077 0.826078 0.000094
0.703206 0.858628 0.000055
0.705176 0.893544 0.000026
0.700030 0.920634 0.000018
0.702841 0.955565 0.000006
0.705272 0.982815 0.000003
0.735837 0.017747 0.000104
0.733894 0.048178 0.000228
0.733787 0.078289 0.000385
0.734535 0.106822 0.000539
0.733773 0.142388 0.000761
0.732905 0.170674 0.000894
0.732406 0.204729 0.000925
0.735129 0.235283 0.000729
0.733296 0.263464 0.000658
0.732402 0.296595 0.000484
0.734582 0.326015 0.000284
0.737036 0.358807 0.000137
0.731445 0.388546 0.000092
0.734782 0.424909 0.000032
0.732127 0.452085 0.000018
0.733182 0.483465 0.000009
0.732268 0.514513 0.000010
0.733622 0.547759 0.000013
0.735014 0.575236 0.000017
0.733344 0.606739 0.000026
0.734650 0.640570 0.000031
0.733049 0.670329 0.000038
0.733996 0.704116 0.000037
0.733285 0.731260 0.000037
0.737329 0.763130 0.000026
0.733240 0.799722 0.000025
0.733433 0.826034 0.000019
0.737409 0.856978 0.000010
0.731512 0.893506 0.000007
0.736158 0.920127 0.000003
0.731884 0.951591 0.000002
0.733984 0.982769 0.000001
0.764266 0.015933 0.000026
0.768014 0.049073 0.000044
0.766690 0.078485 0.000076
0.767236 0.111887 0.000109
0.767834 0.142248 0.000134
0.763962 0.174989 0.000187
0.764133 0.202344 0.000186
0.764372 0.235910 0.000165
0.768699 0.267289 0.000107
0.765179 0.297760 0.000093
0.765399 0.325640 0.000062
0.763637 0.361646 0.000035
0.765646 0.393319 0.000016
0.768113 0.420570 0.000007
0.766432 0.456096 0.000003
0.765900 0.486442 0.000002
0.762843 0.513685 0.000002
0.768596 0.548533 0.000002
0.767937 0.575202 0.000003
0.765740 0.608596 0.000005
0.768560 0.638707 0.000005
0.763929 0.672481 0.000007
0.768103 0.703434 0.000006
0.763030 0.736106 0.000007
0.767319 0.766927 0.000005
0.762825 0.799272 0.000005
0.762948 0.831217 0.000004
0.764187 0.859374 0.000002
0.766796 0.892178 0.000001
0.768404 0.923061 0.000001
0.768199 0.951070 0.000000
0.767596 0.983018 0.000000
0.796762 0.018193 0.000005
0.798145 0.046246 0.000009
0.794803 0.080641 0.000018
0.795063 0.109677 0.000025
0.796080 0.139145 0.000030
0.798792 0.170224 0.000029
0.797868 0.202098 0.000031
0.797013 0.234081 0.000030
0.797543 0.266669 0.000024
0.793886 0.298870 0.000021
0.796108 0.328386 0.000012
0.799811 0.360914 0.000006
0.798708 0.392242 0.000003
0.796583 0.421292 0.000002
0.795276 0.454389 0.000001
0.795086 0.485382 0.000000
0.796294 0.514227 0.000000
0.795895 0.545634 0.000000
0.798053 0.580964 0.000001
0.798614 0.611889 0.000001
0.793885 0.643589 0.000001
0.794086 0.671312 0.000001
0.794772 0.704975 0.000001
0.793822 0.735013 0.000001
0.799509 0.763187 0.000001
0.797156 0.794206 0.000001
0.797228 0.827396 0.000001
0.796759 0.858693 0.000000
0.796304 0.890994 0.000000
0.799632 0.923119 0.000000
0.797435 0.950070 0.000000
0.795517 0.983671 0.000000
0.829661 0.016036 0.000001
0.828464 0.045429 0.000002
0.825732 0.076010 0.000003
0.827214 0.111302 0.000005
0.826661 0.138698 0.000006
0.827590 0.172801 0.000006
0.828310 0.200455 0.000006
0.827937 0.233618 0.000006
0.825618 0.265583 0.000005
0.825830 0.295102 0.000004
0.827739 0.327207 0.000002
0.831211 0.361826 0.000001
0.827187 0.390245 0.000001
0.830010 0.424889 0.000000
0.826883 0.453604 0.000000
0.828450 0.482145 0.000000
0.828166 0.515624 0.000000
0.829560 0.544266 0.000000
0.826357 0.576081 0.000000
0.827408 0.608591 0.000000
0.826652 0.638529 0.000000
0.830353 0.670284 0.000000
0.830584 0.704945 0.000000
0.831026 0.732817 0.000000
0.826776 0.765936 0.000000
0.829493 0.796971 0.000000
0.828041 0.827199 0.000000
0.830365 0.858826 0.000000
0.825128 0.893223 0.000000
0.830997 0.922304 0.000000
0.831237 0.952503 0.000000
0.828673 0.986290 0.000000
0.858801 0.012771 0.000000
0.859659 0.044563 0.000000
0.859842 0.081058 0.000001
0.860508 0.107545 0.000001
0.859774 0.142692 0.000001
0.858080 0.170663 0.000001
0.862362 0.206156 0.000001
0.859898 0.233330 0.000001
0.859510 0.263015 0.000001
0.861298 0.298010 0.000001
0.859967 0.326276 0.000000
0.857503 0.357275 0.000000
0.858005 0.388734 0.000000
0.861207 0.424199 0.000000
0.861183 0.450567 0.000000
0.857250 0.482794 0.000000
0.861009 0.515732 0.000000
0.858699 0.549175 0.000000
0.858329 0.578729 0.000000
0.861126 0.612417 0.000000
0.862215 0.642642 0.000000
0.861106 0.673040 0.000000
0.861512 0.703925 0.000000
0.861052 0.733729 0.000000
0.859908 0.765125 0.000000
0.861260 0.796736 0.000000
0.860567 0.830085 0.000000
0.859693 0.858092 0.000000
0.859919 0.890465 0.000000
0.861866 0.921433 0.000000
0.857874 0.952900 0.000000
0.856250 0.985363 0.000000
0.888074 0.016014 0.000000
0.891744 0.047923 0.000000
0.892158 0.079078 0.000000
0.893637 0.107998 0.000000
0.892392 0.137532 0.000000
0.888043 0.169120 0.000000
0.893292 0.201342 0.000000
0.892383 0.232835 0.000000
0.889291 0.267114 0.000000
0.889349 0.296707 0.000000
0.893187 0.330769 0.000000
0.893074 0.357817 0.000000
0.892203 0.391774 0.000000
0.890426 0.421712 0.000000
0.888805 0.453165 0.000000
0.893111 0.486469 0.000000
0.893492 0.518582 0.000000
0.893240 0.544679 0.000000
0.889143 0.577478 0.000000
0.892322 0.611066 0.000000
0.892348 0.640340 0.000000
0.890117 0.672727 0.000000
0.891544 0.704638 0.000000
0.892684 0.732951 0.000000
0.892376 0.763628 0.000000
0.888250 0.798673 0.000000
0.893699 0.825483 0.000000
0.890156 0.861507 0.000000
0.891460 0.893405 0.000000
0.890190 0.924662 0.000000
0.892491 0.952357 0.000000
0.889042 0.986429 0.000000
0.919010 0.013929 0.000000
0.919338 0.049134 0.000000
0.919022 0.080967 0.000000
0.923901 0.111681 0.000000
0.921950 0.142188 0.000000
0.924989 0.171359 0.000000
0.920073 0.202523 0.000000
0.919431 0.233513 0.000000
0.919355 0.263775 0.000000
0.921169 0.298897 0.000000
0.924370 0.331036 0.000000
0.923857 0.358855 0.000000
0.923859 0.392031 0.000000
0.921616 0.421344 0.000000
0.922454 0.453771 0.000000
0.922922 0.487421 0.000000
0.923369 0.512526 0.000000
0.922659 0.544564 0.000000
0.924351 0.579236 0.000000
0.920802 0.607730 0.000000
0.921572 0.641755 0.000000
0.920368 0.669662 0.000000
0.923149 0.703742 0.000000
0.923069 0.731711 0.000000
0.924248 0.763769 0.000000
0.920105 0.798329 0.000000
0.923660 0.830989 0.000000
0.923222 0.860878 0.000000
0.919970 0.888847 0.000000
0.918878 0.923995 0.000000
0.923505 0.951366 0.000000
0.921376 0.982942 0.000000
0.954230 0.017724 0.000000
0.950316 0.047643 0.000000
0.953961 0.077861 0.000000
0.950685 0.110783 0.000000
0.950109 0.140080 0.000000
0.953364 0.169389 0.000000
0.954002 0.202724 0.000000
0.950174 0.232765 0.000000
0.952062 0.266449 0.000000
0.952349 0.297154 0.000000
0.954805 0.325493 0.000000
0.954767 0.356552 0.000000
0.951154 0.390440 0.000000
0.955241 0.420865 0.000000
0.952302 0.455336 0.000000
0.954917 0.482991 0.000000
0.955096 0.516896 0.000000
0.955612 0.549190 0.000000
0.952580 0.576137 0.000000
0.953465 0.609568 0.000000
0.952194 0.642033 0.000000
0.956075 0.670221 0.000000
0.950880 0.701486 0.000000
0.955010 0.736389 0.000000
0.952506 0.767924 0.000000
0.953765 0.793992 0.000000
0.954720 0.828048 0.000000
0.956116 0.858470 0.000000
0.954562 0.888532 0.000000
0.955493 0.920690 0.000000
0.954235 0.950940 0.000000
0.951799 0.986917 0.000000
0.981389 0.016198 0.000000
0.987154 0.048933 0.000000
0.984801 0.076321 0.000000
0.981440 0.109888 0.000000
0.985260 0.138469 0.000000
0.981677 0.170672 0.000000
0.984839 0.202304 0.000000
0.982563 0.231469 0.000000
0.985981 0.262908 0.000000
0.982971 0.298566 0.000000
0.983589 0.326893 0.000000
0.983465 0.362295 0.000000
0.985139 0.391861 0.000000
0.983416 0.419715 0.000000
0.984475 0.453534 0.000000
0.985603 0.485556 0.000000
0.986298 0.515368 0.000000
0.985851 0.544761 0.000000
0.983299 0.575078 0.000000
0.984004 0.611284 0.000000
0.987082 0.641022 0.000000
0.984794 0.672348 0.000000
0.987424 0.704553 0.000000
0.981945 0.734443 0.000000
0.984028 0.765467 0.000000
0.984656 0.797407 0.000000
0.982178 0.829535 0.000000
0.984534 0.858407 0.000000
0.984924 0.887706 0.000000
0.986931 0.923485 0.000000
0.984425 0.952557 0.000000
0.984145 0.982266 0.000000
