x  y  phi
0.012500 0.013322 0.041905
0.017223 0.046617 0.052805
0.015830 0.076368 0.058229
0.012794 0.110493 0.063189
0.016746 0.143342 0.070797
0.014897 0.171996 0.073420
0.017694 0.200216 0.077341
0.012834 0.234561 0.075773
0.016695 0.262548 0.078826
0.014896 0.294168 0.080134
0.015109 0.329292 0.087873
0.016181 0.362065 0.102490
0.017789 0.390793 0.121866
0.013075 0.422837 0.147554
0.015100 0.454382 0.188466
0.018190 0.486014 0.238869
0.014140 0.512797 0.278902
0.017101 0.545801 0.338380
0.016454 0.579728 0.395543
0.018694 0.608533 0.438888
0.014044 0.643641 0.475155
0.017017 0.673458 0.498580
0.016572 0.700454 0.505007
0.016448 0.736779 0.494568
0.014204 0.765228 0.470189
0.017291 0.796736 0.436674
0.013986 0.826718 0.390784
0.014745 0.857291 0.339790
0.015541 0.893110 0.278663
0.018183 0.919129 0.243285
0.018154 0.953153 0.204613
0.015727 0.983244 0.173103
0.049917 0.015587 0.062906
0.045413 0.044317 0.067680
0.049674 0.075461 0.078002
0.046879 0.108651 0.083414
0.045482 0.143211 0.088499
0.047061 0.171653 0.093781
0.049631 0.200313 0.099054
0.048509 0.236064 0.099831
0.048924 0.263284 0.100543
0.043849 0.298053 0.099205
0.049177 0.328935 0.110130
0.048351 0.360784 0.122978
0.049997 0.393054 0.145265
0.045207 0.420665 0.167715
0.045944 0.453208 0.210564
0.047444 0.486537 0.263609
0.046326 0.517759 0.314181
0.045433 0.546346 0.363436
0.047108 0.577924 0.419283
0.045545 0.607365 0.460761
0.044711 0.641073 0.499132
0.048765 0.668957 0.524608
0.047090 0.703116 0.532252
0.049721 0.735927 0.526080
0.047216 0.768067 0.498123
0.047655 0.799013 0.462356
0.044749 0.826330 0.419930
0.048217 0.857065 0.372067
0.044319 0.889216 0.311598
0.043769 0.921339 0.262298
0.043918 0.954436 0.225027
0.049612 0.982749 0.205747
0.076131 0.014485 0.083666
0.080544 0.047825 0.099005
0.075940 0.079258 0.102843
0.077411 0.108673 0.112355
0.078123 0.138422 0.119966
0.078670 0.174035 0.126683
0.078688 0.205971 0.129532
0.078476 0.232176 0.129915
0.081146 0.265055 0.133092
0.075886 0.297281 0.128193
0.076576 0.328053 0.134847
0.077900 0.362257 0.150327
0.075788 0.388748 0.165371
0.076995 0.422683 0.200740
0.075792 0.454070 0.243097
0.078885 0.486269 0.298141
0.076549 0.515478 0.344277
0.077433 0.545020 0.398964
0.075177 0.580635 0.458964
0.077666 0.607138 0.502528
0.080922 0.640064 0.545985
0.075820 0.674285 0.561847
0.075576 0.701014 0.567739
0.075444 0.733533 0.560490
0.076582 0.763344 0.541573
0.079895 0.796596 0.509651
0.077185 0.827827 0.459652
0.080056 0.862073 0.404795
0.079073 0.888845 0.356158
0.079247 0.924431 0.300099
0.076563 0.955380 0.259295
0.077945 0.984412 0.235077
0.110002 0.017610 0.127102
0.110974 0.046639 0.139357
0.112196 0.078955 0.152457
0.108996 0.111404 0.157960
0.110556 0.141889 0.169221
0.112420 0.174715 0.178306
0.111570 0.201808 0.178636
0.109609 0.234465 0.175555
0.106896 0.265088 0.170323
0.109854 0.299229 0.175175
0.109000 0.329561 0.178060
0.111683 0.360723 0.193269
0.111255 0.391916 0.213586
0.110886 0.418869 0.242145
0.111788 0.453281 0.293053
0.109146 0.481657 0.335103
0.110709 0.515556 0.398357
0.110423 0.548013 0.460671
0.107497 0.580729 0.515252
0.111662 0.611813 0.568778
0.109650 0.638370 0.594624
0.109065 0.674934 0.619197
0.107597 0.702788 0.622493
0.108223 0.734467 0.616469
0.111759 0.765248 0.601587
0.109172 0.798792 0.558027
0.108532 0.826322 0.514904
0.112494 0.857210 0.466668
0.110191 0.891352 0.400655
0.106254 0.918755 0.349241
0.111083 0.954546 0.310039
0.108245 0.983861 0.277427
0.141766 0.016754 0.182506
0.138783 0.048978 0.188356
0.141931 0.080179 0.206490
0.138091 0.106761 0.209582
0.142275 0.141435 0.229905
0.138837 0.170085 0.228238
0.138007 0.202430 0.229699
0.143451 0.237172 0.242051
0.139937 0.264183 0.232667
0.141826 0.295525 0.234042
0.142355 0.329899 0.235678
0.140140 0.358013 0.238375
0.138712 0.387571 0.253286
0.138699 0.424895 0.293945
0.139025 0.455123 0.339166
0.138353 0.483738 0.387160
0.141256 0.513606 0.449798
0.142677 0.544736 0.515137
0.143675 0.576607 0.577057
0.138960 0.606885 0.614348
0.138871 0.641467 0.653332
0.141850 0.673717 0.682226
0.141852 0.704706 0.688708
0.141685 0.735209 0.679477
0.137853 0.766239 0.649389
0.138919 0.795742 0.617581
0.141874 0.825734 0.576826
0.142266 0.859538 0.514819
0.140962 0.891175 0.453391
0.139560 0.923144 0.397708
0.138394 0.951011 0.358869
0.140533 0.986626 0.326814
0.173833 0.015980 0.253147
0.173369 0.045725 0.262871
0.169596 0.078303 0.267516
0.170692 0.109926 0.285950
0.171988 0.140193 0.300468
0.170368 0.171064 0.302618
0.171206 0.202793 0.308301
0.171724 0.233674 0.308768
0.170496 0.262989 0.301512
0.171061 0.295337 0.297710
0.172949 0.329226 0.298802
0.171962 0.360804 0.301069
0.173255 0.393405 0.321445
0.171629 0.424626 0.350211
0.170760 0.452878 0.389030
0.171982 0.485383 0.448479
0.171261 0.516285 0.508301
0.174916 0.544690 0.571103
0.172938 0.577149 0.628907
0.172136 0.609518 0.678053
0.173933 0.637593 0.714442
0.170464 0.672769 0.734743
0.172163 0.705737 0.743574
0.170416 0.737313 0.729259
0.170292 0.767775 0.705053
0.173088 0.796598 0.677116
0.173857 0.825138 0.634861
0.169755 0.860668 0.560369
0.173174 0.890229 0.509172
0.172390 0.923448 0.451663
0.174947 0.954348 0.415866
0.170497 0.985962 0.378029
0.201070 0.012527 0.322205
0.203098 0.044249 0.342434
0.201019 0.080646 0.355198
0.204894 0.110917 0.382732
0.202728 0.137540 0.386303
0.203655 0.171990 0.396507
0.200418 0.203400 0.388995
0.202436 0.232599 0.391637
0.202411 0.266418 0.382368
0.204119 0.298183 0.375887
0.203367 0.326752 0.366359
0.205100 0.358574 0.368798
0.204288 0.389439 0.377543
0.200058 0.419399 0.393959
0.203256 0.454849 0.446575
0.201379 0.481595 0.489546
0.200441 0.513502 0.549427
0.204524 0.545606 0.617870
0.200316 0.577986 0.672330
0.202857 0.609500 0.726020
0.202791 0.638439 0.760567
0.201787 0.673961 0.784905
0.204348 0.703611 0.793669
0.204257 0.733320 0.784031
0.200359 0.768668 0.750137
0.203390 0.793760 0.725755
0.205351 0.825183 0.682204
0.202360 0.859310 0.613664
0.203601 0.892118 0.550265
0.204246 0.922102 0.498941
0.200222 0.950766 0.455627
0.206083 0.982427 0.433038
0.233446 0.016338 0.423555
0.235048 0.044537 0.442212
0.234705 0.080963 0.459374
0.233481 0.111488 0.468974
0.237339 0.139119 0.490241
0.232822 0.171402 0.484862
0.236332 0.205612 0.496226
0.232779 0.236004 0.478009
0.235593 0.265324 0.471403
0.232898 0.297909 0.445261
0.231979 0.326310 0.429507
0.231960 0.359669 0.423041
0.231288 0.388600 0.427435
0.234996 0.421449 0.456374
0.231766 0.454296 0.491018
0.233596 0.486476 0.546160
0.232023 0.518583 0.603637
0.231435 0.544252 0.651741
0.234339 0.579809 0.720841
0.237088 0.607813 0.766861
0.233498 0.642307 0.801844
0.234375 0.673433 0.822731
0.235449 0.704260 0.828502
0.235980 0.731477 0.821145
0.232691 0.763885 0.793443
0.234766 0.797829 0.755402
0.235104 0.827322 0.711145
0.232655 0.857711 0.652480
0.235331 0.888537 0.593506
0.235901 0.919748 0.537907
0.231548 0.954137 0.486989
0.232031 0.987182 0.456904
0.265526 0.016382 0.525909
0.268213 0.043862 0.544225
0.266210 0.079512 0.552974
0.265604 0.106586 0.561378
0.265260 0.140745 0.572378
0.267325 0.169158 0.585433
0.265267 0.206107 0.577624
0.265423 0.233307 0.567081
0.265287 0.267145 0.545045
0.263783 0.294821 0.521020
0.264828 0.330873 0.500284
0.268530 0.357843 0.496918
0.262940 0.388274 0.485054
0.265790 0.419751 0.503969
0.265736 0.450657 0.533797
0.267760 0.483554 0.582495
0.265149 0.514545 0.633455
0.266960 0.547355 0.695368
0.267949 0.579739 0.751722
0.267729 0.610624 0.794619
0.264932 0.643345 0.826367
0.266285 0.671013 0.843524
0.265872 0.702844 0.848624
0.265011 0.732753 0.840202
0.263019 0.765135 0.815114
0.265452 0.795561 0.780179
0.263156 0.826352 0.732068
0.267513 0.859546 0.673061
0.266680 0.892898 0.607823
0.264023 0.923197 0.553270
0.264148 0.952393 0.513734
0.263006 0.984124 0.483065
0.295205 0.017471 0.612431
0.296821 0.043770 0.622670
0.295413 0.079154 0.630641
0.296407 0.107418 0.643302
0.299772 0.138338 0.661755
0.298724 0.174663 0.664131
0.294820 0.203788 0.649497
0.294149 0.233422 0.633916
0.295578 0.265685 0.614262
0.298911 0.298965 0.592927
0.298290 0.327059 0.568837
0.298763 0.360199 0.548484
0.294033 0.387759 0.533706
0.294708 0.423544 0.542705
0.294136 0.453246 0.565668
0.299557 0.482628 0.605299
0.295029 0.513056 0.651062
0.298123 0.548165 0.712787
0.296841 0.576636 0.758079
0.298197 0.608615 0.800472
0.295004 0.638954 0.830716
0.296476 0.671684 0.850293
0.299132 0.706108 0.854541
0.296528 0.731464 0.847495
0.297024 0.762698 0.825695
0.298457 0.797447 0.784891
0.298893 0.827060 0.738657
0.295200 0.859603 0.678946
0.296441 0.890022 0.620475
0.299921 0.924793 0.559426
0.299066 0.955422 0.519548
0.295698 0.982177 0.495225
0.331235 0.016497 0.702356
0.327925 0.049574 0.696318
0.329317 0.080096 0.705159
0.328385 0.109830 0.711662
0.325995 0.143408 0.715651
0.330133 0.169721 0.723950
0.325257 0.202148 0.709143
0.325688 0.231853 0.695603
0.328242 0.262640 0.676864
0.328509 0.299105 0.641418
0.328231 0.329216 0.611291
0.329607 0.360615 0.587236
0.325142 0.388700 0.568788
0.329194 0.420912 0.569704
0.325414 0.450879 0.582096
0.330757 0.482635 0.613960
0.327376 0.516163 0.660686
0.326046 0.543915 0.705418
0.329320 0.579765 0.758534
0.329461 0.606733 0.791670
0.328686 0.643284 0.825915
0.330811 0.671440 0.840250
0.328162 0.705195 0.845989
0.330745 0.735010 0.835217
0.329524 0.765746 0.812843
0.328068 0.794759 0.779788
0.331101 0.828590 0.725533
0.326708 0.859571 0.670889
0.329366 0.891669 0.608488
0.325609 0.922180 0.557129
0.328817 0.954175 0.512919
0.328095 0.984822 0.485239
0.359931 0.015258 0.749641
0.357195 0.046889 0.743135
0.360821 0.075198 0.750118
0.356573 0.109513 0.752421
0.358254 0.137719 0.759395
0.357782 0.169420 0.760163
0.358644 0.203449 0.753662
0.359982 0.235069 0.738178
0.362095 0.267325 0.712562
0.359457 0.296792 0.677935
0.360313 0.329356 0.641100
0.358797 0.359293 0.610460
0.359249 0.391940 0.586942
0.359589 0.420479 0.578373
0.360035 0.451751 0.584805
0.360646 0.484566 0.608497
0.362114 0.513971 0.641250
0.358834 0.547484 0.692224
0.361144 0.580752 0.737749
0.360509 0.611382 0.773640
0.359546 0.638939 0.798837
0.357148 0.674372 0.820492
0.357821 0.704072 0.823199
0.356280 0.737100 0.813993
0.357971 0.767867 0.787964
0.357993 0.799703 0.749244
0.359418 0.825768 0.706754
0.358853 0.860640 0.644079
0.358978 0.888173 0.592318
0.361039 0.919374 0.535407
0.359008 0.952154 0.492058
0.358107 0.985985 0.460689
0.389616 0.014567 0.771714
0.387848 0.047332 0.766764
0.390533 0.076266 0.770236
0.388215 0.112340 0.776519
0.392904 0.140574 0.782003
0.389796 0.173781 0.780727
0.388514 0.200997 0.773208
0.387861 0.232183 0.755564
0.390426 0.264879 0.727599
0.393023 0.296401 0.691986
0.390077 0.329071 0.650841
0.389427 0.356626 0.618963
0.392590 0.393110 0.583834
0.393247 0.424383 0.568142
0.392313 0.451067 0.568583
0.391078 0.481446 0.583465
0.392520 0.515764 0.613231
0.392885 0.545482 0.650097
0.392934 0.578668 0.694384
0.389932 0.611324 0.735911
0.390785 0.643374 0.761510
0.390125 0.672374 0.777129
0.392182 0.705505 0.777105
0.389613 0.732435 0.772571
0.392145 0.766993 0.742243
0.392995 0.794205 0.709107
0.391938 0.830494 0.654269
0.389746 0.856812 0.610918
0.388506 0.890105 0.551203
0.388103 0.922967 0.495615
0.391016 0.955082 0.449344
0.392989 0.986059 0.417194
0.422720 0.018103 0.763358
0.424240 0.046790 0.759948
0.419457 0.077359 0.766382
0.421141 0.110547 0.772607
0.419511 0.137980 0.778198
0.419646 0.171735 0.777891
0.423179 0.201488 0.767386
0.421194 0.237349 0.745762
0.422680 0.266757 0.717713
0.424429 0.296015 0.682548
0.424120 0.329964 0.637507
0.421430 0.356709 0.605097
0.421866 0.390524 0.567533
0.421567 0.421873 0.546083
0.423380 0.455830 0.538166
0.420626 0.482164 0.549610
0.419438 0.513002 0.573116
0.424828 0.546301 0.599283
0.420240 0.581020 0.649433
0.423959 0.607488 0.670036
0.419559 0.638727 0.706231
0.420869 0.672348 0.721455
0.421502 0.703660 0.723291
0.421455 0.733551 0.712903
0.421139 0.766251 0.688594
0.421434 0.794680 0.655134
0.422939 0.831221 0.594864
0.423113 0.858767 0.546123
0.424058 0.892622 0.483783
0.423709 0.921089 0.439910
0.418810 0.952999 0.408864
0.422744 0.985291 0.372060
0.454031 0.017494 0.727582
0.452359 0.045985 0.729527
0.452434 0.077089 0.733335
0.454335 0.107156 0.737501
0.451822 0.141668 0.748170
0.455340 0.170717 0.743651
0.450901 0.203764 0.740438
0.450035 0.237005 0.720532
0.452387 0.265728 0.691381
0.452153 0.295401 0.656998
0.451819 0.330210 0.609879
0.450777 0.360216 0.570453
0.450304 0.390363 0.534406
0.452355 0.419724 0.505372
0.454724 0.454162 0.488838
0.450072 0.486218 0.502847
0.453506 0.514304 0.511444
0.452597 0.545754 0.541206
0.453216 0.579495 0.575419
0.455263 0.607699 0.597477
0.452906 0.639833 0.628992
0.450313 0.669212 0.651720
0.451265 0.703539 0.653876
0.455197 0.733891 0.632715
0.455247 0.764332 0.610163
0.451132 0.795985 0.585228
0.455838 0.828684 0.525389
0.452307 0.859144 0.483551
0.453924 0.893403 0.424353
0.452536 0.919066 0.390330
0.452780 0.953725 0.349077
0.454677 0.986651 0.315274
0.482069 0.013154 0.674230
0.485408 0.048959 0.669503
0.484883 0.079116 0.676460
0.487388 0.106368 0.678302
0.487009 0.138717 0.686532
0.487298 0.172019 0.687658
0.482992 0.204499 0.687954
0.484940 0.236482 0.664904
0.486467 0.266624 0.634897
0.485815 0.297769 0.599708
0.483435 0.328343 0.561823
0.485401 0.358271 0.515042
0.486682 0.390265 0.470142
0.486987 0.420479 0.439995
0.487198 0.450733 0.424938
0.483850 0.486477 0.433499
0.487266 0.514581 0.437691
0.484539 0.547100 0.466995
0.486363 0.580812 0.493341
0.485393 0.607770 0.518385
0.487134 0.641230 0.535049
0.482038 0.670294 0.562865
0.486792 0.701226 0.553166
0.482268 0.736475 0.556665
0.485015 0.766395 0.528854
0.486492 0.797948 0.492780
0.483697 0.830446 0.456300
0.485421 0.856973 0.413539
0.481250 0.891725 0.372035
0.485180 0.921591 0.324615
0.484840 0.950202 0.292828
0.483446 0.986594 0.263072
0.514818 0.016634 0.592908
0.516103 0.044125 0.595081
0.517153 0.076747 0.601680
0.515266 0.107353 0.616039
0.513074 0.143108 0.629667
0.518703 0.172463 0.616838
0.512706 0.204318 0.623541
0.515545 0.234808 0.600001
0.518098 0.265216 0.568745
0.516804 0.295020 0.538048
0.515511 0.326703 0.497358
0.518419 0.357777 0.447326
0.518458 0.390481 0.406272
0.513294 0.424759 0.385410
0.517857 0.451359 0.363526
0.512544 0.486140 0.372709
0.512815 0.518500 0.382911
0.516509 0.547334 0.391062
0.513357 0.575807 0.420528
0.517654 0.609387 0.433120
0.516599 0.640657 0.450734
0.515790 0.669490 0.461811
0.518144 0.704181 0.457774
0.514235 0.733667 0.463577
0.514947 0.767694 0.443885
0.514019 0.794522 0.423245
0.517052 0.829050 0.375152
0.513758 0.861554 0.342627
0.512641 0.888160 0.311369
0.513675 0.921006 0.268894
0.517373 0.954495 0.227709
0.516665 0.984881 0.205215
0.545945 0.013482 0.501713
0.545576 0.044807 0.513381
0.545148 0.079196 0.527103
0.546280 0.111791 0.535971
0.547371 0.139637 0.539813
0.546483 0.173123 0.543633
0.548964 0.204950 0.530495
0.549057 0.233014 0.517972
0.545404 0.263562 0.504535
0.547085 0.294207 0.466958
0.549992 0.329689 0.414593
0.544514 0.357279 0.391869
0.546407 0.392333 0.347018
0.545085 0.421462 0.324335
0.543957 0.455808 0.309627
0.544413 0.482914 0.305111
0.546763 0.517455 0.306319
0.545360 0.545087 0.321016
0.545515 0.577379 0.339966
0.545051 0.612053 0.362263
0.548525 0.641354 0.364492
0.547349 0.670977 0.373032
0.549424 0.701237 0.367355
0.544463 0.736195 0.374016
0.548114 0.762614 0.351669
0.548425 0.794466 0.327504
0.549344 0.829091 0.292280
0.545912 0.858640 0.271014
0.545094 0.889571 0.240026
0.543861 0.924465 0.206563
0.548659 0.952459 0.175138
0.548312 0.986447 0.153775
0.580486 0.013310 0.389899
0.577146 0.049638 0.417911
0.577264 0.077200 0.430926
0.575504 0.109824 0.451336
0.579852 0.142776 0.447902
0.578083 0.173858 0.455157
0.579017 0.202721 0.448813
0.577202 0.233432 0.441831
0.576760 0.268244 0.417110
0.578913 0.298404 0.380864
0.575985 0.329853 0.353431
0.576575 0.360075 0.317643
0.580341 0.389466 0.277816
0.578803 0.419537 0.255864
0.577335 0.450833 0.242200
0.576637 0.482038 0.236667
0.576268 0.517191 0.240811
0.575443 0.546618 0.251591
0.581020 0.576467 0.251224
0.576234 0.610525 0.280172
0.575508 0.642839 0.294341
0.575954 0.669501 0.296941
0.580057 0.705901 0.283951
0.575285 0.731627 0.290734
0.580186 0.763382 0.265097
0.580007 0.795172 0.246185
0.577495 0.828745 0.226913
0.579095 0.856586 0.200961
0.581165 0.892577 0.166607
0.577585 0.918949 0.152365
0.575675 0.956090 0.132376
0.580419 0.985444 0.112089
0.611465 0.013989 0.296272
0.610731 0.047436 0.315010
0.607641 0.076424 0.338676
0.606260 0.109049 0.358980
0.608811 0.143331 0.363041
0.606390 0.171959 0.373898
0.608603 0.205372 0.363679
0.611212 0.235059 0.344268
0.608324 0.266400 0.331967
0.610337 0.297777 0.301441
0.607869 0.325163 0.282620
0.612419 0.357548 0.241207
0.610265 0.391002 0.215850
0.608606 0.419504 0.198465
0.609057 0.450861 0.181078
0.609911 0.484641 0.170514
0.609273 0.518041 0.173566
0.606760 0.546016 0.185316
0.606880 0.576870 0.194227
0.611510 0.611956 0.195945
0.611425 0.643564 0.204988
0.611333 0.673737 0.208508
0.611499 0.702805 0.207095
0.610263 0.735587 0.204883
0.611348 0.765426 0.193693
0.607460 0.796260 0.187378
0.612067 0.827920 0.161168
0.608615 0.859485 0.146667
0.607673 0.893120 0.125512
0.612412 0.919606 0.104108
0.609116 0.954307 0.092318
0.607994 0.983808 0.083050
0.642125 0.012695 0.218626
0.639400 0.044954 0.237938
0.642582 0.076718 0.242037
0.641986 0.108804 0.256374
0.642407 0.142014 0.266922
0.641107 0.172706 0.275537
0.642491 0.200002 0.270568
0.641424 0.233415 0.264158
0.640449 0.265576 0.251266
0.640810 0.295741 0.231840
0.642862 0.325863 0.205955
0.639995 0.358668 0.185692
0.642790 0.387851 0.159438
0.640355 0.423535 0.141945
0.639328 0.456012 0.129191
0.643750 0.487494 0.116007
0.642135 0.514686 0.118367
0.642479 0.544994 0.122560
0.641255 0.578393 0.131575
0.639073 0.607510 0.141779
0.641098 0.640711 0.145347
0.642173 0.672550 0.147046
0.643685 0.704990 0.144403
0.640967 0.732167 0.146418
0.638169 0.765774 0.144334
0.639039 0.797323 0.132246
0.639590 0.829242 0.117531
0.637934 0.861529 0.104129
0.642977 0.889575 0.084673
0.638409 0.923400 0.074947
0.641637 0.952517 0.062557
0.641156 0.984722 0.054464
0.671838 0.016341 0.159210
0.674530 0.047587 0.163439
0.670352 0.075248 0.179470
0.672629 0.108397 0.185974
0.668901 0.138571 0.202983
0.672567 0.171399 0.200725
0.672303 0.204565 0.200794
0.671087 0.233535 0.197404
0.671102 0.263041 0.186780
0.672394 0.296364 0.168642
0.669443 0.327033 0.156627
0.673032 0.359775 0.130666
0.674199 0.390824 0.111075
0.674841 0.419127 0.096679
0.671721 0.450688 0.089158
0.674951 0.484684 0.080098
0.673117 0.513295 0.081189
0.671719 0.544121 0.084631
0.671532 0.580737 0.089929
0.671497 0.611616 0.095214
0.674982 0.640933 0.095060
0.669527 0.674040 0.105397
0.669939 0.704152 0.105251
0.672852 0.737332 0.098588
0.671610 0.763496 0.095735
0.669620 0.795521 0.089987
0.674831 0.828737 0.073950
0.674076 0.856643 0.066085
0.674535 0.893434 0.054314
0.671667 0.920514 0.049073
0.671627 0.952693 0.041889
0.674163 0.982491 0.034812
0.702405 0.017245 0.109624
0.705089 0.047955 0.113559
0.704510 0.079271 0.121637
0.701962 0.107303 0.132826
0.704300 0.143256 0.137314
0.701036 0.168774 0.146257
0.701102 0.201113 0.146652
0.701238 0.235427 0.141328
0.704215 0.265734 0.128078
0.702021 0.296669 0.120344
0.702005 0.325585 0.108402
0.705440 0.359032 0.089369
0.700924 0.391575 0.080592
0.705887 0.424265 0.064964
0.704131 0.451274 0.059908
0.701065 0.481350 0.058232
0.701034 0.513182 0.056898
0.702257 0.547257 0.056383
0.706024 0.576534 0.055383
0.700149 0.606438 0.063594
0.705539 0.643040 0.062043
0.705708 0.672171 0.063586
0.701079 0.703044 0.068594
0.705090 0.737104 0.062825
0.703644 0.765931 0.060695
0.702948 0.798458 0.055485
0.702077 0.826078 0.050651
0.703206 0.858628 0.043162
0.705176 0.893544 0.035070
0.700030 0.920634 0.032918
0.702841 0.955565 0.026508
0.705272 0.982815 0.022064
0.735837 0.017747 0.069405
0.733894 0.048178 0.077846
0.733787 0.078289 0.083125
0.734535 0.106822 0.087009
0.733773 0.142388 0.093821
0.732905 0.170674 0.097969
0.732406 0.204729 0.098684
0.735129 0.235283 0.092039
0.733296 0.263464 0.089048
0.732402 0.296595 0.081724
0.734582 0.326015 0.071018
0.737036 0.358807 0.059183
0.731445 0.388546 0.055246
0.734782 0.424909 0.044529
0.732127 0.452085 0.041568
0.733182 0.483465 0.037615
0.732268 0.514513 0.036581
0.733622 0.547759 0.035742
0.735014 0.575236 0.035880
0.733344 0.606739 0.038559
0.734650 0.640570 0.039639
0.733049 0.670329 0.041841
0.733996 0.704116 0.041441
0.733285 0.731260 0.041065
0.737329 0.763130 0.036480
0.733240 0.799722 0.035114
0.733433 0.826034 0.031825
0.737409 0.856978 0.025995
0.731512 0.893506 0.023541
0.736158 0.920127 0.018998
0.731884 0.951591 0.017299
0.733984 0.982769 0.014069
0.764266 0.015933 0.044827
0.768014 0.049073 0.047319
0.766690 0.078485 0.051739
0.767236 0.111887 0.054619
0.767834 0.142248 0.057073
0.763962 0.174989 0.062900
0.764133 0.202344 0.062924
0.764372 0.235910 0.060674
0.768699 0.267289 0.053209
0.765179 0.297760 0.051228
0.765399 0.325640 0.046059
0.763637 0.361646 0.039902
0.765646 0.393319 0.032810
0.768113 0.420570 0.027676
0.766432 0.456096 0.024600
0.765900 0.486442 0.022661
0.762843 0.513685 0.022723
0.768596 0.548533 0.020492
0.767937 0.575202 0.021077
0.765740 0.608596 0.022680
0.768560 0.638707 0.022592
0.763929 0.672481 0.025407
0.768103 0.703434 0.023847
0.763030 0.736106 0.025213
0.767319 0.766927 0.022126
0.762825 0.799272 0.021930
0.762948 0.831217 0.019523
0.764187 0.859374 0.016664
0.766796 0.892178 0.013229
0.768404 0.923061 0.010787
0.768199 0.951070 0.009293
0.767596 0.983018 0.007774
0.796762 0.018193 0.026620
0.798145 0.046246 0.029094
0.794803 0.080641 0.033869
0.795063 0.109677 0.035805
0.796080 0.139145 0.036852
0.798792 0.170224 0.036346
0.797868 0.202098 0.037031
0.797013 0.234081 0.036574
0.797543 0.266669 0.034208
0.793886 0.298870 0.033126
0.796108 0.328386 0.028426
0.799811 0.360914 0.022581
0.798708 0.392242 0.019480
0.796583 0.421292 0.017502
0.795276 0.454389 0.015544
0.795086 0.485382 0.014174
0.796294 0.514227 0.013134
0.795895 0.545634 0.012942
0.798053 0.580964 0.012667
0.798614 0.611889 0.012977
0.793885 0.643589 0.014751
0.794086 0.671312 0.015154
0.794772 0.704975 0.015036
0.793822 0.735013 0.014851
0.799509 0.763187 0.012667
0.797156 0.794206 0.012147
0.797228 0.827396 0.010813
0.796759 0.858693 0.009427
0.796304 0.890994 0.007908
0.799632 0.923119 0.006179
0.797435 0.950070 0.005522
0.795517 0.983671 0.004607
0.829661 0.016036 0.014760
0.828464 0.045429 0.017316
0.825732 0.076010 0.020155
0.827214 0.111302 0.021447
0.826661 0.138698 0.022555
0.827590 0.172801 0.022671
0.828310 0.200455 0.022293
0.827937 0.233618 0.021829
0.825618 0.265583 0.021631
0.825830 0.295102 0.019909
0.827739 0.327207 0.016817
0.831211 0.361826 0.013247
0.827187 0.390245 0.012273
0.830010 0.424889 0.009821
0.826883 0.453604 0.009136
0.828450 0.482145 0.008089
0.828166 0.515624 0.007529
0.829560 0.544266 0.007126
0.826357 0.576081 0.007615
0.827408 0.608591 0.007699
0.826652 0.638529 0.008041
0.830353 0.670284 0.007577
0.830584 0.704945 0.007508
0.831026 0.732817 0.007309
0.826776 0.765936 0.007517
0.829493 0.796971 0.006498
0.828041 0.827199 0.005959
0.830365 0.858826 0.004930
0.825128 0.893223 0.004548
0.830997 0.922304 0.003450
0.831237 0.952503 0.002883
0.828673 0.986290 0.002384
0.858801 0.012771 0.008437
0.859659 0.044563 0.009670
0.859842 0.081058 0.010831
0.860508 0.107545 0.011490
0.859774 0.142692 0.012496
0.858080 0.170663 0.013213
0.862362 0.206156 0.012082
0.859898 0.233330 0.012291
0.859510 0.263015 0.011780
0.861298 0.298010 0.010300
0.859967 0.326276 0.009422
0.857503 0.357275 0.008542
0.858005 0.388734 0.007219
0.861207 0.424199 0.005635
0.861183 0.450567 0.004993
0.857250 0.482794 0.004761
0.861009 0.515732 0.004046
0.858699 0.549175 0.004084
0.858329 0.578729 0.004127
0.861126 0.612417 0.003959
0.862215 0.642642 0.003906
0.861106 0.673040 0.004008
0.861512 0.703925 0.003971
0.861052 0.733729 0.003961
0.859908 0.765125 0.003879
0.861260 0.796736 0.003450
0.860567 0.830085 0.003075
0.859693 0.858092 0.002747
0.859919 0.890465 0.002306
0.861866 0.921433 0.001875
0.857874 0.952900 0.001699
0.856250 0.985363 0.001394
0.888074 0.016014 0.004917
0.891744 0.047923 0.005258
0.892158 0.079078 0.005735
0.893637 0.107998 0.006011
0.892392 0.137532 0.006556
0.888043 0.169120 0.007440
0.893292 0.201342 0.006750
0.892383 0.232835 0.006688
0.889291 0.267114 0.006649
0.889349 0.296707 0.006069
0.893187 0.330769 0.004914
0.893074 0.357817 0.004341
0.892203 0.391774 0.003703
0.890426 0.421712 0.003290
0.888805 0.453165 0.002931
0.893111 0.486469 0.002323
0.893492 0.518582 0.002093
0.893240 0.544679 0.002035
0.889143 0.577478 0.002195
0.892322 0.611066 0.002075
0.892348 0.640340 0.002103
0.890117 0.672727 0.002227
0.891544 0.704638 0.002165
0.892684 0.732951 0.002072
0.892376 0.763628 0.001981
0.888250 0.798673 0.001964
0.893699 0.825483 0.001586
0.890156 0.861507 0.001444
0.891460 0.893405 0.001190
0.890190 0.924662 0.001033
0.892491 0.952357 0.000840
0.889042 0.986429 0.000702
0.919010 0.013929 0.002638
0.919338 0.049134 0.003128
0.919022 0.080967 0.003500
0.923901 0.111681 0.003456
0.921950 0.142188 0.003764
0.924989 0.171359 0.003677
0.920073 0.202523 0.004078
0.919431 0.233513 0.004048
0.919355 0.263775 0.003823
0.921169 0.298897 0.003288
0.924370 0.331036 0.002705
0.923857 0.358855 0.002390
0.923859 0.392031 0.002010
0.921616 0.421344 0.001810
0.922454 0.453771 0.001515
0.922922 0.487421 0.001285
0.923369 0.512526 0.001175
0.922659 0.544564 0.001122
0.924351 0.579236 0.001064
0.920802 0.607730 0.001159
0.921572 0.641755 0.001171
0.920368 0.669662 0.001214
0.923149 0.703742 0.001144
0.923069 0.731711 0.001110
0.924248 0.763769 0.001012
0.920105 0.798329 0.001002
0.923660 0.830989 0.000822
0.923222 0.860878 0.000724
0.919970 0.888847 0.000677
0.918878 0.923995 0.000575
0.923505 0.951366 0.000442
0.921376 0.982942 0.000362
0.954230 0.017724 0.001367
0.950316 0.047643 0.001759
0.953961 0.077861 0.001879
0.950685 0.110783 0.002190
0.950109 0.140080 0.002323
0.953364 0.169389 0.002262
0.954002 0.202724 0.002255
0.950174 0.232765 0.002350
0.952062 0.266449 0.002113
0.952349 0.297154 0.001894
0.954805 0.325493 0.001630
0.954767 0.356552 0.001416
0.951154 0.390440 0.001253
0.955241 0.420865 0.000993
0.952302 0.455336 0.000867
0.954917 0.482991 0.000730
0.955096 0.516896 0.000650
0.955612 0.549190 0.000602
0.952580 0.576137 0.000622
0.953465 0.609568 0.000620
0.952194 0.642033 0.000647
0.956075 0.670221 0.000607
0.950880 0.701486 0.000665
0.955010 0.736389 0.000590
0.952506 0.767924 0.000573
0.953765 0.793992 0.000517
0.954720 0.828048 0.000448
0.956116 0.858470 0.000382
0.954562 0.888532 0.000340
0.955493 0.920690 0.000279
0.954235 0.950940 0.000237
0.951799 0.986917 0.000184
0.981389 0.016198 0.000828
0.987154 0.048933 0.000954
0.984801 0.076321 0.001137
0.981440 0.109888 0.001358
0.985260 0.138469 0.001365
0.981677 0.170672 0.001479
0.984839 0.202304 0.001402
0.982563 0.231469 0.001404
0.985981 0.262908 0.001240
0.982971 0.298566 0.001169
0.983589 0.326893 0.001046
0.983465 0.362295 0.000886
0.985139 0.391861 0.000732
0.983416 0.419715 0.000640
0.984475 0.453534 0.000520
0.985603 0.485556 0.000438
0.986298 0.515368 0.000390
0.985851 0.544761 0.000367
0.983299 0.575078 0.000371
0.984004 0.611284 0.000365
0.987082 0.641022 0.000349
0.984794 0.672348 0.000366
0.987424 0.704553 0.000346
0.981945 0.734443 0.000370
0.984028 0.765467 0.000336
0.984656 0.797407 0.000301
0.982178 0.829535 0.000277
0.984534 0.858407 0.000235
0.984924 0.887706 0.000200
0.986931 0.923485 0.000154
0.984425 0.952557 0.000133
0.984145 0.982266 0.000102
