x  y  phi
0.012500 0.013322 0.046727
0.017223 0.046617 0.058081
0.015830 0.076368 0.063647
0.012794 0.110493 0.068723
0.016746 0.143342 0.076493
0.014897 0.171996 0.079231
0.017694 0.200216 0.083330
0.012834 0.234561 0.082046
0.016695 0.262548 0.085456
0.014896 0.294168 0.087247
0.015109 0.329292 0.095664
0.016181 0.362065 0.110928
0.017789 0.390793 0.130752
0.013075 0.422837 0.156768
0.015100 0.454382 0.197689
0.018190 0.486014 0.247662
0.014140 0.512797 0.287293
0.017101 0.545801 0.345662
0.016454 0.579728 0.401721
0.018694 0.608533 0.444080
0.014044 0.643641 0.479879
0.017017 0.673458 0.502610
0.016572 0.700454 0.508907
0.016448 0.736779 0.498763
0.014204 0.765228 0.475147
0.017291 0.796736 0.442356
0.013986 0.826718 0.397819
0.014745 0.857291 0.348093
0.015541 0.893110 0.288384
0.018183 0.919129 0.253747
0.018154 0.953153 0.215858
0.015727 0.983244 0.184781
0.049917 0.015587 0.068570
0.045413 0.044317 0.073370
0.049674 0.075461 0.083785
0.046879 0.108651 0.089178
0.045482 0.143211 0.094276
0.047061 0.171653 0.099621
0.049631 0.200313 0.105036
0.048509 0.236064 0.106163
0.048924 0.263284 0.107256
0.043849 0.298053 0.106540
0.049177 0.328935 0.118090
0.048351 0.360784 0.131481
0.049997 0.393054 0.154088
0.045207 0.420665 0.176617
0.045944 0.453208 0.219161
0.047444 0.486537 0.271436
0.046326 0.517759 0.321064
0.045433 0.546346 0.369255
0.047108 0.577924 0.423703
0.045545 0.607365 0.464243
0.044711 0.641073 0.501771
0.048765 0.668957 0.526439
0.047090 0.703116 0.533962
0.049721 0.735927 0.527849
0.047216 0.768067 0.500828
0.047655 0.799013 0.466099
0.044749 0.826330 0.425049
0.048217 0.857065 0.378506
0.044319 0.889216 0.319914
0.043769 0.921339 0.272023
0.043918 0.954436 0.235760
0.049612 0.982749 0.216987
0.076131 0.014485 0.089903
0.080544 0.047825 0.105236
0.075940 0.079258 0.108863
0.077411 0.108673 0.118213
0.078123 0.138422 0.125670
0.078670 0.174035 0.132327
0.078688 0.205971 0.135324
0.078476 0.232176 0.135983
0.081146 0.265055 0.139660
0.075886 0.297281 0.135488
0.076576 0.328053 0.142800
0.077900 0.362257 0.158816
0.075788 0.388748 0.174037
0.076995 0.422683 0.209171
0.075792 0.454070 0.250857
0.078885 0.486269 0.304641
0.076549 0.515478 0.349621
0.077433 0.545020 0.402753
0.075177 0.580635 0.461124
0.077666 0.607138 0.503327
0.080922 0.640064 0.545455
0.075820 0.674285 0.561273
0.075576 0.701014 0.567049
0.075444 0.733533 0.560018
0.076582 0.763344 0.541597
0.079895 0.796596 0.510517
0.077185 0.827827 0.462302
0.080056 0.862073 0.409278
0.079073 0.888845 0.362423
0.079247 0.924431 0.308425
0.076563 0.955380 0.269096
0.077945 0.984412 0.245758
0.110002 0.017610 0.134066
0.110974 0.046639 0.145964
0.112196 0.078955 0.158581
0.108996 0.111404 0.163601
0.110556 0.141889 0.174433
0.112420 0.174715 0.183252
0.111570 0.201808 0.183666
0.109609 0.234465 0.181002
0.106896 0.265088 0.176438
0.109854 0.299229 0.182115
0.109000 0.329561 0.185796
0.111683 0.360723 0.201484
0.111255 0.391916 0.221846
0.110886 0.418869 0.249945
0.111788 0.453281 0.299541
0.109146 0.481657 0.340244
0.110709 0.515556 0.401295
0.110423 0.548013 0.461425
0.107497 0.580729 0.514286
0.111662 0.611813 0.565985
0.109650 0.638370 0.591211
0.109065 0.674934 0.615241
0.107597 0.702788 0.618574
0.108223 0.734467 0.612689
0.111759 0.765248 0.598079
0.109172 0.798792 0.556067
0.108532 0.826322 0.514535
0.112494 0.857210 0.468115
0.110191 0.891352 0.404913
0.106254 0.918755 0.355729
0.111083 0.954546 0.318379
0.108245 0.983861 0.287190
0.141766 0.016754 0.189867
0.138783 0.048978 0.194938
0.141931 0.080179 0.212215
0.138091 0.106761 0.214691
0.142275 0.141435 0.234069
0.138837 0.170085 0.232184
0.138007 0.202430 0.233638
0.143451 0.237172 0.246115
0.139937 0.264183 0.237570
0.141826 0.295525 0.239890
0.142355 0.329899 0.242649
0.140140 0.358013 0.246012
0.138712 0.387571 0.261043
0.138699 0.424895 0.300792
0.139025 0.455123 0.344479
0.138353 0.483738 0.390581
0.141256 0.513606 0.450686
0.142677 0.544736 0.513397
0.143675 0.576607 0.573008
0.138960 0.606885 0.609187
0.138871 0.641467 0.647078
0.141850 0.673717 0.675161
0.141852 0.704706 0.681520
0.141685 0.735209 0.672555
0.137853 0.766239 0.643466
0.138919 0.795742 0.612686
0.141874 0.825734 0.573399
0.142266 0.859538 0.513985
0.140962 0.891175 0.455412
0.139560 0.923144 0.402502
0.138394 0.951011 0.365667
0.140533 0.986626 0.335501
0.173833 0.015980 0.260274
0.173369 0.045725 0.268908
0.169596 0.078303 0.272411
0.170692 0.109926 0.289530
0.171988 0.140193 0.302992
0.170368 0.171064 0.304640
0.171206 0.202793 0.310097
0.171724 0.233674 0.310920
0.170496 0.262989 0.304600
0.171061 0.295337 0.302051
0.172949 0.329226 0.304437
0.171962 0.360804 0.307644
0.173255 0.393405 0.328077
0.171629 0.424626 0.355994
0.170760 0.452878 0.393208
0.171982 0.485383 0.450019
0.171261 0.516285 0.507107
0.174916 0.544690 0.567263
0.172938 0.577149 0.622814
0.172136 0.609518 0.670347
0.173933 0.637593 0.705718
0.170464 0.672769 0.725627
0.172163 0.705737 0.734263
0.170416 0.737313 0.720331
0.170292 0.767775 0.696767
0.173088 0.796598 0.669658
0.173857 0.825138 0.628929
0.169755 0.860668 0.557590
0.173174 0.890229 0.508948
0.172390 0.923448 0.454568
0.174947 0.954348 0.421015
0.170497 0.985962 0.385377
0.201070 0.012527 0.328548
0.203098 0.044249 0.347161
0.201019 0.080646 0.358156
0.204894 0.110917 0.383843
0.202728 0.137540 0.386514
0.203655 0.171990 0.395686
0.200418 0.203400 0.388242
0.202436 0.232599 0.391111
0.202411 0.266418 0.383062
0.204119 0.298183 0.378064
0.203367 0.326752 0.370085
0.205100 0.358574 0.373700
0.204288 0.389439 0.382939
0.200058 0.419399 0.398931
0.203256 0.454849 0.449358
0.201379 0.481595 0.490148
0.200441 0.513502 0.547095
0.204524 0.545606 0.612577
0.200316 0.577986 0.664854
0.202857 0.609500 0.716835
0.202791 0.638439 0.750493
0.201787 0.673961 0.774337
0.204348 0.703611 0.782925
0.204257 0.733320 0.773458
0.200359 0.768668 0.740320
0.203390 0.793760 0.716577
0.205351 0.825183 0.674493
0.202360 0.859310 0.608786
0.203601 0.892118 0.548554
0.204246 0.922102 0.500165
0.200222 0.950766 0.459416
0.206083 0.982427 0.438736
0.233446 0.016338 0.427446
0.235048 0.044537 0.444475
0.234705 0.080963 0.459551
0.233481 0.111488 0.467593
0.237339 0.139119 0.487250
0.232822 0.171402 0.481198
0.236332 0.205612 0.491860
0.232779 0.236004 0.474571
0.235593 0.265324 0.468978
0.232898 0.297909 0.445081
0.231979 0.326310 0.431209
0.231960 0.359669 0.426408
0.231288 0.388600 0.431506
0.234996 0.421449 0.459836
0.231766 0.454296 0.492823
0.233596 0.486476 0.545206
0.232023 0.518583 0.599743
0.231435 0.544252 0.645652
0.234339 0.579809 0.712156
0.237088 0.607813 0.756787
0.233498 0.642307 0.790907
0.234375 0.673433 0.811394
0.235449 0.704260 0.817039
0.235980 0.731477 0.809752
0.232691 0.763885 0.782506
0.234766 0.797829 0.745334
0.235104 0.827322 0.702483
0.232655 0.857711 0.646175
0.235331 0.888537 0.590109
0.235901 0.919748 0.537683
0.231548 0.954137 0.489939
0.232031 0.987182 0.462185
0.265526 0.016382 0.526708
0.268213 0.043862 0.543405
0.266210 0.079512 0.550405
0.265604 0.106586 0.557389
0.265260 0.140745 0.566755
0.267325 0.169158 0.578561
0.265267 0.206107 0.570521
0.265423 0.233307 0.560494
0.265287 0.267145 0.540020
0.263783 0.294821 0.517945
0.264828 0.330873 0.499703
0.268530 0.357843 0.497702
0.262940 0.388274 0.487326
0.265790 0.419751 0.506106
0.265736 0.450657 0.534704
0.267760 0.483554 0.580940
0.265149 0.514545 0.629184
0.266960 0.547355 0.688289
0.267949 0.579739 0.742489
0.267729 0.610624 0.784069
0.264932 0.643345 0.815056
0.266285 0.671013 0.831879
0.265872 0.702844 0.836833
0.265011 0.732753 0.828449
0.263019 0.765135 0.803684
0.265452 0.795561 0.769438
0.263156 0.826352 0.722736
0.267513 0.859546 0.666058
0.266680 0.892898 0.604037
0.264023 0.923197 0.552648
0.264148 0.952393 0.515744
0.263006 0.984124 0.487435
0.295205 0.017471 0.610080
0.296821 0.043770 0.619128
0.295413 0.079154 0.625567
0.296407 0.107418 0.636704
0.299772 0.138338 0.653441
0.298724 0.174663 0.654702
0.294820 0.203788 0.640100
0.294149 0.233422 0.625076
0.295578 0.265685 0.606719
0.298911 0.298965 0.587359
0.298290 0.327059 0.565443
0.298763 0.360199 0.547357
0.294033 0.387759 0.534187
0.294708 0.423544 0.543592
0.294136 0.453246 0.565638
0.299557 0.482628 0.603302
0.295029 0.513056 0.646590
0.298123 0.548165 0.705424
0.296841 0.576636 0.748878
0.298197 0.608615 0.789881
0.295004 0.638954 0.819355
0.296476 0.671684 0.838499
0.299132 0.706108 0.842553
0.296528 0.731464 0.835519
0.297024 0.762698 0.813940
0.298457 0.797447 0.773900
0.298893 0.827060 0.729001
0.295200 0.859603 0.671644
0.296441 0.890022 0.616039
0.299921 0.924793 0.558573
0.299066 0.955422 0.521419
0.295698 0.982177 0.499051
0.331235 0.016497 0.696435
0.327925 0.049574 0.689908
0.329317 0.080096 0.697540
0.328385 0.109830 0.702809
0.325995 0.143408 0.705558
0.330133 0.169721 0.712905
0.325257 0.202148 0.697978
0.325688 0.231853 0.684781
0.328242 0.262640 0.667073
0.328509 0.299105 0.633986
0.328231 0.329216 0.606210
0.329607 0.360615 0.584411
0.325142 0.388700 0.567803
0.329194 0.420912 0.569482
0.325414 0.450879 0.581547
0.330757 0.482635 0.611762
0.327376 0.516163 0.655966
0.326046 0.543915 0.698474
0.329320 0.579765 0.749265
0.329461 0.606733 0.781201
0.328686 0.643284 0.814454
0.330811 0.671440 0.828379
0.328162 0.705195 0.833900
0.330745 0.735010 0.823128
0.329524 0.765746 0.801035
0.328068 0.794759 0.768661
0.331101 0.828590 0.715989
0.326708 0.859571 0.663603
0.329366 0.891669 0.604279
0.325609 0.922180 0.556064
0.328817 0.954175 0.514792
0.328095 0.984822 0.489369
0.359931 0.015258 0.741849
0.357195 0.046889 0.735060
0.360821 0.075198 0.741130
0.356573 0.109513 0.742318
0.358254 0.137719 0.748215
0.357782 0.169420 0.748125
0.358644 0.203449 0.741217
0.359982 0.235069 0.726043
0.362095 0.267325 0.701567
0.359457 0.296792 0.668891
0.360313 0.329356 0.634569
0.358797 0.359293 0.606344
0.359249 0.391940 0.585033
0.359589 0.420479 0.577575
0.360035 0.451751 0.583989
0.360646 0.484566 0.606384
0.362114 0.513971 0.637223
0.358834 0.547484 0.685526
0.361144 0.580752 0.728837
0.360509 0.611382 0.763281
0.359546 0.638939 0.787622
0.357148 0.674372 0.808630
0.357821 0.704072 0.811110
0.356280 0.737100 0.801926
0.357971 0.767867 0.776278
0.357993 0.799703 0.738493
0.359418 0.825768 0.697355
0.358853 0.860640 0.637306
0.358978 0.888173 0.588185
0.361039 0.919374 0.534569
0.359008 0.952154 0.494241
0.358107 0.985985 0.465415
0.389616 0.014567 0.763128
0.387848 0.047332 0.757853
0.390533 0.076266 0.760566
0.388215 0.112340 0.765598
0.392904 0.140574 0.770085
0.389796 0.173781 0.767999
0.388514 0.200997 0.760193
0.387861 0.232183 0.742806
0.390426 0.264879 0.715870
0.393023 0.296401 0.682068
0.390077 0.329071 0.643522
0.389427 0.356626 0.613950
0.392590 0.393110 0.581618
0.393247 0.424383 0.567402
0.392313 0.451067 0.568075
0.391078 0.481446 0.582124
0.392520 0.515764 0.609955
0.392885 0.545482 0.644594
0.392934 0.578668 0.686477
0.389932 0.611324 0.726170
0.390785 0.643374 0.750656
0.390125 0.672374 0.765631
0.392182 0.705505 0.765317
0.389613 0.732435 0.760777
0.392145 0.766993 0.731006
0.392995 0.794205 0.698785
0.391938 0.830494 0.645982
0.389746 0.856812 0.604644
0.388506 0.890105 0.548120
0.388103 0.922967 0.495921
0.391016 0.955082 0.452611
0.392989 0.986059 0.422790
0.422720 0.018103 0.755202
0.424240 0.046790 0.751394
0.419457 0.077359 0.756846
0.421141 0.110547 0.761845
0.419511 0.137980 0.766405
0.419646 0.171735 0.765170
0.423179 0.201488 0.754325
0.421194 0.237349 0.733026
0.422680 0.266757 0.705985
0.424429 0.296015 0.672521
0.424120 0.329964 0.630173
0.421430 0.356709 0.600079
0.421866 0.390524 0.565354
0.421567 0.421873 0.545717
0.423380 0.455830 0.538428
0.420626 0.482164 0.549217
0.419438 0.513002 0.571116
0.424828 0.546301 0.595164
0.420240 0.581020 0.642553
0.423959 0.607488 0.661812
0.419559 0.638727 0.696438
0.420869 0.672348 0.710783
0.421502 0.703660 0.712264
0.421455 0.733551 0.701952
0.421139 0.766251 0.678230
0.421434 0.794680 0.645850
0.422939 0.831221 0.587944
0.423113 0.858767 0.541505
0.424058 0.892622 0.482492
0.423709 0.921089 0.441336
0.418810 0.952999 0.412816
0.422744 0.985291 0.378395
0.454031 0.017494 0.720979
0.452359 0.045985 0.722155
0.452434 0.077089 0.724917
0.454335 0.107156 0.727872
0.451822 0.141668 0.736973
0.455340 0.170717 0.731651
0.450901 0.203764 0.727849
0.450035 0.237005 0.708243
0.452387 0.265728 0.680114
0.452153 0.295401 0.647424
0.451819 0.330210 0.603092
0.450777 0.360216 0.566365
0.450304 0.390363 0.532960
0.452355 0.419724 0.505950
0.454724 0.454162 0.490448
0.450072 0.486218 0.503708
0.453506 0.514304 0.511212
0.452597 0.545754 0.538816
0.453216 0.579495 0.570648
0.455263 0.607699 0.591152
0.452906 0.639833 0.620993
0.450313 0.669212 0.642597
0.451265 0.703539 0.644292
0.455197 0.733891 0.623488
0.455247 0.764332 0.601565
0.451132 0.795985 0.577650
0.455838 0.828684 0.520203
0.452307 0.859144 0.480597
0.453924 0.893403 0.424543
0.452536 0.919066 0.392653
0.452780 0.953725 0.354057
0.454677 0.986651 0.322436
0.482069 0.013154 0.669937
0.485408 0.048959 0.664172
0.484883 0.079116 0.669785
0.487388 0.106368 0.670432
0.487009 0.138717 0.677063
0.487298 0.172019 0.677003
0.482992 0.204499 0.676588
0.484940 0.236482 0.653946
0.486467 0.266624 0.625050
0.485815 0.297769 0.591668
0.483435 0.328343 0.556151
0.485401 0.358271 0.512260
0.486682 0.390265 0.470346
0.486987 0.420479 0.442273
0.487198 0.450733 0.428194
0.483850 0.486477 0.436264
0.487266 0.514581 0.439553
0.484539 0.547100 0.466768
0.486363 0.580812 0.490992
0.485393 0.607770 0.514382
0.487134 0.641230 0.529684
0.482038 0.670294 0.556133
0.486792 0.701226 0.546321
0.482268 0.736475 0.549491
0.485015 0.766395 0.522525
0.486492 0.797948 0.487829
0.483697 0.830446 0.453105
0.485421 0.856973 0.412374
0.481250 0.891725 0.373350
0.485180 0.921591 0.328297
0.484840 0.950202 0.298360
0.483446 0.986594 0.270603
0.514818 0.016634 0.591374
0.516103 0.044125 0.592401
0.517153 0.076747 0.597445
0.515266 0.107353 0.609973
0.513074 0.143108 0.621636
0.518703 0.172463 0.608164
0.512706 0.204318 0.613963
0.515545 0.234808 0.590888
0.518098 0.265216 0.560800
0.516804 0.295020 0.531711
0.515511 0.326703 0.493444
0.518419 0.357777 0.446347
0.518458 0.390481 0.408055
0.513294 0.424759 0.389085
0.517857 0.451359 0.368176
0.512544 0.486140 0.376976
0.512815 0.518500 0.386072
0.516509 0.547334 0.392985
0.513357 0.575807 0.420560
0.517654 0.609387 0.431667
0.516599 0.640657 0.447975
0.515790 0.669490 0.458198
0.518144 0.704181 0.453858
0.514235 0.733667 0.459271
0.514947 0.767694 0.440173
0.514019 0.794522 0.420352
0.517052 0.829050 0.374246
0.513758 0.861554 0.343444
0.512641 0.888160 0.313828
0.513675 0.921006 0.273414
0.517373 0.954495 0.233969
0.516665 0.984881 0.212680
0.545945 0.013482 0.503197
0.545576 0.044807 0.513176
0.545148 0.079196 0.525002
0.546280 0.111791 0.532091
0.547371 0.139637 0.534611
0.546483 0.173123 0.537181
0.548964 0.204950 0.523806
0.549057 0.233014 0.511466
0.545404 0.263562 0.498614
0.547085 0.294207 0.462825
0.549992 0.329689 0.413225
0.544514 0.357279 0.392312
0.546407 0.392333 0.350160
0.545085 0.421462 0.329059
0.543957 0.455808 0.315280
0.544413 0.482914 0.310753
0.546763 0.517455 0.311182
0.545360 0.545087 0.324739
0.545515 0.577379 0.342165
0.545051 0.612053 0.362809
0.548525 0.641354 0.364334
0.547349 0.670977 0.372168
0.549424 0.701237 0.366324
0.544463 0.736195 0.372540
0.548114 0.762614 0.350825
0.548425 0.794466 0.327485
0.549344 0.829091 0.293604
0.545912 0.858640 0.273388
0.545094 0.889571 0.243792
0.543861 0.924465 0.211861
0.548659 0.952459 0.181414
0.548312 0.986447 0.160918
0.580486 0.013310 0.394244
0.577146 0.049638 0.420076
0.577264 0.077200 0.431613
0.575504 0.109824 0.450020
0.579852 0.142776 0.445376
0.578083 0.173858 0.451504
0.579017 0.202721 0.444841
0.577202 0.233432 0.437859
0.576760 0.268244 0.414119
0.578913 0.298404 0.379532
0.575985 0.329853 0.353762
0.576575 0.360075 0.319958
0.580341 0.389466 0.282060
0.578803 0.419537 0.261440
0.577335 0.450833 0.248563
0.576637 0.482038 0.243129
0.576268 0.517191 0.246650
0.575443 0.546618 0.256567
0.581020 0.576467 0.255399
0.576234 0.610525 0.282864
0.575508 0.642839 0.296071
0.575954 0.669501 0.298253
0.580057 0.705901 0.285273
0.575285 0.731627 0.291730
0.580186 0.763382 0.266700
0.580007 0.795172 0.248320
0.577495 0.828745 0.229716
0.579095 0.856586 0.204561
0.581165 0.892577 0.171228
0.577585 0.918949 0.157647
0.575675 0.956090 0.138463
0.580419 0.985444 0.118514
0.611465 0.013989 0.302277
0.610731 0.047436 0.319494
0.607641 0.076424 0.341643
0.606260 0.109049 0.360196
0.608811 0.143331 0.362976
0.606390 0.171959 0.372825
0.608603 0.205372 0.362432
0.611212 0.235059 0.343469
0.608324 0.266400 0.331656
0.610337 0.297777 0.302388
0.607869 0.325163 0.284591
0.612419 0.357548 0.244892
0.610265 0.391002 0.220898
0.608606 0.419504 0.204412
0.609057 0.450861 0.187599
0.609911 0.484641 0.177095
0.609273 0.518041 0.179765
0.606760 0.546016 0.190981
0.606880 0.576870 0.199181
0.611510 0.611956 0.200173
0.611425 0.643564 0.208612
0.611333 0.673737 0.211773
0.611499 0.702805 0.210192
0.610263 0.735587 0.207890
0.611348 0.765426 0.196864
0.607460 0.796260 0.190699
0.612067 0.827920 0.164988
0.608615 0.859485 0.150875
0.607673 0.893120 0.130202
0.612412 0.919606 0.109060
0.609116 0.954307 0.097667
0.607994 0.983808 0.088656
0.642125 0.012695 0.225404
0.639400 0.044954 0.243597
0.642582 0.076718 0.246730
0.641986 0.108804 0.259884
0.642407 0.142014 0.269362
0.641107 0.172706 0.277222
0.642491 0.200002 0.272079
0.641424 0.233415 0.265681
0.640449 0.265576 0.253183
0.640810 0.295741 0.234451
0.642862 0.325863 0.209466
0.639995 0.358668 0.190108
0.642790 0.387851 0.164640
0.640355 0.423535 0.147822
0.639328 0.456012 0.135369
0.643750 0.487494 0.122067
0.642135 0.514686 0.124285
0.642479 0.544994 0.128160
0.641255 0.578393 0.136740
0.639073 0.607510 0.146532
0.641098 0.640711 0.149709
0.642173 0.672550 0.151152
0.643685 0.704990 0.148371
0.640967 0.732167 0.150280
0.638169 0.765774 0.148161
0.639039 0.797323 0.136168
0.639590 0.829242 0.121591
0.637934 0.861529 0.108356
0.642977 0.889575 0.088945
0.638409 0.923400 0.079402
0.641637 0.952517 0.066989
0.641156 0.984722 0.058941
0.671838 0.016341 0.165815
0.674530 0.047587 0.169356
0.670352 0.075248 0.184775
0.672629 0.108397 0.190510
0.668901 0.138571 0.206724
0.672567 0.171399 0.204050
0.672303 0.204565 0.203862
0.671087 0.233535 0.200440
0.671102 0.263041 0.190029
0.672394 0.296364 0.172332
0.669443 0.327033 0.160743
0.673032 0.359775 0.135323
0.674199 0.390824 0.116091
0.674841 0.419127 0.101887
0.671721 0.450688 0.094546
0.674951 0.484684 0.085377
0.673117 0.513295 0.086414
0.671719 0.544121 0.089690
0.671532 0.580737 0.094698
0.671497 0.611616 0.099756
0.674982 0.640933 0.099373
0.669527 0.674040 0.109589
0.669939 0.704152 0.109329
0.672852 0.737332 0.102560
0.671610 0.763496 0.099656
0.669620 0.795521 0.093860
0.674831 0.828737 0.077698
0.674076 0.856643 0.069794
0.674535 0.893434 0.057928
0.671667 0.920514 0.052697
0.671627 0.952693 0.045441
0.674163 0.982491 0.038194
0.702405 0.017245 0.115585
0.705089 0.047955 0.119093
0.704510 0.079271 0.126797
0.701962 0.107303 0.137612
0.704300 0.143256 0.141623
0.701036 0.168774 0.150282
0.701102 0.201113 0.150482
0.701238 0.235427 0.145118
0.704215 0.265734 0.131975
0.702021 0.296669 0.124377
0.702005 0.325585 0.112610
0.705440 0.359032 0.093726
0.700924 0.391575 0.085150
0.705887 0.424265 0.069432
0.704131 0.451274 0.064395
0.701065 0.481350 0.062757
0.701034 0.513182 0.061323
0.702257 0.547257 0.060601
0.706024 0.576534 0.059359
0.700149 0.606438 0.067613
0.705539 0.643040 0.065819
0.705708 0.672171 0.067281
0.701079 0.703044 0.072303
0.705090 0.737104 0.066368
0.703644 0.765931 0.064172
0.702948 0.798458 0.058842
0.702077 0.826078 0.053909
0.703206 0.858628 0.046257
0.705176 0.893544 0.037960
0.700030 0.920634 0.035821
0.702841 0.955565 0.029200
0.705272 0.982815 0.024567
0.735837 0.017747 0.074284
0.733894 0.048178 0.082657
0.733787 0.078289 0.087759
0.734535 0.106822 0.091425
0.733773 0.142388 0.098009
0.732905 0.170674 0.102020
0.732406 0.204729 0.102617
0.735129 0.235283 0.095892
0.733296 0.263464 0.092890
0.732402 0.296595 0.085572
0.734582 0.326015 0.074837
0.737036 0.358807 0.062930
0.731445 0.388546 0.059085
0.734782 0.424909 0.048193
0.732127 0.452085 0.045229
0.733182 0.483465 0.041135
0.732268 0.514513 0.040020
0.733622 0.547759 0.039025
0.735014 0.575236 0.039051
0.733344 0.606739 0.041716
0.734650 0.640570 0.042714
0.733049 0.670329 0.044922
0.733996 0.704116 0.044444
0.733285 0.731260 0.044022
0.737329 0.763130 0.039249
0.733240 0.799722 0.037831
0.733433 0.826034 0.034417
0.737409 0.856978 0.028336
0.731512 0.893506 0.025817
0.736158 0.920127 0.021040
0.731884 0.951591 0.019303
0.733984 0.982769 0.015887
0.764266 0.015933 0.048683
0.768014 0.049073 0.051060
0.766690 0.078485 0.055481
0.767236 0.111887 0.058259
0.767834 0.142248 0.060624
0.763962 0.174989 0.066471
0.764133 0.202344 0.066439
0.764372 0.235910 0.064113
0.768699 0.267289 0.056486
0.765179 0.297760 0.054499
0.765399 0.325640 0.049248
0.763637 0.361646 0.042994
0.765646 0.393319 0.035708
0.768113 0.420570 0.030395
0.766432 0.456096 0.027230
0.765900 0.486442 0.025198
0.762843 0.513685 0.025259
0.768596 0.548533 0.022799
0.767937 0.575202 0.023361
0.765740 0.608596 0.024982
0.768560 0.638707 0.024821
0.763929 0.672481 0.027746
0.768103 0.703434 0.026065
0.763030 0.736106 0.027481
0.767319 0.766927 0.024212
0.762825 0.799272 0.024007
0.762948 0.831217 0.021465
0.764187 0.859374 0.018435
0.766796 0.892178 0.014776
0.768404 0.923061 0.012164
0.768199 0.951070 0.010567
0.767596 0.983018 0.008936
0.796762 0.018193 0.029384
0.798145 0.046246 0.031904
0.794803 0.080641 0.036824
0.795063 0.109677 0.038749
0.796080 0.139145 0.039744
0.798792 0.170224 0.039140
0.797868 0.202098 0.039804
0.797013 0.234081 0.039314
0.797543 0.266669 0.036864
0.793886 0.298870 0.035767
0.796108 0.328386 0.030888
0.799811 0.360914 0.024782
0.798708 0.392242 0.021558
0.796583 0.421292 0.019508
0.795276 0.454389 0.017459
0.795086 0.485382 0.016003
0.796294 0.514227 0.014866
0.795895 0.545634 0.014626
0.798053 0.580964 0.014275
0.798614 0.611889 0.014564
0.793885 0.643589 0.016438
0.794086 0.671312 0.016843
0.794772 0.704975 0.016688
0.793822 0.735013 0.016474
0.799509 0.763187 0.014117
0.797156 0.794206 0.013554
0.797228 0.827396 0.012114
0.796759 0.858693 0.010619
0.796304 0.890994 0.008976
0.799632 0.923119 0.007090
0.797435 0.950070 0.006379
0.795517 0.983671 0.005379
0.829661 0.016036 0.016603
0.828464 0.045429 0.019305
0.825732 0.076010 0.022290
0.827214 0.111302 0.023595
0.826661 0.138698 0.024725
0.827590 0.172801 0.024800
0.828310 0.200455 0.024376
0.827937 0.233618 0.023873
0.825618 0.265583 0.023668
0.825830 0.295102 0.021855
0.827739 0.327207 0.018587
0.831211 0.361826 0.014795
0.827187 0.390245 0.013783
0.830010 0.424889 0.011153
0.826883 0.453604 0.010434
0.828450 0.482145 0.009295
0.828166 0.515624 0.008675
0.829560 0.544266 0.008212
0.826357 0.576081 0.008732
0.827408 0.608591 0.008793
0.826652 0.638529 0.009143
0.830353 0.670284 0.008608
0.830584 0.704945 0.008516
0.831026 0.732817 0.008291
0.826776 0.765936 0.008517
0.829493 0.796971 0.007396
0.828041 0.827199 0.006802
0.830365 0.858826 0.005667
0.825128 0.893223 0.005252
0.830997 0.922304 0.004029
0.831237 0.952503 0.003397
0.828673 0.986290 0.002839
0.858801 0.012771 0.009665
0.859659 0.044563 0.010980
0.859842 0.081058 0.012204
0.860508 0.107545 0.012892
0.859774 0.142692 0.013954
0.858080 0.170663 0.014711
0.862362 0.206156 0.013477
0.859898 0.233330 0.013697
0.859510 0.263015 0.013146
0.861298 0.298010 0.011551
0.859967 0.326276 0.010610
0.857503 0.357275 0.009672
0.858005 0.388734 0.008243
0.861207 0.424199 0.006511
0.861183 0.450567 0.005809
0.857250 0.482794 0.005560
0.861009 0.515732 0.004752
0.858699 0.549175 0.004787
0.858329 0.578729 0.004824
0.861126 0.612417 0.004616
0.862215 0.642642 0.004542
0.861106 0.673040 0.004645
0.861512 0.703925 0.004596
0.861052 0.733729 0.004581
0.859908 0.765125 0.004487
0.861260 0.796736 0.004006
0.860567 0.830085 0.003584
0.859693 0.858092 0.003216
0.859919 0.890465 0.002719
0.861866 0.921433 0.002229
0.857874 0.952900 0.002034
0.856250 0.985363 0.001687
0.888074 0.016014 0.005728
0.891744 0.047923 0.006086
0.892158 0.079078 0.006598
0.893637 0.107998 0.006889
0.892392 0.137532 0.007478
0.888043 0.169120 0.008442
0.893292 0.201342 0.007678
0.892383 0.232835 0.007607
0.889291 0.267114 0.007564
0.889349 0.296707 0.006928
0.893187 0.330769 0.005655
0.893074 0.357817 0.005023
0.892203 0.391774 0.004319
0.890426 0.421712 0.003865
0.888805 0.453165 0.003467
0.893111 0.486469 0.002775
0.893492 0.518582 0.002509
0.893240 0.544679 0.002439
0.889143 0.577478 0.002618
0.892322 0.611066 0.002470
0.892348 0.640340 0.002496
0.890117 0.672727 0.002632
0.891544 0.704638 0.002556
0.892684 0.732951 0.002447
0.892376 0.763628 0.002342
0.888250 0.798673 0.002321
0.893699 0.825483 0.001887
0.890156 0.861507 0.001725
0.891460 0.893405 0.001432
0.890190 0.924662 0.001252
0.892491 0.952357 0.001027
0.889042 0.986429 0.000867
0.919010 0.013929 0.003138
0.919338 0.049134 0.003686
0.919022 0.080967 0.004097
0.923901 0.111681 0.004041
0.921950 0.142188 0.004381
0.924989 0.171359 0.004279
0.920073 0.202523 0.004725
0.919431 0.233513 0.004690
0.919355 0.263775 0.004436
0.921169 0.298897 0.003836
0.924370 0.331036 0.003179
0.923857 0.358855 0.002825
0.923859 0.392031 0.002394
0.921616 0.421344 0.002169
0.922454 0.453771 0.001832
0.922922 0.487421 0.001565
0.923369 0.512526 0.001437
0.922659 0.544564 0.001373
0.924351 0.579236 0.001300
0.920802 0.607730 0.001409
0.921572 0.641755 0.001418
0.920368 0.669662 0.001465
0.923149 0.703742 0.001381
0.923069 0.731711 0.001340
0.924248 0.763769 0.001224
0.920105 0.798329 0.001211
0.923660 0.830989 0.001000
0.923222 0.860878 0.000885
0.919970 0.888847 0.000830
0.918878 0.923995 0.000710
0.923505 0.951366 0.000551
0.921376 0.982942 0.000456
0.954230 0.017724 0.001666
0.950316 0.047643 0.002119
0.953961 0.077861 0.002255
0.950685 0.110783 0.002609
0.950109 0.140080 0.002759
0.953364 0.169389 0.002688
0.954002 0.202724 0.002677
0.950174 0.232765 0.002784
0.952062 0.266449 0.002512
0.952349 0.297154 0.002260
0.954805 0.325493 0.001957
0.954767 0.356552 0.001710
0.951154 0.390440 0.001521
0.955241 0.420865 0.001218
0.952302 0.455336 0.001071
0.954917 0.482991 0.000909
0.955096 0.516896 0.000813
0.955612 0.549190 0.000754
0.952580 0.576137 0.000776
0.953465 0.609568 0.000772
0.952194 0.642033 0.000802
0.956075 0.670221 0.000752
0.950880 0.701486 0.000820
0.955010 0.736389 0.000730
0.952506 0.767924 0.000708
0.953765 0.793992 0.000641
0.954720 0.828048 0.000558
0.956116 0.858470 0.000479
0.954562 0.888532 0.000427
0.955493 0.920690 0.000354
0.954235 0.950940 0.000302
0.951799 0.986917 0.000237
0.981389 0.016198 0.001030
0.987154 0.048933 0.001181
0.984801 0.076321 0.001396
0.981440 0.109888 0.001655
0.985260 0.138469 0.001663
0.981677 0.170672 0.001794
0.984839 0.202304 0.001703
0.982563 0.231469 0.001704
0.985981 0.262908 0.001512
0.982971 0.298566 0.001427
0.983589 0.326893 0.001283
0.983465 0.362295 0.001094
0.985139 0.391861 0.000911
0.983416 0.419715 0.000802
0.984475 0.453534 0.000657
0.985603 0.485556 0.000558
0.986298 0.515368 0.000499
0.985851 0.544761 0.000470
0.983299 0.575078 0.000474
0.984004 0.611284 0.000465
0.987082 0.641022 0.000445
0.984794 0.672348 0.000464
0.987424 0.704553 0.000440
0.981945 0.734443 0.000468
0.984028 0.765467 0.000425
0.984656 0.797407 0.000382
0.982178 0.829535 0.000353
0.984534 0.858407 0.000300
0.984924 0.887706 0.000257
0.986931 0.923485 0.000200
0.984425 0.952557 0.000174
0.984145 0.982266 0.000135
