x  y  phi
0.012500 0.013322 0.019894
0.017223 0.046617 0.027516
0.015830 0.076368 0.031715
0.012794 0.110493 0.035620
0.016746 0.143342 0.041783
0.014897 0.171996 0.043678
0.017694 0.200216 0.046549
0.012834 0.234561 0.043987
0.016695 0.262548 0.045290
0.014896 0.294168 0.044459
0.015109 0.329292 0.048532
0.016181 0.362065 0.058915
0.017789 0.390793 0.074621
0.013075 0.422837 0.096896
0.015100 0.454382 0.135256
0.018190 0.486014 0.185573
0.014140 0.512797 0.225970
0.017101 0.545801 0.290090
0.016454 0.579728 0.352134
0.018694 0.608533 0.400550
0.014044 0.643641 0.437862
0.017017 0.673458 0.465558
0.016572 0.700454 0.472728
0.016448 0.736779 0.460979
0.014204 0.765228 0.432367
0.017291 0.796736 0.395989
0.013986 0.826718 0.342861
0.014745 0.857291 0.286202
0.015541 0.893110 0.219494
0.018183 0.919129 0.181753
0.018154 0.953153 0.140921
0.015727 0.983244 0.109478
0.049917 0.015587 0.034793
0.045413 0.044317 0.039004
0.049674 0.075461 0.048043
0.046879 0.108651 0.053172
0.045482 0.143211 0.057893
0.047061 0.171653 0.062605
0.049631 0.200313 0.066951
0.048509 0.236064 0.066071
0.048924 0.263284 0.064950
0.043849 0.298053 0.060761
0.049177 0.328935 0.067838
0.048351 0.360784 0.077174
0.049997 0.393054 0.096575
0.045207 0.420665 0.117615
0.045944 0.453208 0.160419
0.047444 0.486537 0.216263
0.046326 0.517759 0.271161
0.045433 0.546346 0.325848
0.047108 0.577924 0.389550
0.045545 0.607365 0.435971
0.044711 0.641073 0.478694
0.048765 0.668957 0.509319
0.047090 0.703116 0.517589
0.049721 0.735927 0.511755
0.047216 0.768067 0.478299
0.047655 0.799013 0.436855
0.044749 0.826330 0.386389
0.048217 0.857065 0.331719
0.044319 0.889216 0.261091
0.043769 0.921339 0.204943
0.043918 0.954436 0.163245
0.049612 0.982749 0.141942
0.076131 0.014485 0.050867
0.080544 0.047825 0.065176
0.075940 0.079258 0.070015
0.077411 0.108673 0.079972
0.078123 0.138422 0.088191
0.078670 0.174035 0.095110
0.078688 0.205971 0.097146
0.078476 0.232176 0.096086
0.081146 0.265055 0.096475
0.075886 0.297281 0.087940
0.076576 0.328053 0.090698
0.077900 0.362257 0.102496
0.075788 0.388748 0.116076
0.076995 0.422683 0.151744
0.075792 0.454070 0.197193
0.078885 0.486269 0.259208
0.076549 0.515478 0.312086
0.077433 0.545020 0.376270
0.075177 0.580635 0.445959
0.077666 0.607138 0.498085
0.080922 0.640064 0.549653
0.075820 0.674285 0.564695
0.075576 0.701014 0.571225
0.075444 0.733533 0.562951
0.076582 0.763344 0.541592
0.079895 0.796596 0.505369
0.077185 0.827827 0.444326
0.080056 0.862073 0.378534
0.079073 0.888845 0.318994
0.079247 0.924431 0.250684
0.076563 0.955380 0.201542
0.077945 0.984412 0.172529
0.110002 0.017610 0.087218
0.110974 0.046639 0.100984
0.112196 0.078955 0.116554
0.108996 0.111404 0.124968
0.110556 0.141889 0.138661
0.112420 0.174715 0.149337
0.111570 0.201808 0.149282
0.109609 0.234465 0.143858
0.106896 0.265088 0.134817
0.109854 0.299229 0.134508
0.109000 0.329561 0.132470
0.111683 0.360723 0.144136
0.111255 0.391916 0.163744
0.110886 0.418869 0.194799
0.111788 0.453281 0.253758
0.109146 0.481657 0.304729
0.110709 0.515556 0.382706
0.110423 0.548013 0.459556
0.107497 0.580729 0.524877
0.111662 0.611813 0.589729
0.109650 0.638370 0.618726
0.109065 0.674934 0.645796
0.107597 0.702788 0.648590
0.108223 0.734467 0.642090
0.111759 0.765248 0.626364
0.109172 0.798792 0.573724
0.108532 0.826322 0.520861
0.112494 0.857210 0.461199
0.110191 0.891352 0.376624
0.106254 0.918755 0.310676
0.111083 0.954546 0.259260
0.108245 0.983861 0.217850
0.141766 0.016754 0.136938
0.138783 0.048978 0.147743
0.141931 0.080179 0.171041
0.138091 0.106761 0.178324
0.142275 0.141435 0.204683
0.138837 0.170085 0.204696
0.138007 0.202430 0.206358
0.143451 0.237172 0.217742
0.139937 0.264183 0.202994
0.141826 0.295525 0.198017
0.142355 0.329899 0.192043
0.140140 0.358013 0.190264
0.138712 0.387571 0.204140
0.138699 0.424895 0.250516
0.139025 0.455123 0.306194
0.138353 0.483738 0.367505
0.141256 0.513606 0.447824
0.142677 0.544736 0.530958
0.143675 0.576607 0.607511
0.138960 0.606885 0.650978
0.138871 0.641467 0.695483
0.141850 0.673717 0.728223
0.141852 0.704706 0.735119
0.141685 0.735209 0.724733
0.137853 0.766239 0.689525
0.138919 0.795742 0.652233
0.141874 0.825734 0.602949
0.142266 0.859538 0.524501
0.140962 0.891175 0.443848
0.139560 0.923144 0.369077
0.138394 0.951011 0.316396
0.140533 0.986626 0.271059
0.173833 0.015980 0.205331
0.173369 0.045725 0.222561
0.169596 0.078303 0.235571
0.170692 0.109926 0.263152
0.171988 0.140193 0.285153
0.170368 0.171064 0.291124
0.171206 0.202793 0.298486
0.171724 0.233674 0.296467
0.170496 0.262989 0.282709
0.171061 0.295337 0.270051
0.172949 0.329226 0.261669
0.171962 0.360804 0.256941
0.173255 0.393405 0.276254
0.171629 0.424626 0.311059
0.170760 0.452878 0.361623
0.171982 0.485383 0.440213
0.171261 0.516285 0.519536
0.174916 0.544690 0.599959
0.172938 0.577149 0.671585
0.172136 0.609518 0.729265
0.173933 0.637593 0.770113
0.170464 0.672769 0.791406
0.172163 0.705737 0.800817
0.170416 0.737313 0.785087
0.170292 0.767775 0.758343
0.173088 0.796598 0.726566
0.173857 0.825138 0.676028
0.169755 0.860668 0.582330
0.173174 0.890229 0.514007
0.172390 0.923448 0.434446
0.174947 0.954348 0.382142
0.170497 0.985962 0.328479
0.201070 0.012527 0.276171
0.203098 0.044249 0.307907
0.201019 0.080646 0.334154
0.204894 0.110917 0.375126
0.202728 0.137540 0.385746
0.203655 0.171990 0.403863
0.200418 0.203400 0.396221
0.202436 0.232599 0.397122
0.202411 0.266418 0.379097
0.204119 0.298183 0.361675
0.203367 0.326752 0.340541
0.205100 0.358574 0.333524
0.204288 0.389439 0.338036
0.200058 0.419399 0.357744
0.203256 0.454849 0.426432
0.201379 0.481595 0.485904
0.200441 0.513502 0.566903
0.204524 0.545606 0.654756
0.200316 0.577986 0.722113
0.202857 0.609500 0.783984
0.202791 0.638439 0.821677
0.201787 0.673961 0.846984
0.204348 0.703611 0.855994
0.204257 0.733320 0.846124
0.200359 0.768668 0.810278
0.203390 0.793760 0.783533
0.205351 0.825183 0.732897
0.202360 0.859310 0.648113
0.203601 0.892118 0.564112
0.204246 0.922102 0.492118
0.200222 0.950766 0.430036
0.206083 0.982427 0.392290
0.233446 0.016338 0.390305
0.235048 0.044537 0.421505
0.234705 0.080963 0.455154
0.233481 0.111488 0.477157
0.237339 0.139119 0.510363
0.232822 0.171402 0.510748
0.236332 0.205612 0.527207
0.232779 0.236004 0.502845
0.235593 0.265324 0.488991
0.232898 0.297909 0.446652
0.231979 0.326310 0.416613
0.231960 0.359669 0.396818
0.231288 0.388600 0.395171
0.234996 0.421449 0.427808
0.231766 0.454296 0.475403
0.233596 0.486476 0.551284
0.232023 0.518583 0.629796
0.231435 0.544252 0.692121
0.234339 0.579809 0.775444
0.237088 0.607813 0.827305
0.233498 0.642307 0.864719
0.234375 0.673433 0.885942
0.235449 0.704260 0.891798
0.235980 0.731477 0.884710
0.232691 0.763885 0.856876
0.234766 0.797829 0.816587
0.235104 0.827322 0.766242
0.232655 0.857711 0.694810
0.235331 0.888537 0.617573
0.235901 0.919748 0.539984
0.231548 0.954137 0.465601
0.232031 0.987182 0.417165
0.265526 0.016382 0.511173
0.268213 0.043862 0.542480
0.266210 0.079512 0.565670
0.265604 0.106586 0.585258
0.265260 0.140745 0.608697
0.267325 0.169158 0.630780
0.265267 0.206107 0.625416
0.265423 0.233307 0.611782
0.265287 0.267145 0.579369
0.263783 0.294821 0.541656
0.264828 0.330873 0.502066
0.268530 0.357843 0.487383
0.262940 0.388274 0.463678
0.265790 0.419751 0.482722
0.265736 0.450657 0.521920
0.267760 0.483554 0.589379
0.265149 0.514545 0.660015
0.266960 0.547355 0.739745
0.267949 0.579739 0.807479
0.267729 0.610624 0.855583
0.264932 0.643345 0.889015
0.266285 0.671013 0.906277
0.265872 0.702844 0.911552
0.265011 0.732753 0.903756
0.263019 0.765135 0.879293
0.265452 0.795561 0.843315
0.263156 0.826352 0.789925
0.267513 0.859546 0.718774
0.266680 0.892898 0.633575
0.264023 0.923197 0.557081
0.264148 0.952393 0.497771
0.263006 0.984124 0.448468
0.295205 0.017471 0.618537
0.296821 0.043770 0.638753
0.295413 0.079154 0.658795
0.296407 0.107418 0.682713
0.299772 0.138338 0.713052
0.298724 0.174663 0.723620
0.294820 0.203788 0.709900
0.294149 0.233422 0.691485
0.295578 0.265685 0.663791
0.298911 0.298965 0.629061
0.298290 0.327059 0.589336
0.298763 0.360199 0.551550
0.294033 0.387759 0.524001
0.294708 0.423544 0.529142
0.294136 0.453246 0.559211
0.299557 0.482628 0.613821
0.295029 0.513056 0.677626
0.298123 0.548165 0.757758
0.296841 0.576636 0.812926
0.298197 0.608615 0.860993
0.295004 0.638954 0.893055
0.296476 0.671684 0.912945
0.299132 0.706108 0.917633
0.296528 0.731464 0.911239
0.297024 0.762698 0.890388
0.298457 0.797447 0.848756
0.298893 0.827060 0.797687
0.295200 0.859603 0.726022
0.296441 0.890022 0.649961
0.299921 0.924793 0.564029
0.299066 0.955422 0.503628
0.295698 0.982177 0.463794
0.331235 0.016497 0.733794
0.327925 0.049574 0.731448
0.329317 0.080096 0.748841
0.328385 0.109830 0.763854
0.325995 0.143408 0.776331
0.330133 0.169721 0.790683
0.325257 0.202148 0.777869
0.325688 0.231853 0.763080
0.328242 0.262640 0.738644
0.328509 0.299105 0.688663
0.328231 0.329216 0.642538
0.329607 0.360615 0.601801
0.325142 0.388700 0.569018
0.329194 0.420912 0.563471
0.325414 0.450879 0.578547
0.330757 0.482635 0.623323
0.327376 0.516163 0.688409
0.326046 0.543915 0.747596
0.329320 0.579765 0.813596
0.329461 0.606733 0.851947
0.328686 0.643284 0.888994
0.330811 0.671440 0.904048
0.328162 0.705195 0.910255
0.330745 0.735010 0.900472
0.329524 0.765746 0.878645
0.328068 0.794759 0.844445
0.331101 0.828590 0.784184
0.326708 0.859571 0.717776
0.329366 0.891669 0.636336
0.325609 0.922180 0.563174
0.328817 0.954175 0.497014
0.328095 0.984822 0.451482
0.359931 0.015258 0.793616
0.357195 0.046889 0.788882
0.360821 0.075198 0.801681
0.356573 0.109513 0.811096
0.358254 0.137719 0.824630
0.357782 0.169420 0.830839
0.358644 0.203449 0.827475
0.359982 0.235069 0.811283
0.362095 0.267325 0.780144
0.359457 0.296792 0.734493
0.360313 0.329356 0.681646
0.358797 0.359293 0.634012
0.359249 0.391940 0.593740
0.359589 0.420479 0.576355
0.360035 0.451751 0.583142
0.360646 0.484566 0.617347
0.362114 0.513971 0.664430
0.358834 0.547484 0.733233
0.361144 0.580752 0.791588
0.360509 0.611382 0.834318
0.359546 0.638939 0.862574
0.357148 0.674372 0.885817
0.357821 0.704072 0.889348
0.356280 0.737100 0.880784
0.357971 0.767867 0.854763
0.357993 0.799703 0.813390
0.359418 0.825768 0.765098
0.358853 0.860640 0.688188
0.358978 0.888173 0.619865
0.361039 0.919374 0.540251
0.359008 0.952154 0.474502
0.358107 0.985985 0.423382
0.389616 0.014567 0.820551
0.387848 0.047332 0.817521
0.390533 0.076266 0.825562
0.388215 0.112340 0.839225
0.392904 0.140574 0.850427
0.389796 0.173781 0.854133
0.388514 0.200997 0.848973
0.387861 0.232183 0.831212
0.390426 0.264879 0.798868
0.393023 0.296401 0.753622
0.390077 0.329071 0.696595
0.389427 0.356626 0.649034
0.392590 0.393110 0.593276
0.393247 0.424383 0.566188
0.392313 0.451067 0.565098
0.391078 0.481446 0.587041
0.392520 0.515764 0.631817
0.392885 0.545482 0.684355
0.392934 0.578668 0.743678
0.389932 0.611324 0.794890
0.390785 0.643374 0.825439
0.390125 0.672374 0.843494
0.392182 0.705505 0.844867
0.389613 0.732435 0.840654
0.392145 0.766993 0.809124
0.392995 0.794205 0.772430
0.391938 0.830494 0.707388
0.389746 0.856812 0.652321
0.388506 0.890105 0.572010
0.388103 0.922967 0.492760
0.391016 0.955082 0.424785
0.392989 0.986059 0.375215
0.422720 0.018103 0.808654
0.424240 0.046790 0.807973
0.419457 0.077359 0.820735
0.421141 0.110547 0.834399
0.419511 0.137980 0.846003
0.419646 0.171735 0.851335
0.423179 0.201488 0.843674
0.421194 0.237349 0.821805
0.422680 0.266757 0.789421
0.424429 0.296015 0.745248
0.424120 0.329964 0.683851
0.421430 0.356709 0.635760
0.421866 0.390524 0.577480
0.421567 0.421873 0.542152
0.423380 0.455830 0.529902
0.420626 0.482164 0.546940
0.419438 0.513002 0.583293
0.424828 0.546301 0.625312
0.420240 0.581020 0.693544
0.423959 0.607488 0.722191
0.419559 0.638727 0.766496
0.420869 0.672348 0.785910
0.421502 0.703660 0.789518
0.421455 0.733551 0.779157
0.421139 0.766251 0.752601
0.421434 0.794680 0.713945
0.422939 0.831221 0.640447
0.423113 0.858767 0.577316
0.424058 0.892622 0.492645
0.423709 0.921089 0.429647
0.418810 0.952999 0.380292
0.422744 0.985291 0.326383
0.454031 0.017494 0.761862
0.452359 0.045985 0.769759
0.452434 0.077089 0.781159
0.454335 0.107156 0.793540
0.451822 0.141668 0.813924
0.455340 0.170717 0.814767
0.450901 0.203764 0.815526
0.450035 0.237005 0.795199
0.452387 0.265728 0.761380
0.452153 0.295401 0.717703
0.451819 0.330210 0.653324
0.450777 0.360216 0.595407
0.450304 0.390363 0.539996
0.452355 0.419724 0.495690
0.454724 0.454162 0.471826
0.450072 0.486218 0.492183
0.453506 0.514304 0.510089
0.452597 0.545754 0.556159
0.453216 0.579495 0.607002
0.455263 0.607699 0.639045
0.452906 0.639833 0.680332
0.450313 0.669212 0.709104
0.451265 0.703539 0.713744
0.455197 0.733891 0.690956
0.455247 0.764332 0.665265
0.451132 0.795985 0.634731
0.455838 0.828684 0.560320
0.452307 0.859144 0.503877
0.453924 0.893403 0.423165
0.452536 0.919066 0.374287
0.452780 0.953725 0.314473
0.454677 0.986651 0.265752
0.482069 0.013154 0.691303
0.485408 0.048959 0.696830
0.484883 0.079116 0.714252
0.487388 0.106368 0.725083
0.487009 0.138717 0.744238
0.487298 0.172019 0.753262
0.482992 0.204499 0.758200
0.484940 0.236482 0.733764
0.486467 0.266624 0.697922
0.485815 0.297769 0.652016
0.483435 0.328343 0.598804
0.485401 0.358271 0.532051
0.486682 0.390265 0.465285
0.486987 0.420479 0.419675
0.487198 0.450733 0.397598
0.483850 0.486477 0.410505
0.487266 0.514581 0.422425
0.484539 0.547100 0.467587
0.486363 0.580812 0.509157
0.485393 0.607770 0.545281
0.487134 0.641230 0.570404
0.482038 0.670294 0.606433
0.486792 0.701226 0.597186
0.482268 0.736475 0.602924
0.485015 0.766395 0.570222
0.486492 0.797948 0.525774
0.483697 0.830446 0.478069
0.485421 0.856973 0.421734
0.481250 0.891725 0.363315
0.485180 0.921591 0.299912
0.484840 0.950202 0.255789
0.483446 0.986594 0.213012
0.514818 0.016634 0.592551
0.516103 0.044125 0.605293
0.517153 0.076747 0.624643
0.515266 0.107353 0.652700
0.513074 0.143108 0.680110
0.518703 0.172463 0.672211
0.512706 0.204318 0.684760
0.515545 0.234808 0.658972
0.518098 0.265216 0.620875
0.516804 0.295020 0.580056
0.515511 0.326703 0.523230
0.518419 0.357777 0.452727
0.518458 0.390481 0.391547
0.513294 0.424759 0.356499
0.517857 0.451359 0.328038
0.512544 0.486140 0.340378
0.512815 0.518500 0.359449
0.516509 0.547334 0.377126
0.513357 0.575807 0.420053
0.517654 0.609387 0.442744
0.516599 0.640657 0.468683
0.515790 0.669490 0.484951
0.518144 0.704181 0.482493
0.514235 0.733667 0.491010
0.514947 0.767694 0.467805
0.514019 0.794522 0.442150
0.517052 0.829050 0.381013
0.513758 0.861554 0.337185
0.512641 0.888160 0.295113
0.513675 0.921006 0.239350
0.517373 0.954495 0.187535
0.516665 0.984881 0.157956
0.545945 0.013482 0.482301
0.545576 0.044807 0.508176
0.545148 0.079196 0.537169
0.546280 0.111791 0.559752
0.547371 0.139637 0.573288
0.546483 0.173123 0.585776
0.548964 0.204950 0.574455
0.549057 0.233014 0.560910
0.545404 0.263562 0.543818
0.547085 0.294207 0.494485
0.549992 0.329689 0.423393
0.544514 0.357279 0.387912
0.546407 0.392333 0.323983
0.545085 0.421462 0.290011
0.543957 0.455808 0.268928
0.544413 0.482914 0.264984
0.546763 0.517455 0.272435
0.545360 0.545087 0.295313
0.545515 0.577379 0.324804
0.545051 0.612053 0.357992
0.548525 0.641354 0.364410
0.547349 0.670977 0.377166
0.549424 0.701237 0.372198
0.544463 0.736195 0.381920
0.548114 0.762614 0.355556
0.548425 0.794466 0.326349
0.549344 0.829091 0.282733
0.545912 0.858640 0.255049
0.545094 0.889571 0.215586
0.543861 0.924465 0.173114
0.548659 0.952459 0.136499
0.548312 0.986447 0.110804
0.580486 0.013310 0.354526
0.577146 0.049638 0.398954
0.577264 0.077200 0.423350
0.575504 0.109824 0.458660
0.579852 0.142776 0.464116
0.578083 0.173858 0.479061
0.579017 0.202721 0.474813
0.577202 0.233432 0.467835
0.576760 0.268244 0.436586
0.578913 0.298404 0.389156
0.575985 0.329853 0.350608
0.576575 0.360075 0.301447
0.580341 0.389466 0.248791
0.578803 0.419537 0.217961
0.577335 0.450833 0.199206
0.576637 0.482038 0.193365
0.576268 0.517191 0.202021
0.575443 0.546618 0.218591
0.581020 0.576467 0.223546
0.576234 0.610525 0.261628
0.575508 0.642839 0.281519
0.575954 0.669501 0.286396
0.580057 0.705901 0.272954
0.575285 0.731627 0.281854
0.580186 0.763382 0.252520
0.580007 0.795172 0.230620
0.577495 0.828745 0.207701
0.579095 0.856586 0.177379
0.581165 0.892577 0.137797
0.577585 0.918949 0.120214
0.575675 0.956090 0.096423
0.580419 0.985444 0.075331
0.611465 0.013989 0.253428
0.610731 0.047436 0.282847
0.607641 0.076424 0.317093
0.606260 0.109049 0.349728
0.608811 0.143331 0.362630
0.606390 0.171959 0.380171
0.608603 0.205372 0.370879
0.611212 0.235059 0.348291
0.608324 0.266400 0.332809
0.610337 0.297777 0.294090
0.607869 0.325163 0.268777
0.612419 0.357548 0.216636
0.610265 0.391002 0.182881
0.608606 0.419504 0.160072
0.609057 0.450861 0.139585
0.609911 0.484641 0.129192
0.609273 0.518041 0.134703
0.606760 0.546016 0.149475
0.606880 0.576870 0.162507
0.611510 0.611956 0.168372
0.611425 0.643564 0.180576
0.611333 0.673737 0.185871
0.611499 0.702805 0.185250
0.610263 0.735587 0.183537
0.611348 0.765426 0.171572
0.607460 0.796260 0.164693
0.612067 0.827920 0.136252
0.608615 0.859485 0.120196
0.607673 0.893120 0.097245
0.612412 0.919606 0.075393
0.609116 0.954307 0.062247
0.607994 0.983808 0.052339
0.642125 0.012695 0.174028
0.639400 0.044954 0.200239
0.642582 0.076718 0.210846
0.641986 0.108804 0.232746
0.642407 0.142014 0.249996
0.641107 0.172706 0.263215
0.642491 0.200002 0.259130
0.641424 0.233415 0.252497
0.640449 0.265576 0.237166
0.640810 0.295741 0.213620
0.642862 0.325863 0.182564
0.639995 0.358668 0.157288
0.642790 0.387851 0.127009
0.640355 0.423535 0.106130
0.639328 0.456012 0.092180
0.643750 0.487494 0.080407
0.642135 0.514686 0.083525
0.642479 0.544994 0.089327
0.641255 0.578393 0.100304
0.639073 0.607510 0.112288
0.641098 0.640711 0.117648
0.642173 0.672550 0.120436
0.643685 0.704990 0.118436
0.640967 0.732167 0.120936
0.638169 0.765774 0.119167
0.639039 0.797323 0.107035
0.639590 0.829242 0.092271
0.637934 0.861529 0.078745
0.642977 0.889575 0.060142
0.638409 0.923400 0.050243
0.641637 0.952517 0.038872
0.641156 0.984722 0.031325
0.671838 0.016341 0.118392
0.674530 0.047587 0.126653
0.670352 0.075248 0.145922
0.672629 0.108397 0.156873
0.668901 0.138571 0.178259
0.672567 0.171399 0.178251
0.672303 0.204565 0.179629
0.671087 0.233535 0.176362
0.671102 0.263041 0.164618
0.672394 0.296364 0.144302
0.669443 0.327033 0.130262
0.673032 0.359775 0.102135
0.674199 0.390824 0.081439
0.674841 0.419127 0.066760
0.671721 0.450688 0.058738
0.674951 0.484684 0.050839
0.673117 0.513295 0.052164
0.671719 0.544121 0.056233
0.671532 0.580737 0.062594
0.671497 0.611616 0.068590
0.674982 0.640933 0.069412
0.669527 0.674040 0.079677
0.669939 0.704152 0.079979
0.672852 0.737332 0.074116
0.671610 0.763496 0.071692
0.669620 0.795521 0.066578
0.674831 0.828737 0.052170
0.674076 0.856643 0.045111
0.674535 0.893434 0.034781
0.671667 0.920514 0.030018
0.671627 0.952693 0.023865
0.674163 0.982491 0.018299
0.702405 0.017245 0.075013
0.705089 0.047955 0.081051
0.704510 0.079271 0.090799
0.701962 0.107303 0.103547
0.704300 0.143256 0.110314
0.701036 0.168774 0.120444
0.701102 0.201113 0.121731
0.701238 0.235427 0.116664
0.704215 0.265734 0.103205
0.702021 0.296669 0.095096
0.702005 0.325585 0.082806
0.705440 0.359032 0.064027
0.700924 0.391575 0.054858
0.705887 0.424265 0.040758
0.704131 0.451274 0.036016
0.701065 0.481350 0.034305
0.701034 0.513182 0.033554
0.702257 0.547257 0.034026
0.706024 0.576534 0.034154
0.700149 0.606438 0.041431
0.705539 0.643040 0.040950
0.705708 0.672171 0.042641
0.701079 0.703044 0.047145
0.705090 0.737104 0.042505
0.703644 0.765931 0.040848
0.702948 0.798458 0.036642
0.702077 0.826078 0.032702
0.703206 0.858628 0.026662
0.705176 0.893544 0.020309
0.700030 0.920634 0.018404
0.702841 0.955565 0.013625
0.705272 0.982815 0.010521
0.735837 0.017747 0.042955
0.733894 0.048178 0.051073
0.733787 0.078289 0.056864
0.734535 0.106822 0.061539
0.733773 0.142388 0.068986
0.732905 0.170674 0.073496
0.732406 0.204729 0.074647
0.735129 0.235283 0.068649
0.733296 0.263464 0.065872
0.732402 0.296595 0.058982
0.734582 0.326015 0.049145
0.737036 0.358807 0.038562
0.731445 0.388546 0.034613
0.734782 0.424909 0.025665
0.732127 0.452085 0.023027
0.733182 0.483465 0.020090
0.732268 0.514513 0.019511
0.733622 0.547759 0.019391
0.735014 0.575236 0.019942
0.733344 0.606739 0.022327
0.734650 0.640570 0.023537
0.733049 0.670329 0.025421
0.733996 0.704116 0.025323
0.733285 0.731260 0.025150
0.737329 0.763130 0.021805
0.733240 0.799722 0.020826
0.733433 0.826034 0.018434
0.737409 0.856978 0.014308
0.731512 0.893506 0.012478
0.736158 0.920127 0.009441
0.731884 0.951591 0.008167
0.733984 0.982769 0.006117
0.764266 0.015933 0.025173
0.768014 0.049073 0.027861
0.766690 0.078485 0.031843
0.767236 0.111887 0.034871
0.767834 0.142248 0.037444
0.763962 0.174989 0.042651
0.764133 0.202344 0.042855
0.764372 0.235910 0.041070
0.768699 0.267289 0.034915
0.765179 0.297760 0.033162
0.765399 0.325640 0.028846
0.763637 0.361646 0.023760
0.765646 0.393319 0.018273
0.768113 0.420570 0.014478
0.766432 0.456096 0.012157
0.765900 0.486442 0.010843
0.762843 0.513685 0.010901
0.768596 0.548533 0.009808
0.767937 0.575202 0.010372
0.765740 0.608596 0.011642
0.768560 0.638707 0.011785
0.763929 0.672481 0.013768
0.768103 0.703434 0.012825
0.763030 0.736106 0.013813
0.767319 0.766927 0.011806
0.762825 0.799272 0.011683
0.762948 0.831217 0.010121
0.764187 0.859374 0.008308
0.766796 0.892178 0.006206
0.768404 0.923061 0.004759
0.768199 0.951070 0.003875
0.767596 0.983018 0.003011
0.796762 0.018193 0.013431
0.798145 0.046246 0.015378
0.794803 0.080641 0.018989
0.795063 0.109677 0.020711
0.796080 0.139145 0.021808
0.798792 0.170224 0.021700
0.797868 0.202098 0.022346
0.797013 0.234081 0.022049
0.797543 0.266669 0.020270
0.793886 0.298870 0.019390
0.796108 0.328386 0.015967
0.799811 0.360914 0.011891
0.798708 0.392242 0.009707
0.796583 0.421292 0.008302
0.795276 0.454389 0.006982
0.795086 0.485382 0.006134
0.796294 0.514227 0.005589
0.795895 0.545634 0.005580
0.798053 0.580964 0.005583
0.798614 0.611889 0.005879
0.793885 0.643589 0.006997
0.794086 0.671312 0.007306
0.794772 0.704975 0.007303
0.793822 0.735013 0.007236
0.799509 0.763187 0.005984
0.797156 0.794206 0.005697
0.797228 0.827396 0.004946
0.796759 0.858693 0.004169
0.796304 0.890994 0.003335
0.799632 0.923119 0.002432
0.797435 0.950070 0.002077
0.795517 0.983671 0.001612
0.829661 0.016036 0.006582
0.828464 0.045429 0.008206
0.825732 0.076010 0.010084
0.827214 0.111302 0.011105
0.826661 0.138698 0.011956
0.827590 0.172801 0.012171
0.828310 0.200455 0.011993
0.827937 0.233618 0.011721
0.825618 0.265583 0.011573
0.825830 0.295102 0.010427
0.827739 0.327207 0.008437
0.831211 0.361826 0.006209
0.827187 0.390245 0.005548
0.830010 0.424889 0.004119
0.826883 0.453604 0.003682
0.828450 0.482145 0.003121
0.828166 0.515624 0.002852
0.829560 0.544266 0.002702
0.826357 0.576081 0.002994
0.827408 0.608591 0.003108
0.826652 0.638529 0.003342
0.830353 0.670284 0.003163
0.830584 0.704945 0.003164
0.831026 0.732817 0.003075
0.826776 0.765936 0.003185
0.829493 0.796971 0.002675
0.828041 0.827199 0.002410
0.830365 0.858826 0.001911
0.825128 0.893223 0.001713
0.830997 0.922304 0.001211
0.831237 0.952503 0.000954
0.828673 0.986290 0.000734
0.858801 0.012771 0.003344
0.859659 0.044563 0.004069
0.859842 0.081058 0.004799
0.860508 0.107545 0.005231
0.859774 0.142692 0.005863
0.858080 0.170663 0.006313
0.862362 0.206156 0.005698
0.859898 0.233330 0.005830
0.859510 0.263015 0.005537
0.861298 0.298010 0.004690
0.859967 0.326276 0.004180
0.857503 0.357275 0.003658
0.858005 0.388734 0.002928
0.861207 0.424199 0.002114
0.861183 0.450567 0.001787
0.857250 0.482794 0.001653
0.861009 0.515732 0.001355
0.858699 0.549175 0.001386
0.858329 0.578729 0.001432
0.861126 0.612417 0.001400
0.862215 0.642642 0.001405
0.861106 0.673040 0.001470
0.861512 0.703925 0.001467
0.861052 0.733729 0.001470
0.859908 0.765125 0.001436
0.861260 0.796736 0.001249
0.860567 0.830085 0.001087
0.859693 0.858092 0.000946
0.859919 0.890465 0.000761
0.861866 0.921433 0.000585
0.857874 0.952900 0.000508
0.856250 0.985363 0.000388
0.888074 0.016014 0.001750
0.891744 0.047923 0.001955
0.892158 0.079078 0.002221
0.893637 0.107998 0.002388
0.892392 0.137532 0.002682
0.888043 0.169120 0.003148
0.893292 0.201342 0.002804
0.892383 0.232835 0.002776
0.889291 0.267114 0.002757
0.889349 0.296707 0.002464
0.893187 0.330769 0.001896
0.893074 0.357817 0.001617
0.892203 0.391774 0.001309
0.890426 0.421712 0.001109
0.888805 0.453165 0.000942
0.893111 0.486469 0.000701
0.893492 0.518582 0.000616
0.893240 0.544679 0.000599
0.889143 0.577478 0.000670
0.892322 0.611066 0.000641
0.892348 0.640340 0.000663
0.890117 0.672727 0.000721
0.891544 0.704638 0.000704
0.892684 0.732951 0.000672
0.892376 0.763628 0.000639
0.888250 0.798673 0.000634
0.893699 0.825483 0.000490
0.890156 0.861507 0.000437
0.891460 0.893405 0.000343
0.890190 0.924662 0.000286
0.892491 0.952357 0.000219
0.889042 0.986429 0.000172
0.919010 0.013929 0.000822
0.919338 0.049134 0.001038
0.919022 0.080967 0.001213
0.923901 0.111681 0.001208
0.921950 0.142188 0.001355
0.924989 0.171359 0.001322
0.920073 0.202523 0.001507
0.919431 0.233513 0.001494
0.919355 0.263775 0.001395
0.921169 0.298897 0.001162
0.924370 0.331036 0.000912
0.923857 0.358855 0.000779
0.923859 0.392031 0.000621
0.921616 0.421344 0.000537
0.922454 0.453771 0.000425
0.922922 0.487421 0.000342
0.923369 0.512526 0.000306
0.922659 0.544564 0.000291
0.924351 0.579236 0.000278
0.920802 0.607730 0.000315
0.921572 0.641755 0.000325
0.920368 0.669662 0.000344
0.923149 0.703742 0.000323
0.923069 0.731711 0.000315
0.924248 0.763769 0.000283
0.920105 0.798329 0.000281
0.923660 0.830989 0.000222
0.923222 0.860878 0.000190
0.919970 0.888847 0.000174
0.918878 0.923995 0.000141
0.923505 0.951366 0.000102
0.921376 0.982942 0.000078
0.954230 0.017724 0.000366
0.950316 0.047643 0.000508
0.953961 0.077861 0.000555
0.950685 0.110783 0.000677
0.950109 0.140080 0.000733
0.953364 0.169389 0.000711
0.954002 0.202724 0.000710
0.950174 0.232765 0.000753
0.952062 0.266449 0.000661
0.952349 0.297154 0.000579
0.954805 0.325493 0.000480
0.954767 0.356552 0.000402
0.951154 0.390440 0.000344
0.955241 0.420865 0.000254
0.952302 0.455336 0.000212
0.954917 0.482991 0.000170
0.955096 0.516896 0.000146
0.955612 0.549190 0.000134
0.952580 0.576137 0.000142
0.953465 0.609568 0.000144
0.952194 0.642033 0.000155
0.956075 0.670221 0.000145
0.950880 0.701486 0.000165
0.955010 0.736389 0.000143
0.952506 0.767924 0.000140
0.953765 0.793992 0.000124
0.954720 0.828048 0.000104
0.956116 0.858470 0.000086
0.954562 0.888532 0.000075
0.955493 0.920690 0.000059
0.954235 0.950940 0.000048
0.951799 0.986917 0.000034
0.981389 0.016198 0.000193
0.987154 0.048933 0.000231
0.984801 0.076321 0.000289
0.981440 0.109888 0.000363
0.985260 0.138469 0.000364
0.981677 0.170672 0.000405
0.984839 0.202304 0.000379
0.982563 0.231469 0.000383
0.985981 0.262908 0.000328
0.982971 0.298566 0.000307
0.983589 0.326893 0.000268
0.983465 0.362295 0.000218
0.985139 0.391861 0.000171
0.983416 0.419715 0.000144
0.984475 0.453534 0.000110
0.985603 0.485556 0.000088
0.986298 0.515368 0.000076
0.985851 0.544761 0.000071
0.983299 0.575078 0.000073
0.984004 0.611284 0.000073
0.987082 0.641022 0.000070
0.984794 0.672348 0.000075
0.987424 0.704553 0.000071
0.981945 0.734443 0.000078
0.984028 0.765467 0.000070
0.984656 0.797407 0.000061
0.982178 0.829535 0.000056
0.984534 0.858407 0.000046
0.984924 0.887706 0.000038
0.986931 0.923485 0.000028
0.984425 0.952557 0.000023
0.984145 0.982266 0.000017
