x  y  phi
0.012500 0.013322 0.000000
0.017223 0.046617 0.000000
0.015830 0.076368 0.000000
0.012794 0.110493 0.000001
0.016746 0.143342 0.000002
0.014897 0.171996 0.000002
0.017694 0.200216 0.000002
0.012834 0.234561 0.000001
0.016695 0.262548 0.000001
0.014896 0.294168 0.000001
0.015109 0.329292 0.000000
0.016181 0.362065 0.000001
0.017789 0.390793 0.000004
0.013075 0.422837 0.000017
0.015100 0.454382 0.000082
0.018190 0.486014 0.000379
0.014140 0.512797 0.000811
0.017101 0.545801 0.002801
0.016454 0.579728 0.006416
0.018694 0.608533 0.011322
0.014044 0.643641 0.011776
0.017017 0.673458 0.015552
0.016572 0.700454 0.016116
0.016448 0.736779 0.015533
0.014204 0.765228 0.012351
0.017291 0.796736 0.010664
0.013986 0.826718 0.005218
0.014745 0.857291 0.002380
0.015541 0.893110 0.000732
0.018183 0.919129 0.000292
0.018154 0.953153 0.000057
0.015727 0.983244 0.000011
0.049917 0.015587 0.000000
0.045413 0.044317 0.000001
0.049674 0.075461 0.000003
0.046879 0.108651 0.000006
0.045482 0.143211 0.000011
0.047061 0.171653 0.000017
0.049631 0.200313 0.000021
0.048509 0.236064 0.000014
0.048924 0.263284 0.000009
0.043849 0.298053 0.000003
0.049177 0.328935 0.000003
0.048351 0.360784 0.000004
0.049997 0.393054 0.000020
0.045207 0.420665 0.000073
0.045944 0.453208 0.000409
0.047444 0.486537 0.001998
0.046326 0.517759 0.005646
0.045433 0.546346 0.011764
0.047108 0.577924 0.024416
0.045545 0.607365 0.034531
0.044711 0.641073 0.042025
0.048765 0.668957 0.052314
0.047090 0.703116 0.052390
0.049721 0.735927 0.055172
0.047216 0.768067 0.046265
0.047655 0.799013 0.036795
0.044749 0.826330 0.022138
0.048217 0.857065 0.013040
0.044319 0.889216 0.004142
0.043769 0.921339 0.001057
0.043918 0.954436 0.000186
0.049612 0.982749 0.000049
0.076131 0.014485 0.000002
0.080544 0.047825 0.000009
0.075940 0.079258 0.000018
0.077411 0.108673 0.000044
0.078123 0.138422 0.000092
0.078670 0.174035 0.000156
0.078688 0.205971 0.000157
0.078476 0.232176 0.000114
0.081146 0.265055 0.000071
0.075886 0.297281 0.000025
0.076576 0.328053 0.000014
0.077900 0.362257 0.000016
0.075788 0.388748 0.000046
0.076995 0.422683 0.000341
0.075792 0.454070 0.001814
0.078885 0.486269 0.008428
0.076549 0.515478 0.019194
0.077433 0.545020 0.037323
0.075177 0.580635 0.059556
0.077666 0.607138 0.933306
0.080922 0.640064 0.951680
0.075820 0.674285 0.948524
0.075576 0.701014 0.949108
0.075444 0.733533 0.948354
0.076582 0.763344 0.945647
0.079895 0.796596 0.936840
0.077185 0.827827 0.059695
0.080056 0.862073 0.036241
0.079073 0.888845 0.017408
0.079247 0.924431 0.004186
0.076563 0.955380 0.000713
0.077945 0.984412 0.000141
0.110002 0.017610 0.000017
0.110974 0.046639 0.000052
0.112196 0.078955 0.000168
0.108996 0.111404 0.000372
0.110556 0.141889 0.000917
0.112420 0.174715 0.001706
0.111570 0.201808 0.001653
0.109609 0.234465 0.000942
0.106896 0.265088 0.000390
0.109854 0.299229 0.000218
0.109000 0.329561 0.000108
0.111683 0.360723 0.000077
0.111255 0.391916 0.000200
0.110886 0.418869 0.000978
0.111788 0.453281 0.006578
0.109146 0.481657 0.019623
0.110709 0.515556 0.050966
0.110423 0.548013 0.937463
0.107497 0.580729 0.958477
0.111662 0.611813 0.977941
0.109650 0.638370 0.983201
0.109065 0.674934 0.985673
0.107597 0.702788 0.984878
0.108223 0.734467 0.984786
0.111759 0.765248 0.984569
0.109172 0.798792 0.972567
0.108532 0.826322 0.955398
0.112494 0.857210 0.930816
0.110191 0.891352 0.036515
0.106254 0.918755 0.012798
0.111083 0.954546 0.002801
0.108245 0.983861 0.000509
0.141766 0.016754 0.000092
0.138783 0.048978 0.000303
0.141931 0.080179 0.001130
0.138091 0.106761 0.002012
0.142275 0.141435 0.006112
0.138837 0.170085 0.007936
0.138007 0.202430 0.008021
0.143451 0.237172 0.006706
0.139937 0.264183 0.003164
0.141826 0.295525 0.001949
0.142355 0.329899 0.000965
0.140140 0.358013 0.000389
0.138712 0.387571 0.000427
0.138699 0.424895 0.003283
0.139025 0.455123 0.014610
0.138353 0.483738 0.040129
0.141256 0.513606 0.930819
0.142677 0.544736 0.968451
0.143675 0.576607 0.987658
0.138960 0.606885 0.992932
0.138871 0.641467 0.996488
0.141850 0.673717 0.997816
0.141852 0.704706 0.997892
0.141685 0.735209 0.997689
0.137853 0.766239 0.995930
0.138919 0.795742 0.992542
0.141874 0.825734 0.983970
0.142266 0.859538 0.957033
0.140962 0.891175 0.062956
0.139560 0.923144 0.026019
0.138394 0.951011 0.008783
0.140533 0.986626 0.001666
0.173833 0.015980 0.000522
0.173369 0.045725 0.001928
0.169596 0.078303 0.005076
0.170692 0.109926 0.012156
0.171988 0.140193 0.023129
0.170368 0.171064 0.031791
0.171206 0.202793 0.033711
0.171724 0.233674 0.025239
0.170496 0.262989 0.015748
0.171061 0.295337 0.010337
0.172949 0.329226 0.005792
0.171962 0.360804 0.002074
0.173255 0.393405 0.001693
0.171629 0.424626 0.007347
0.170760 0.452878 0.025042
0.171982 0.485383 0.066920
0.171261 0.516285 0.957514
0.174916 0.544690 0.985526
0.172938 0.577149 0.996257
0.172136 0.609518 0.998898
0.173933 0.637593 0.999561
0.170464 0.672769 0.999679
0.172163 0.705737 0.999735
0.170416 0.737313 0.999646
0.170292 0.767775 0.999372
0.173088 0.796598 0.998493
0.173857 0.825138 0.994747
0.169755 0.860668 0.975509
0.173174 0.890229 0.947447
0.172390 0.923448 0.051797
0.174947 0.954348 0.021522
0.170497 0.985962 0.004646
0.201070 0.012527 0.001821
0.203098 0.044249 0.007542
0.201019 0.080646 0.021454
0.204894 0.110917 0.043932
0.202728 0.137540 0.058209
0.203655 0.171990 0.930954
0.200418 0.203400 0.926097
0.202436 0.232599 0.064890
0.202411 0.266418 0.049669
0.204119 0.298183 0.038258
0.203367 0.326752 0.022720
0.205100 0.358574 0.009928
0.204288 0.389439 0.004200
0.200058 0.419399 0.009130
0.203256 0.454849 0.040242
0.201379 0.481595 0.928428
0.200441 0.513502 0.970411
0.204524 0.545606 0.993079
0.200316 0.577986 0.998639
0.202857 0.609500 0.999759
0.202791 0.638439 0.999919
0.201787 0.673961 0.999958
0.204348 0.703611 0.999968
0.204257 0.733320 0.999959
0.200359 0.768668 0.999874
0.203390 0.793760 0.999669
0.205351 0.825183 0.998394
0.202360 0.859310 0.990704
0.203601 0.892118 0.968958
0.204246 0.922102 0.932073
0.200222 0.950766 0.037573
0.206083 0.982427 0.011081
0.233446 0.016338 0.009030
0.235048 0.044537 0.024517
0.234705 0.080963 0.057128
0.233481 0.111488 0.934504
0.237339 0.139119 0.959117
0.232822 0.171402 0.969701
0.236332 0.205612 0.973640
0.232779 0.236004 0.959570
0.235593 0.265324 0.951602
0.232898 0.297909 0.927636
0.231979 0.326310 0.051700
0.231960 0.359669 0.023721
0.231288 0.388600 0.010024
0.234996 0.421449 0.014108
0.231766 0.454296 0.046228
0.233596 0.486476 0.949874
0.232023 0.518583 0.984759
0.231435 0.544252 0.995865
0.234339 0.579809 0.999546
0.237088 0.607813 0.999920
0.233498 0.642307 0.999984
0.234375 0.673433 0.999994
0.235449 0.704260 0.999995
0.235980 0.731477 0.999994
0.232691 0.763885 0.999977
0.234766 0.797829 0.999887
0.235104 0.827322 0.999415
0.232655 0.857711 0.996488
0.235331 0.888537 0.984412
0.235901 0.919748 0.951216
0.231548 0.954137 0.043766
0.232031 0.987182 0.010916
0.265526 0.016382 0.026487
0.268213 0.043862 0.055689
0.266210 0.079512 0.947717
0.265604 0.106586 0.969069
0.265260 0.140745 0.985443
0.267325 0.169158 0.992805
0.265267 0.206107 0.992769
0.265423 0.233307 0.989777
0.265287 0.267145 0.982960
0.263783 0.294821 0.968912
0.264828 0.330873 0.936421
0.268530 0.357843 0.057534
0.262940 0.388274 0.023962
0.265790 0.419751 0.018485
0.265736 0.450657 0.045161
0.267760 0.483554 0.950266
0.265149 0.514545 0.985453
0.266960 0.547355 0.997801
0.267949 0.579739 0.999748
0.267729 0.610624 0.999965
0.264932 0.643345 0.999995
0.266285 0.671013 0.999999
0.265872 0.702844 0.999999
0.265011 0.732753 0.999998
0.263019 0.765135 0.999992
0.265452 0.795561 0.999958
0.263156 0.826352 0.999723
0.267513 0.859546 0.997735
0.266680 0.892898 0.985079
0.264023 0.923197 0.951771
0.264148 0.952393 0.050443
0.263006 0.984124 0.014241
0.295205 0.017471 0.054187
0.296821 0.043770 0.952528
0.295413 0.079154 0.974697
0.296407 0.107418 0.989594
0.299772 0.138338 0.996916
0.298724 0.174663 0.998862
0.294820 0.203788 0.998722
0.294149 0.233422 0.997952
0.295578 0.265685 0.996053
0.298911 0.298965 0.989238
0.298290 0.327059 0.971183
0.298763 0.360199 0.933214
0.294033 0.387759 0.044674
0.294708 0.423544 0.026930
0.294136 0.453246 0.052063
0.299557 0.482628 0.950290
0.295029 0.513056 0.985156
0.298123 0.548165 0.998112
0.296841 0.576636 0.999732
0.298197 0.608615 0.999967
0.295004 0.638954 0.999995
0.296476 0.671684 0.999999
0.299132 0.706108 1.000000
0.296528 0.731464 0.999999
0.297024 0.762698 0.999996
0.298457 0.797447 0.999965
0.298893 0.827060 0.999768
0.295200 0.859603 0.997905
0.296441 0.890022 0.987498
0.299921 0.924793 0.950070
0.299066 0.955422 0.046902
0.295698 0.982177 0.016237
0.331235 0.016497 0.981443
0.327925 0.049574 0.983164
0.329317 0.080096 0.992795
0.328385 0.109830 0.997651
0.325995 0.143408 0.999368
0.330133 0.169721 0.999800
0.325257 0.202148 0.999814
0.325688 0.231853 0.999717
0.328242 0.262640 0.999320
0.328509 0.299105 0.996118
0.328231 0.329216 0.984711
0.329607 0.360615 0.956693
0.325142 0.388700 0.066098
0.329194 0.420912 0.039714
0.325414 0.450879 0.052988
0.330757 0.482635 0.951580
0.327376 0.516163 0.987451
0.326046 0.543915 0.997461
0.329320 0.579765 0.999759
0.329461 0.606733 0.999956
0.328686 0.643284 0.999995
0.330811 0.671440 0.999999
0.328162 0.705195 0.999999
0.330745 0.735010 0.999998
0.329524 0.765746 0.999992
0.328068 0.794759 0.999960
0.331101 0.828590 0.999676
0.326708 0.859571 0.997705
0.329366 0.891669 0.985616
0.325609 0.922180 0.952630
0.328817 0.954175 0.047763
0.328095 0.984822 0.013811
0.359931 0.015258 0.995076
0.357195 0.046889 0.995430
0.360821 0.075198 0.998202
0.356573 0.109513 0.999438
0.358254 0.137719 0.999856
0.357782 0.169420 0.999955
0.358644 0.203449 0.999973
0.359982 0.235069 0.999949
0.362095 0.267325 0.999792
0.359457 0.296792 0.998781
0.360313 0.329356 0.993115
0.358797 0.359293 0.974537
0.359249 0.391940 0.935631
0.359589 0.420479 0.052206
0.360035 0.451751 0.056728
0.360646 0.484566 0.950480
0.362114 0.513971 0.982567
0.358834 0.547484 0.997066
0.361144 0.580752 0.999595
0.360509 0.611382 0.999932
0.359546 0.638939 0.999982
0.357148 0.674372 0.999995
0.357821 0.704072 0.999996
0.356280 0.737100 0.999994
0.357971 0.767867 0.999977
0.357993 0.799703 0.999880
0.359418 0.825768 0.999457
0.358853 0.860640 0.996166
0.358978 0.888173 0.984847
0.361039 0.919374 0.951653
0.359008 0.952154 0.047112
0.358107 0.985985 0.011767
0.389616 0.014567 0.998516
0.387848 0.047332 0.998875
0.390533 0.076266 0.999511
0.388215 0.112340 0.999882
0.392904 0.140574 0.999969
0.389796 0.173781 0.999991
0.388514 0.200997 0.999994
0.387861 0.232183 0.999984
0.390426 0.264879 0.999918
0.393023 0.296401 0.999504
0.390077 0.329071 0.996393
0.389427 0.356626 0.985038
0.392590 0.393110 0.944721
0.393247 0.424383 0.054617
0.392313 0.451067 0.050851
0.391078 0.481446 0.931697
0.392520 0.515764 0.973749
0.392885 0.545482 0.992695
0.392934 0.578668 0.998760
0.389932 0.611324 0.999782
0.390785 0.643374 0.999927
0.390125 0.672374 0.999962
0.392182 0.705505 0.999964
0.389613 0.732435 0.999962
0.392145 0.766993 0.999895
0.392995 0.794205 0.999633
0.391938 0.830494 0.997593
0.389746 0.856812 0.992080
0.388506 0.890105 0.972341
0.388103 0.922967 0.934146
0.391016 0.955082 0.033587
0.392989 0.986059 0.008635
0.422720 0.018103 0.994478
0.424240 0.046790 0.996009
0.419457 0.077359 0.998884
0.421141 0.110547 0.999774
0.419511 0.137980 0.999950
0.419646 0.171735 0.999988
0.423179 0.201488 0.999991
0.421194 0.237349 0.999978
0.422680 0.266757 0.999904
0.424429 0.296015 0.999473
0.424120 0.329964 0.996092
0.421430 0.356709 0.984971
0.421866 0.390524 0.947237
0.421567 0.421873 0.052567
0.423380 0.455830 0.039041
0.420626 0.482164 0.064809
0.419438 0.513002 0.955474
0.424828 0.546301 0.984244
0.420240 0.581020 0.996761
0.423959 0.607488 0.998507
0.419559 0.638727 0.999547
0.420869 0.672348 0.999733
0.421502 0.703660 0.999754
0.421455 0.733551 0.999717
0.421139 0.766251 0.999508
0.421434 0.794680 0.998620
0.422939 0.831221 0.992366
0.423113 0.858767 0.976877
0.424058 0.892622 0.939479
0.423709 0.921089 0.052184
0.418810 0.952999 0.022673
0.422744 0.985291 0.004950
0.454031 0.017494 0.980735
0.452359 0.045985 0.987353
0.452434 0.077089 0.995553
0.454335 0.107156 0.998944
0.451822 0.141668 0.999846
0.455340 0.170717 0.999934
0.450901 0.203764 0.999960
0.450035 0.237005 0.999926
0.452387 0.265728 0.999753
0.452153 0.295401 0.998895
0.451819 0.330210 0.992988
0.450777 0.360216 0.974594
0.450304 0.390363 0.936943
0.452355 0.419724 0.042468
0.454724 0.454162 0.022910
0.450072 0.486218 0.047679
0.453506 0.514304 0.930576
0.452597 0.545754 0.966658
0.453216 0.579495 0.985659
0.455263 0.607699 0.992153
0.452906 0.639833 0.996643
0.450313 0.669212 0.998043
0.451265 0.703539 0.998104
0.455197 0.733891 0.997330
0.455247 0.764332 0.996431
0.451132 0.795985 0.994013
0.455838 0.828684 0.980212
0.452307 0.859144 0.955495
0.453924 0.893403 0.059919
0.452536 0.919066 0.031285
0.452780 0.953725 0.008795
0.454677 0.986651 0.001631
0.482069 0.013154 0.062375
0.485408 0.048959 0.971367
0.484883 0.079116 0.988651
0.487388 0.106368 0.996130
0.487009 0.138717 0.999063
0.487298 0.172019 0.999574
0.482992 0.204499 0.999706
0.484940 0.236482 0.999467
0.486467 0.266624 0.998571
0.485815 0.297769 0.995507
0.483435 0.328343 0.985510
0.485401 0.358271 0.957622
0.486682 0.390265 0.058590
0.486987 0.420479 0.023636
0.487198 0.450733 0.010593
0.483850 0.486477 0.024342
0.487266 0.514581 0.046178
0.484539 0.547100 0.930269
0.486363 0.580812 0.955211
0.485393 0.607770 0.971978
0.487134 0.641230 0.980788
0.482038 0.670294 0.987440
0.486792 0.701226 0.984775
0.482268 0.736475 0.987194
0.485015 0.766395 0.982953
0.486492 0.797948 0.972736
0.483697 0.830446 0.954609
0.485421 0.856973 0.925245
0.481250 0.891725 0.039783
0.485180 0.921591 0.012911
0.484840 0.950202 0.003494
0.483446 0.986594 0.000513
0.514818 0.016634 0.044663
0.516103 0.044125 0.945178
0.517153 0.076747 0.970589
0.515266 0.107353 0.989203
0.513074 0.143108 0.996687
0.518703 0.172463 0.996841
0.512706 0.204318 0.997934
0.515545 0.234808 0.996728
0.518098 0.265216 0.992737
0.516804 0.295020 0.985265
0.515511 0.326703 0.967741
0.518419 0.357777 0.931111
0.518458 0.390481 0.037380
0.513294 0.424759 0.011407
0.517857 0.451359 0.004051
0.512544 0.486140 0.009855
0.512815 0.518500 0.025101
0.516509 0.547334 0.039994
0.513357 0.575807 0.065283
0.517654 0.609387 0.930949
0.516599 0.640657 0.944048
0.515790 0.669490 0.949411
0.518144 0.704181 0.947190
0.514235 0.733667 0.952312
0.514947 0.767694 0.947894
0.514019 0.794522 0.940221
0.517052 0.829050 0.059736
0.513758 0.861554 0.039154
0.512641 0.888160 0.020820
0.513675 0.921006 0.005638
0.517373 0.954495 0.000838
0.516665 0.984881 0.000147
0.545945 0.013482 0.021927
0.545576 0.044807 0.053336
0.545148 0.079196 0.946577
0.546280 0.111791 0.971434
0.547371 0.139637 0.981264
0.546483 0.173123 0.985388
0.548964 0.204950 0.983972
0.549057 0.233014 0.981866
0.545404 0.263562 0.976692
0.547085 0.294207 0.958492
0.549992 0.329689 0.926321
0.544514 0.357279 0.055496
0.546407 0.392333 0.020391
0.545085 0.421462 0.006065
0.543957 0.455808 0.001468
0.544413 0.482914 0.002192
0.546763 0.517455 0.006139
0.545360 0.545087 0.013500
0.545515 0.577379 0.026286
0.545051 0.612053 0.042754
0.548525 0.641354 0.045185
0.547349 0.670977 0.048267
0.549424 0.701237 0.044663
0.544463 0.736195 0.051391
0.548114 0.762614 0.044087
0.548425 0.794466 0.036118
0.549344 0.829091 0.021250
0.545912 0.858640 0.013237
0.545094 0.889571 0.005757
0.543861 0.924465 0.001429
0.548659 0.952459 0.000255
0.548312 0.986447 0.000038
0.580486 0.013310 0.007213
0.577146 0.049638 0.027736
0.577264 0.077200 0.051766
0.575504 0.109824 0.935702
0.579852 0.142776 0.943927
0.578083 0.173858 0.949813
0.579017 0.202721 0.948905
0.577202 0.233432 0.948633
0.576760 0.268244 0.934829
0.578913 0.298404 0.061015
0.575985 0.329853 0.043168
0.576575 0.360075 0.023290
0.580341 0.389466 0.008069
0.578803 0.419537 0.002188
0.577335 0.450833 0.000460
0.576637 0.482038 0.000382
0.576268 0.517191 0.001217
0.575443 0.546618 0.003153
0.581020 0.576467 0.005130
0.576234 0.610525 0.011909
0.575508 0.642839 0.015374
0.575954 0.669501 0.015535
0.580057 0.705901 0.012434
0.575285 0.731627 0.015343
0.580186 0.763382 0.011133
0.580007 0.795172 0.008821
0.577495 0.828745 0.005605
0.579095 0.856586 0.002510
0.581165 0.892577 0.000713
0.577585 0.918949 0.000310
0.575675 0.956090 0.000057
0.580419 0.985444 0.000010
0.611465 0.013989 0.001864
0.610731 0.047436 0.007562
0.607641 0.076424 0.020339
0.606260 0.109049 0.038485
0.608811 0.143331 0.046618
0.606390 0.171959 0.054167
0.608603 0.205372 0.050866
0.611212 0.235059 0.043078
0.608324 0.266400 0.037905
0.610337 0.297777 0.023053
0.607869 0.325163 0.015310
0.612419 0.357548 0.005718
0.610265 0.391002 0.002001
0.608606 0.419504 0.000575
0.609057 0.450861 0.000114
0.609911 0.484641 0.000064
0.609273 0.518041 0.000163
0.606760 0.546016 0.000461
0.606880 0.576870 0.001088
0.611510 0.611956 0.001501
0.611425 0.643564 0.001892
0.611333 0.673737 0.001979
0.611499 0.702805 0.001922
0.610263 0.735587 0.001976
0.611348 0.765426 0.001656
0.607460 0.796260 0.001642
0.612067 0.827920 0.000671
0.608615 0.859485 0.000359
0.607673 0.893120 0.000131
0.612412 0.919606 0.000038
0.609116 0.954307 0.000011
0.607994 0.983808 0.000003
0.642125 0.012695 0.000346
0.639400 0.044954 0.001668
0.642582 0.076718 0.004107
0.641986 0.108804 0.008376
0.642407 0.142014 0.011428
0.641107 0.172706 0.013533
0.642491 0.200002 0.012608
0.641424 0.233415 0.011949
0.640449 0.265576 0.009568
0.640810 0.295741 0.005769
0.642862 0.325863 0.002535
0.639995 0.358668 0.001187
0.642790 0.387851 0.000359
0.640355 0.423535 0.000088
0.639328 0.456012 0.000022
0.643750 0.487494 0.000010
0.642135 0.514686 0.000020
0.642479 0.544994 0.000044
0.641255 0.578393 0.000106
0.639073 0.607510 0.000201
0.641098 0.640711 0.000228
0.642173 0.672550 0.000226
0.643685 0.704990 0.000201
0.640967 0.732167 0.000232
0.638169 0.765774 0.000249
0.639039 0.797323 0.000177
0.639590 0.829242 0.000099
0.637934 0.861529 0.000051
0.642977 0.889575 0.000017
0.638409 0.923400 0.000007
0.641637 0.952517 0.000002
0.641156 0.984722 0.000000
0.671838 0.016341 0.000077
0.674530 0.047587 0.000225
0.670352 0.075248 0.000724
0.672629 0.108397 0.001285
0.668901 0.138571 0.002321
0.672567 0.171399 0.002084
0.672303 0.204565 0.002097
0.671087 0.233535 0.002025
0.671102 0.263041 0.001561
0.672394 0.296364 0.000822
0.669443 0.327033 0.000465
0.673032 0.359775 0.000140
0.674199 0.390824 0.000047
0.674841 0.419127 0.000016
0.671721 0.450688 0.000005
0.674951 0.484684 0.000002
0.673117 0.513295 0.000003
0.671719 0.544121 0.000007
0.671532 0.580737 0.000014
0.671497 0.611616 0.000022
0.674982 0.640933 0.000021
0.669527 0.674040 0.000034
0.669939 0.704152 0.000033
0.672852 0.737332 0.000026
0.671610 0.763496 0.000025
0.669620 0.795521 0.000022
0.674831 0.828737 0.000010
0.674076 0.856643 0.000006
0.674535 0.893434 0.000002
0.671667 0.920514 0.000001
0.671627 0.952693 0.000000
0.674163 0.982491 0.000000
0.702405 0.017245 0.000014
0.705089 0.047955 0.000033
0.704510 0.079271 0.000078
0.701962 0.107303 0.000160
0.704300 0.143256 0.000199
0.701036 0.168774 0.000280
0.701102 0.201113 0.000280
0.701238 0.235427 0.000242
0.704215 0.265734 0.000149
0.702021 0.296669 0.000108
0.702005 0.325585 0.000057
0.705440 0.359032 0.000019
0.700924 0.391575 0.000009
0.705887 0.424265 0.000002
0.704131 0.451274 0.000001
0.701065 0.481350 0.000000
0.701034 0.513182 0.000000
0.702257 0.547257 0.000001
0.706024 0.576534 0.000001
0.700149 0.606438 0.000003
0.705539 0.643040 0.000003
0.705708 0.672171 0.000003
0.701079 0.703044 0.000004
0.705090 0.737104 0.000003
0.703644 0.765931 0.000003
0.702948 0.798458 0.000002
0.702077 0.826078 0.000002
0.703206 0.858628 0.000001
0.705176 0.893544 0.000000
0.700030 0.920634 0.000000
0.702841 0.955565 0.000000
0.705272 0.982815 0.000000
0.735837 0.017747 0.000002
0.733894 0.048178 0.000005
0.733787 0.078289 0.000011
0.734535 0.106822 0.000017
0.733773 0.142388 0.000026
0.732905 0.170674 0.000031
0.732406 0.204729 0.000032
0.735129 0.235283 0.000024
0.733296 0.263464 0.000021
0.732402 0.296595 0.000014
0.734582 0.326015 0.000007
0.737036 0.358807 0.000003
0.731445 0.388546 0.000002
0.734782 0.424909 0.000000
0.732127 0.452085 0.000000
0.733182 0.483465 0.000000
0.732268 0.514513 0.000000
0.733622 0.547759 0.000000
0.735014 0.575236 0.000000
0.733344 0.606739 0.000000
0.734650 0.640570 0.000000
0.733049 0.670329 0.000000
0.733996 0.704116 0.000000
0.733285 0.731260 0.000000
0.737329 0.763130 0.000000
0.733240 0.799722 0.000000
0.733433 0.826034 0.000000
0.737409 0.856978 0.000000
0.731512 0.893506 0.000000
0.736158 0.920127 0.000000
0.731884 0.951591 0.000000
0.733984 0.982769 0.000000
0.764266 0.015933 0.000000
0.768014 0.049073 0.000001
0.766690 0.078485 0.000001
0.767236 0.111887 0.000002
0.767834 0.142248 0.000003
0.763962 0.174989 0.000004
0.764133 0.202344 0.000004
0.764372 0.235910 0.000003
0.768699 0.267289 0.000002
0.765179 0.297760 0.000002
0.765399 0.325640 0.000001
0.763637 0.361646 0.000000
0.765646 0.393319 0.000000
0.768113 0.420570 0.000000
0.766432 0.456096 0.000000
0.765900 0.486442 0.000000
0.762843 0.513685 0.000000
0.768596 0.548533 0.000000
0.767937 0.575202 0.000000
0.765740 0.608596 0.000000
0.768560 0.638707 0.000000
0.763929 0.672481 0.000000
0.768103 0.703434 0.000000
0.763030 0.736106 0.000000
0.767319 0.766927 0.000000
0.762825 0.799272 0.000000
0.762948 0.831217 0.000000
0.764187 0.859374 0.000000
0.766796 0.892178 0.000000
0.768404 0.923061 0.000000
0.768199 0.951070 0.000000
0.767596 0.983018 0.000000
0.796762 0.018193 0.000000
0.798145 0.046246 0.000000
0.794803 0.080641 0.000000
0.795063 0.109677 0.000000
0.796080 0.139145 0.000000
0.798792 0.170224 0.000000
0.797868 0.202098 0.000000
0.797013 0.234081 0.000000
0.797543 0.266669 0.000000
0.793886 0.298870 0.000000
0.796108 0.328386 0.000000
0.799811 0.360914 0.000000
0.798708 0.392242 0.000000
0.796583 0.421292 0.000000
0.795276 0.454389 0.000000
0.795086 0.485382 0.000000
0.796294 0.514227 0.000000
0.795895 0.545634 0.000000
0.798053 0.580964 0.000000
0.798614 0.611889 0.000000
0.793885 0.643589 0.000000
0.794086 0.671312 0.000000
0.794772 0.704975 0.000000
0.793822 0.735013 0.000000
0.799509 0.763187 0.000000
0.797156 0.794206 0.000000
0.797228 0.827396 0.000000
0.796759 0.858693 0.000000
0.796304 0.890994 0.000000
0.799632 0.923119 0.000000
0.797435 0.950070 0.000000
0.795517 0.983671 0.000000
0.829661 0.016036 0.000000
0.828464 0.045429 0.000000
0.825732 0.076010 0.000000
0.827214 0.111302 0.000000
0.826661 0.138698 0.000000
0.827590 0.172801 0.000000
0.828310 0.200455 0.000000
0.827937 0.233618 0.000000
0.825618 0.265583 0.000000
0.825830 0.295102 0.000000
0.827739 0.327207 0.000000
0.831211 0.361826 0.000000
0.827187 0.390245 0.000000
0.830010 0.424889 0.000000
0.826883 0.453604 0.000000
0.828450 0.482145 0.000000
0.828166 0.515624 0.000000
0.829560 0.544266 0.000000
0.826357 0.576081 0.000000
0.827408 0.608591 0.000000
0.826652 0.638529 0.000000
0.830353 0.670284 0.000000
0.830584 0.704945 0.000000
0.831026 0.732817 0.000000
0.826776 0.765936 0.000000
0.829493 0.796971 0.000000
0.828041 0.827199 0.000000
0.830365 0.858826 0.000000
0.825128 0.893223 0.000000
0.830997 0.922304 0.000000
0.831237 0.952503 0.000000
0.828673 0.986290 0.000000
0.858801 0.012771 0.000000
0.859659 0.044563 0.000000
0.859842 0.081058 0.000000
0.860508 0.107545 0.000000
0.859774 0.142692 0.000000
0.858080 0.170663 0.000000
0.862362 0.206156 0.000000
0.859898 0.233330 0.000000
0.859510 0.263015 0.000000
0.861298 0.298010 0.000000
0.859967 0.326276 0.000000
0.857503 0.357275 0.000000
0.858005 0.388734 0.000000
0.861207 0.424199 0.000000
0.861183 0.450567 0.000000
0.857250 0.482794 0.000000
0.861009 0.515732 0.000000
0.858699 0.549175 0.000000
0.858329 0.578729 0.000000
0.861126 0.612417 0.000000
0.862215 0.642642 0.000000
0.861106 0.673040 0.000000
0.861512 0.703925 0.000000
0.861052 0.733729 0.000000
0.859908 0.765125 0.000000
0.861260 0.796736 0.000000
0.860567 0.830085 0.000000
0.859693 0.858092 0.000000
0.859919 0.890465 0.000000
0.861866 0.921433 0.000000
0.857874 0.952900 0.000000
0.856250 0.985363 0.000000
0.888074 0.016014 0.000000
0.891744 0.047923 0.000000
0.892158 0.079078 0.000000
0.893637 0.107998 0.000000
0.892392 0.137532 0.000000
0.888043 0.169120 0.000000
0.893292 0.201342 0.000000
0.892383 0.232835 0.000000
0.889291 0.267114 0.000000
0.889349 0.296707 0.000000
0.893187 0.330769 0.000000
0.893074 0.357817 0.000000
0.892203 0.391774 0.000000
0.890426 0.421712 0.000000
0.888805 0.453165 0.000000
0.893111 0.486469 0.000000
0.893492 0.518582 0.000000
0.893240 0.544679 0.000000
0.889143 0.577478 0.000000
0.892322 0.611066 0.000000
0.892348 0.640340 0.000000
0.890117 0.672727 0.000000
0.891544 0.704638 0.000000
0.892684 0.732951 0.000000
0.892376 0.763628 0.000000
0.888250 0.798673 0.000000
0.893699 0.825483 0.000000
0.890156 0.861507 0.000000
0.891460 0.893405 0.000000
0.890190 0.924662 0.000000
0.892491 0.952357 0.000000
0.889042 0.986429 0.000000
0.919010 0.013929 0.000000
0.919338 0.049134 0.000000
0.919022 0.080967 0.000000
0.923901 0.111681 0.000000
0.921950 0.142188 0.000000
0.924989 0.171359 0.000000
0.920073 0.202523 0.000000
0.919431 0.233513 0.000000
0.919355 0.263775 0.000000
0.921169 0.298897 0.000000
0.924370 0.331036 0.000000
0.923857 0.358855 0.000000
0.923859 0.392031 0.000000
0.921616 0.421344 0.000000
0.922454 0.453771 0.000000
0.922922 0.487421 0.000000
0.923369 0.512526 0.000000
0.922659 0.544564 0.000000
0.924351 0.579236 0.000000
0.920802 0.607730 0.000000
0.921572 0.641755 0.000000
0.920368 0.669662 0.000000
0.923149 0.703742 0.000000
0.923069 0.731711 0.000000
0.924248 0.763769 0.000000
0.920105 0.798329 0.000000
0.923660 0.830989 0.000000
0.923222 0.860878 0.000000
0.919970 0.888847 0.000000
0.918878 0.923995 0.000000
0.923505 0.951366 0.000000
0.921376 0.982942 0.000000
0.954230 0.017724 0.000000
0.950316 0.047643 0.000000
0.953961 0.077861 0.000000
0.950685 0.110783 0.000000
0.950109 0.140080 0.000000
0.953364 0.169389 0.000000
0.954002 0.202724 0.000000
0.950174 0.232765 0.000000
0.952062 0.266449 0.000000
0.952349 0.297154 0.000000
0.954805 0.325493 0.000000
0.954767 0.356552 0.000000
0.951154 0.390440 0.000000
0.955241 0.420865 0.000000
0.952302 0.455336 0.000000
0.954917 0.482991 0.000000
0.955096 0.516896 0.000000
0.955612 0.549190 0.000000
0.952580 0.576137 0.000000
0.953465 0.609568 0.000000
0.952194 0.642033 0.000000
0.956075 0.670221 0.000000
0.950880 0.701486 0.000000
0.955010 0.736389 0.000000
0.952506 0.767924 0.000000
0.953765 0.793992 0.000000
0.954720 0.828048 0.000000
0.956116 0.858470 0.000000
0.954562 0.888532 0.000000
0.955493 0.920690 0.000000
0.954235 0.950940 0.000000
0.951799 0.986917 0.000000
0.981389 0.016198 0.000000
0.987154 0.048933 0.000000
0.984801 0.076321 0.000000
0.981440 0.109888 0.000000
0.985260 0.138469 0.000000
0.981677 0.170672 0.000000
0.984839 0.202304 0.000000
0.982563 0.231469 0.000000
0.985981 0.262908 0.000000
0.982971 0.298566 0.000000
0.983589 0.326893 0.000000
0.983465 0.362295 0.000000
0.985139 0.391861 0.000000
0.983416 0.419715 0.000000
0.984475 0.453534 0.000000
0.985603 0.485556 0.000000
0.986298 0.515368 0.000000
0.985851 0.544761 0.000000
0.983299 0.575078 0.000000
0.984004 0.611284 0.000000
0.987082 0.641022 0.000000
0.984794 0.672348 0.000000
0.987424 0.704553 0.000000
0.981945 0.734443 0.000000
0.984028 0.765467 0.000000
0.984656 0.797407 0.000000
0.982178 0.829535 0.000000
0.984534 0.858407 0.000000
0.984924 0.887706 0.000000
0.986931 0.923485 0.000000
0.984425 0.952557 0.000000
0.984145 0.982266 0.000000
