x  y  phi
0.012500 0.013322 0.000843
0.017223 0.046617 0.001650
0.015830 0.076368 0.002277
0.012794 0.110493 0.002912
0.016746 0.143342 0.004103
0.014897 0.171996 0.004407
0.017694 0.200216 0.004958
0.012834 0.234561 0.004027
0.016695 0.262548 0.003956
0.014896 0.294168 0.003224
0.015109 0.329292 0.003268
0.016181 0.362065 0.004728
0.017789 0.390793 0.008120
0.013075 0.422837 0.014346
0.015100 0.454382 0.028529
0.018190 0.486014 0.053595
0.014140 0.512797 0.075521
0.017101 0.545801 0.123409
0.016454 0.579728 0.174865
0.018694 0.608533 0.223260
0.014044 0.643641 0.245051
0.017017 0.673458 0.279324
0.016572 0.700454 0.286307
0.016448 0.736779 0.276616
0.014204 0.765228 0.244807
0.017291 0.796736 0.217553
0.013986 0.826718 0.161673
0.014745 0.857291 0.115341
0.015541 0.893110 0.068797
0.018183 0.919129 0.046530
0.018154 0.953153 0.025259
0.015727 0.983244 0.013451
0.049917 0.015587 0.002589
0.045413 0.044317 0.003513
0.049674 0.075461 0.005792
0.046879 0.108651 0.007446
0.045482 0.143211 0.009096
0.047061 0.171653 0.010748
0.049631 0.200313 0.012067
0.048509 0.236064 0.010839
0.048924 0.263284 0.009554
0.043849 0.298053 0.006811
0.049177 0.328935 0.007336
0.048351 0.360784 0.008934
0.049997 0.393054 0.015173
0.045207 0.420665 0.024192
0.045944 0.453208 0.047389
0.047444 0.486537 0.087414
0.046326 0.517759 0.135580
0.045433 0.546346 0.191277
0.047108 0.577924 0.269290
0.045545 0.607365 0.324164
0.044711 0.641073 0.371954
0.048765 0.668957 0.420173
0.047090 0.703116 0.427475
0.049721 0.735927 0.430653
0.047216 0.768067 0.383294
0.047655 0.799013 0.330935
0.044749 0.826330 0.258903
0.048217 0.857065 0.197194
0.044319 0.889216 0.118361
0.043769 0.921339 0.068626
0.043918 0.954436 0.038212
0.049612 0.982749 0.025307
0.076131 0.014485 0.005321
0.080544 0.047825 0.009815
0.075940 0.079258 0.012600
0.077411 0.108673 0.017590
0.078123 0.138422 0.022491
0.078670 0.174035 0.026692
0.078688 0.205971 0.027074
0.078476 0.232176 0.025133
0.081146 0.265055 0.022910
0.075886 0.297281 0.016036
0.076576 0.328053 0.014262
0.077900 0.362257 0.016572
0.075788 0.388748 0.022414
0.076995 0.422683 0.043674
0.075792 0.454070 0.079658
0.078885 0.486269 0.145024
0.076549 0.515478 0.211486
0.077433 0.545020 0.303476
0.075177 0.580635 0.403969
0.077666 0.607138 0.523116
0.080922 0.640064 0.601953
0.075820 0.674285 0.603403
0.075576 0.701014 0.610301
0.075444 0.733533 0.602286
0.076582 0.763344 0.580004
0.079895 0.796596 0.536359
0.077185 0.827827 0.401132
0.080056 0.862073 0.299077
0.079073 0.888845 0.207306
0.079247 0.924431 0.116911
0.076563 0.955380 0.064918
0.077945 0.984412 0.039778
0.110002 0.017610 0.014112
0.110974 0.046639 0.021726
0.112196 0.078955 0.033013
0.108996 0.111404 0.042149
0.110556 0.141889 0.055184
0.112420 0.174715 0.066036
0.111570 0.201808 0.065478
0.109609 0.234465 0.057429
0.106896 0.265088 0.045801
0.109854 0.299229 0.038905
0.109000 0.329561 0.031512
0.111683 0.360723 0.032889
0.111255 0.391916 0.044005
0.110886 0.418869 0.070030
0.111788 0.453281 0.136158
0.109146 0.481657 0.212020
0.110709 0.515556 0.346219
0.110423 0.548013 0.516966
0.107497 0.580729 0.617313
0.111662 0.611813 0.714792
0.109650 0.638370 0.746986
0.109065 0.674934 0.771826
0.107597 0.702788 0.770686
0.108223 0.734467 0.766411
0.111759 0.765248 0.756035
0.109172 0.798792 0.684431
0.108532 0.826322 0.602127
0.112494 0.857210 0.499597
0.110191 0.891352 0.304567
0.106254 0.918755 0.191685
0.111083 0.954546 0.113107
0.108245 0.983861 0.065688
0.141766 0.016754 0.030872
0.138783 0.048978 0.043868
0.141931 0.080179 0.068218
0.138091 0.106761 0.082176
0.142275 0.141435 0.118277
0.138837 0.170085 0.123929
0.138007 0.202430 0.125583
0.143451 0.237172 0.130223
0.139937 0.264183 0.104231
0.141826 0.295525 0.087556
0.142355 0.329899 0.068358
0.140140 0.358013 0.057845
0.138712 0.387571 0.064744
0.138699 0.424895 0.113674
0.139025 0.455123 0.195894
0.138353 0.483738 0.308942
0.141256 0.513606 0.498367
0.142677 0.544736 0.651585
0.143675 0.576607 0.765561
0.138960 0.606885 0.814391
0.138871 0.641467 0.856994
0.141850 0.673717 0.884334
0.141852 0.704706 0.888751
0.141685 0.735209 0.881196
0.137853 0.766239 0.848405
0.138919 0.795742 0.809015
0.141874 0.825734 0.745367
0.142266 0.859538 0.616187
0.140962 0.891175 0.422450
0.139560 0.923144 0.271632
0.138394 0.951011 0.174890
0.140533 0.986626 0.100716
0.173833 0.015980 0.063216
0.173369 0.045725 0.090803
0.169596 0.078303 0.123533
0.170692 0.109926 0.174430
0.171988 0.140193 0.222737
0.170368 0.171064 0.246576
0.171206 0.202793 0.258180
0.171724 0.233674 0.240590
0.170496 0.262989 0.203203
0.171061 0.295337 0.166708
0.172949 0.329226 0.132304
0.171962 0.360804 0.105409
0.173255 0.393405 0.113076
0.171629 0.424626 0.162573
0.170760 0.452878 0.256841
0.171982 0.485383 0.421061
0.171261 0.516285 0.616197
0.174916 0.544690 0.752839
0.172938 0.577149 0.845723
0.172136 0.609518 0.899560
0.173933 0.637593 0.928658
0.170464 0.672769 0.939655
0.172163 0.705737 0.944833
0.170416 0.737313 0.935625
0.170292 0.767775 0.918121
0.173088 0.796598 0.892420
0.173857 0.825138 0.840075
0.169755 0.860668 0.709683
0.173174 0.890229 0.583016
0.172390 0.923448 0.377369
0.174947 0.954348 0.253849
0.170497 0.985962 0.149237
0.201070 0.012527 0.106604
0.203098 0.044249 0.163712
0.201019 0.080646 0.238476
0.204894 0.110917 0.333466
0.202728 0.137540 0.378780
0.203655 0.171990 0.472350
0.200418 0.203400 0.460063
0.202436 0.232599 0.411465
0.202411 0.266418 0.357388
0.204119 0.298183 0.301894
0.203367 0.326752 0.235474
0.205100 0.358574 0.184385
0.204288 0.389439 0.164301
0.200058 0.419399 0.195417
0.203256 0.454849 0.333590
0.201379 0.481595 0.507688
0.200441 0.513502 0.678431
0.204524 0.545606 0.816315
0.200316 0.577986 0.892419
0.202857 0.609500 0.939870
0.202791 0.638439 0.960767
0.201787 0.673961 0.971450
0.204348 0.703611 0.974903
0.204257 0.733320 0.971005
0.200359 0.768668 0.954034
0.203390 0.793760 0.937836
0.205351 0.825183 0.896997
0.202360 0.859310 0.801678
0.203601 0.892118 0.666657
0.204246 0.922102 0.512776
0.200222 0.950766 0.327271
0.206083 0.982427 0.216244
0.233446 0.016338 0.210489
0.235048 0.044537 0.292282
0.234705 0.080963 0.409590
0.233481 0.111488 0.529281
0.237339 0.139119 0.617510
0.232822 0.171402 0.647415
0.236332 0.205612 0.677160
0.232779 0.236004 0.627277
0.235593 0.265324 0.589120
0.232898 0.297909 0.485889
0.231979 0.326310 0.358680
0.231960 0.359669 0.266547
0.231288 0.388600 0.224943
0.234996 0.421449 0.261231
0.231766 0.454296 0.379893
0.233596 0.486476 0.597958
0.232023 0.518583 0.758418
0.231435 0.544252 0.849289
0.234339 0.579809 0.929212
0.237088 0.607813 0.962180
0.233498 0.642307 0.979218
0.234375 0.673433 0.986324
0.235449 0.704260 0.988022
0.235980 0.731477 0.985956
0.232691 0.763885 0.976408
0.234766 0.797829 0.957671
0.235104 0.827322 0.923944
0.232655 0.857711 0.855682
0.235331 0.888537 0.747924
0.235901 0.919748 0.592647
0.231548 0.954137 0.367505
0.232031 0.987182 0.228881
0.265526 0.016382 0.355239
0.268213 0.043862 0.461717
0.266210 0.079512 0.609749
0.265604 0.106586 0.685148
0.265260 0.140745 0.758107
0.267325 0.169158 0.806019
0.265267 0.206107 0.809116
0.265423 0.233307 0.789569
0.265287 0.267145 0.734821
0.263783 0.294821 0.655972
0.264828 0.330873 0.532786
0.268530 0.357843 0.415613
0.262940 0.388274 0.315727
0.265790 0.419751 0.318630
0.265736 0.450657 0.411644
0.267760 0.483554 0.621742
0.265149 0.514545 0.775293
0.266960 0.547355 0.886108
0.267949 0.579739 0.945895
0.267729 0.610624 0.973806
0.264932 0.643345 0.986964
0.266285 0.671013 0.991968
0.265872 0.702844 0.993336
0.265011 0.732753 0.991503
0.263019 0.765135 0.984526
0.265452 0.795561 0.970637
0.263156 0.826352 0.940284
0.267513 0.859546 0.878296
0.266680 0.892898 0.762334
0.264023 0.923197 0.607435
0.264148 0.952393 0.410365
0.263006 0.984124 0.264028
0.295205 0.017471 0.522477
0.296821 0.043770 0.663828
0.295413 0.079154 0.745505
0.296407 0.107418 0.812728
0.299772 0.138338 0.871363
0.298724 0.174663 0.899322
0.294820 0.203788 0.894345
0.294149 0.233422 0.877807
0.295578 0.265685 0.842843
0.298911 0.298965 0.780737
0.298290 0.327059 0.687448
0.298763 0.360199 0.558258
0.294033 0.387759 0.414826
0.294708 0.423544 0.380645
0.294136 0.453246 0.457965
0.299557 0.482628 0.638390
0.295029 0.513056 0.782997
0.298123 0.548165 0.896761
0.296841 0.576636 0.946681
0.298197 0.608615 0.975256
0.295004 0.638954 0.987867
0.296476 0.671684 0.993539
0.299132 0.706108 0.994765
0.296528 0.731464 0.993410
0.297024 0.762698 0.988025
0.298457 0.797447 0.972906
0.298893 0.827060 0.944963
0.295200 0.859603 0.884652
0.296441 0.890022 0.784051
0.299921 0.924793 0.609490
0.299066 0.955422 0.406273
0.295698 0.982177 0.283402
0.331235 0.016497 0.810404
0.327925 0.049574 0.819694
0.329317 0.080096 0.865981
0.328385 0.109830 0.901436
0.325995 0.143408 0.928199
0.330133 0.169721 0.946600
0.325257 0.202148 0.944275
0.325688 0.231853 0.935524
0.328242 0.262640 0.913772
0.328509 0.299105 0.852688
0.328231 0.329216 0.767773
0.329607 0.360615 0.654083
0.325142 0.388700 0.500803
0.329194 0.420912 0.440940
0.325414 0.450879 0.478558
0.330757 0.482635 0.646837
0.327376 0.516163 0.795395
0.326046 0.543915 0.883719
0.329320 0.579765 0.947393
0.329461 0.606733 0.971427
0.328686 0.643284 0.986937
0.330811 0.671440 0.991546
0.328162 0.705195 0.993253
0.330745 0.735010 0.990986
0.329524 0.765746 0.984653
0.328068 0.794759 0.971341
0.331101 0.828590 0.936701
0.326708 0.859571 0.878016
0.329366 0.891669 0.767378
0.325609 0.922180 0.616018
0.328817 0.954175 0.403360
0.328095 0.984822 0.265036
0.359931 0.015258 0.903222
0.357195 0.046889 0.901855
0.360821 0.075198 0.924619
0.356573 0.109513 0.943041
0.358254 0.137719 0.959865
0.357782 0.169420 0.969451
0.358644 0.203449 0.971690
0.359982 0.235069 0.964618
0.362095 0.267325 0.943953
0.359457 0.296792 0.901461
0.360313 0.329356 0.827424
0.358797 0.359293 0.724079
0.359249 0.391940 0.592855
0.359589 0.420479 0.478350
0.360035 0.451751 0.491923
0.360646 0.484566 0.639829
0.362114 0.513971 0.760593
0.358834 0.547484 0.872763
0.361144 0.580752 0.934482
0.360509 0.611382 0.964392
0.359546 0.638939 0.978238
0.357148 0.674372 0.986737
0.357821 0.704072 0.988001
0.356280 0.737100 0.985604
0.357971 0.767867 0.976515
0.357993 0.799703 0.956724
0.359418 0.825768 0.924891
0.358853 0.860640 0.850765
0.358978 0.888173 0.753504
0.361039 0.919374 0.595561
0.359008 0.952154 0.384237
0.358107 0.985985 0.237087
0.389616 0.014567 0.936030
0.387848 0.047332 0.936189
0.390533 0.076266 0.948077
0.388215 0.112340 0.964561
0.392904 0.140574 0.975434
0.389796 0.173781 0.981200
0.388514 0.200997 0.981381
0.387861 0.232183 0.975062
0.390426 0.264879 0.957525
0.393023 0.296401 0.921881
0.390077 0.329071 0.853920
0.389427 0.356626 0.766814
0.392590 0.393110 0.613094
0.393247 0.424383 0.476135
0.392313 0.451067 0.467835
0.391078 0.481446 0.580605
0.392520 0.515764 0.715571
0.392885 0.545482 0.821128
0.392934 0.578668 0.899534
0.389932 0.611324 0.943554
0.390785 0.643374 0.962697
0.390125 0.672374 0.971686
0.392182 0.705505 0.972740
0.389613 0.732435 0.971321
0.392145 0.766993 0.956733
0.392995 0.794205 0.934246
0.391938 0.830494 0.878958
0.389746 0.856812 0.814047
0.388506 0.890105 0.685425
0.388103 0.922967 0.517697
0.391016 0.955082 0.313171
0.392989 0.986059 0.193281
0.422720 0.018103 0.910119
0.424240 0.046790 0.917197
0.419457 0.077359 0.941210
0.421141 0.110547 0.960346
0.419511 0.137980 0.972736
0.419646 0.171735 0.980040
0.423179 0.201488 0.979642
0.421194 0.237349 0.971636
0.422680 0.266757 0.953643
0.424429 0.296015 0.918854
0.424120 0.329964 0.847035
0.421430 0.356709 0.760571
0.421866 0.390524 0.609574
0.421567 0.421873 0.452964
0.423380 0.455830 0.417008
0.420626 0.482164 0.481846
0.419438 0.513002 0.635624
0.424828 0.546301 0.750317
0.420240 0.581020 0.856052
0.423959 0.607488 0.890474
0.419559 0.638727 0.927995
0.420869 0.672348 0.941786
0.421502 0.703660 0.944763
0.421455 0.733551 0.939599
0.421139 0.766251 0.923074
0.421434 0.794680 0.892042
0.422939 0.831221 0.811980
0.423113 0.858767 0.716535
0.424058 0.892622 0.553826
0.423709 0.921089 0.379712
0.418810 0.952999 0.257116
0.422744 0.985291 0.149502
0.454031 0.017494 0.826879
0.452359 0.045985 0.859582
0.452434 0.077089 0.898493
0.454335 0.107156 0.928366
0.451822 0.141668 0.955622
0.455340 0.170717 0.962673
0.450901 0.203764 0.967214
0.450035 0.237005 0.958423
0.452387 0.265728 0.936973
0.452153 0.295401 0.898571
0.451819 0.330210 0.816625
0.450777 0.360216 0.705694
0.450304 0.390363 0.560784
0.452355 0.419724 0.393799
0.454724 0.454162 0.331561
0.450072 0.486218 0.401463
0.453506 0.514304 0.521257
0.452597 0.545754 0.649880
0.453216 0.579495 0.754238
0.455263 0.607699 0.805757
0.452906 0.639833 0.855412
0.450313 0.669212 0.883499
0.451265 0.703539 0.888705
0.455197 0.733891 0.870765
0.455247 0.764332 0.848874
0.451132 0.795985 0.816036
0.455838 0.828684 0.714118
0.452307 0.859144 0.607510
0.453924 0.893403 0.405266
0.452536 0.919066 0.296548
0.452780 0.953725 0.176712
0.454677 0.986651 0.099294
0.482069 0.013154 0.601927
0.485408 0.048959 0.756853
0.484883 0.079116 0.825306
0.487388 0.106368 0.867738
0.487009 0.138717 0.906966
0.487298 0.172019 0.925420
0.482992 0.204499 0.934099
0.484940 0.236482 0.918732
0.486467 0.266624 0.888243
0.485815 0.297769 0.836335
0.483435 0.328343 0.754369
0.485401 0.358271 0.620350
0.486682 0.390265 0.415714
0.486987 0.420479 0.290484
0.487198 0.450733 0.237055
0.483850 0.486477 0.281600
0.487266 0.514581 0.345640
0.484539 0.547100 0.502310
0.486363 0.580812 0.604731
0.485393 0.607770 0.676944
0.487134 0.641230 0.720873
0.482038 0.670294 0.770472
0.486792 0.701226 0.758575
0.482268 0.736475 0.771649
0.485015 0.766395 0.733886
0.486492 0.797948 0.671621
0.483697 0.830446 0.587838
0.485421 0.856973 0.475903
0.481250 0.891725 0.314363
0.485180 0.921591 0.195498
0.484840 0.950202 0.123214
0.483446 0.986594 0.065912
0.514818 0.016634 0.469515
0.516103 0.044125 0.615668
0.517153 0.076747 0.707221
0.515266 0.107353 0.790869
0.513074 0.143108 0.851818
0.518703 0.172463 0.855734
0.512706 0.204318 0.874588
0.515545 0.234808 0.851799
0.518098 0.265216 0.808117
0.516804 0.295020 0.749393
0.515511 0.326703 0.649112
0.518419 0.357777 0.499536
0.518458 0.390481 0.312178
0.513294 0.424759 0.210314
0.517857 0.451359 0.162721
0.512544 0.486140 0.191092
0.512815 0.518500 0.254230
0.516509 0.547334 0.314562
0.513357 0.575807 0.412919
0.517654 0.609387 0.503286
0.516599 0.640657 0.554315
0.515790 0.669490 0.581894
0.518144 0.704181 0.577974
0.514235 0.733667 0.598226
0.514947 0.767694 0.569287
0.514019 0.794522 0.530750
0.517052 0.829050 0.384638
0.513758 0.861554 0.298807
0.512641 0.888160 0.219234
0.513675 0.921006 0.130404
0.517373 0.954495 0.068531
0.516665 0.984881 0.039595
0.545945 0.013482 0.317632
0.545576 0.044807 0.430311
0.545148 0.079196 0.586248
0.546280 0.111791 0.674050
0.547371 0.139637 0.720438
0.546483 0.173123 0.752496
0.548964 0.204950 0.743910
0.549057 0.233014 0.728087
0.545404 0.263562 0.701831
0.547085 0.294207 0.616503
0.549992 0.329689 0.479254
0.544514 0.357279 0.363134
0.546407 0.392333 0.222648
0.545085 0.421462 0.148574
0.543957 0.455808 0.110661
0.544413 0.482914 0.112730
0.546763 0.517455 0.142834
0.545360 0.545087 0.190788
0.545515 0.577379 0.253717
0.545051 0.612053 0.321123
0.548525 0.641354 0.334266
0.547349 0.670977 0.354584
0.549424 0.701237 0.345666
0.544463 0.736195 0.369526
0.548114 0.762614 0.331857
0.548425 0.794466 0.290049
0.549344 0.829091 0.220864
0.545912 0.858640 0.177119
0.545094 0.889571 0.121891
0.543861 0.924465 0.071351
0.548659 0.952459 0.039543
0.548312 0.986447 0.021220
0.580486 0.013310 0.182297
0.577146 0.049638 0.291259
0.577264 0.077200 0.373748
0.575504 0.109824 0.514002
0.579852 0.142776 0.549502
0.578083 0.173858 0.584342
0.579017 0.202721 0.582238
0.577202 0.233432 0.574751
0.576760 0.268244 0.518800
0.578913 0.298404 0.395565
0.575985 0.329853 0.320077
0.576575 0.360075 0.227923
0.580341 0.389466 0.140548
0.578803 0.419537 0.090800
0.577335 0.450833 0.064651
0.576637 0.482038 0.061005
0.576268 0.517191 0.078460
0.575443 0.546618 0.104832
0.581020 0.576467 0.120722
0.576234 0.610525 0.173883
0.575508 0.642839 0.202114
0.575954 0.669501 0.208179
0.580057 0.705901 0.190406
0.575285 0.731627 0.205894
0.580186 0.763382 0.171393
0.580007 0.795172 0.147452
0.577495 0.828745 0.121120
0.579095 0.856586 0.088579
0.581165 0.892577 0.052720
0.577585 0.918949 0.037771
0.575675 0.956090 0.020850
0.580419 0.985444 0.010992
0.611465 0.013989 0.100328
0.610731 0.047436 0.154702
0.607641 0.076424 0.222978
0.606260 0.109049 0.300309
0.608811 0.143331 0.339068
0.606390 0.171959 0.375102
0.608603 0.205372 0.362528
0.611212 0.235059 0.325790
0.608324 0.266400 0.300257
0.610337 0.297777 0.234986
0.607869 0.325163 0.193970
0.612419 0.357548 0.122055
0.610265 0.391002 0.078562
0.608606 0.419504 0.052324
0.609057 0.450861 0.034544
0.609911 0.484641 0.029388
0.609273 0.518041 0.036505
0.606760 0.546016 0.050000
0.606880 0.576870 0.064765
0.611510 0.611956 0.073985
0.611425 0.643564 0.085844
0.611333 0.673737 0.090595
0.611499 0.702805 0.090200
0.610263 0.735587 0.089798
0.611348 0.765426 0.080382
0.607460 0.796260 0.075858
0.612067 0.827920 0.053341
0.608615 0.859485 0.042132
0.607673 0.893120 0.027518
0.612412 0.919606 0.016199
0.609116 0.954307 0.009793
0.607994 0.983808 0.005951
0.642125 0.012695 0.050571
0.639400 0.044954 0.080965
0.642582 0.076718 0.104604
0.641986 0.108804 0.139863
0.642407 0.142014 0.167879
0.641107 0.172706 0.187750
0.642491 0.200002 0.183013
0.641424 0.233415 0.175153
0.640449 0.265576 0.155551
0.640810 0.295741 0.126210
0.642862 0.325863 0.091579
0.639995 0.358668 0.066016
0.642790 0.387851 0.040785
0.640355 0.423535 0.024909
0.639328 0.456012 0.016585
0.643750 0.487494 0.012713
0.642135 0.514686 0.014940
0.642479 0.544994 0.019123
0.641255 0.578393 0.026119
0.639073 0.607510 0.033912
0.641098 0.640711 0.037742
0.642173 0.672550 0.039413
0.643685 0.704990 0.038238
0.640967 0.732167 0.040183
0.638169 0.765774 0.039818
0.639039 0.797323 0.033216
0.639590 0.829242 0.025614
0.637934 0.861529 0.019164
0.642977 0.889575 0.011562
0.638409 0.923400 0.007807
0.641637 0.952517 0.004402
0.641156 0.984722 0.002504
0.671838 0.016341 0.026156
0.674530 0.047587 0.035597
0.670352 0.075248 0.052157
0.672629 0.108397 0.065368
0.668901 0.138571 0.086640
0.672567 0.171399 0.087650
0.672303 0.204565 0.089148
0.671087 0.233535 0.086427
0.671102 0.263041 0.076099
0.672394 0.296364 0.059063
0.669443 0.327033 0.047961
0.673032 0.359775 0.029436
0.674199 0.390824 0.018164
0.674841 0.419127 0.011427
0.671721 0.450688 0.007835
0.674951 0.484684 0.005621
0.673117 0.513295 0.006267
0.671719 0.544121 0.008129
0.671532 0.580737 0.011026
0.671497 0.611616 0.013606
0.674982 0.640933 0.014118
0.669527 0.674040 0.018158
0.669939 0.704152 0.018290
0.672852 0.737332 0.016138
0.671610 0.763496 0.015485
0.669620 0.795521 0.013932
0.674831 0.828737 0.009179
0.674076 0.856643 0.007100
0.674535 0.893434 0.004393
0.671667 0.920514 0.003217
0.671627 0.952693 0.001921
0.674163 0.982491 0.001050
0.702405 0.017245 0.011837
0.705089 0.047955 0.015965
0.704510 0.079271 0.022047
0.701962 0.107303 0.029905
0.704300 0.143256 0.034831
0.701036 0.168774 0.041359
0.701102 0.201113 0.042257
0.701238 0.235427 0.039203
0.704215 0.265734 0.031340
0.702021 0.296669 0.026924
0.702005 0.325585 0.020678
0.705440 0.359032 0.012580
0.700924 0.391575 0.008914
0.705887 0.424265 0.004687
0.704131 0.451274 0.003343
0.701065 0.481350 0.002819
0.701034 0.513182 0.002829
0.702257 0.547257 0.003309
0.706024 0.576534 0.003668
0.700149 0.606438 0.005447
0.705539 0.643040 0.005473
0.705708 0.672171 0.005923
0.701079 0.703044 0.007095
0.705090 0.737104 0.005971
0.703644 0.765931 0.005661
0.702948 0.798458 0.004803
0.702077 0.826078 0.003991
0.703206 0.858628 0.002799
0.705176 0.893544 0.001710
0.700030 0.920634 0.001376
0.702841 0.955565 0.000735
0.705272 0.982815 0.000421
0.735837 0.017747 0.004575
0.733894 0.048178 0.007081
0.733787 0.078289 0.009476
0.734535 0.106822 0.011622
0.733773 0.142388 0.014748
0.732905 0.170674 0.016623
0.732406 0.204729 0.017126
0.735129 0.235283 0.014739
0.733296 0.263464 0.013717
0.732402 0.296595 0.011248
0.734582 0.326015 0.008040
0.737036 0.358807 0.005073
0.731445 0.388546 0.003972
0.734782 0.424909 0.002098
0.732127 0.452085 0.001550
0.733182 0.483465 0.001131
0.732268 0.514513 0.001110
0.733622 0.547759 0.001233
0.735014 0.575236 0.001417
0.733344 0.606739 0.001838
0.734650 0.640570 0.002070
0.733049 0.670329 0.002387
0.733996 0.704116 0.002390
0.733285 0.731260 0.002381
0.737329 0.763130 0.001884
0.733240 0.799722 0.001774
0.733433 0.826034 0.001454
0.737409 0.856978 0.000949
0.731512 0.893506 0.000741
0.736158 0.920127 0.000446
0.731884 0.951591 0.000320
0.733984 0.982769 0.000174
0.764266 0.015933 0.001852
0.768014 0.049073 0.002515
0.766690 0.078485 0.003442
0.767236 0.111887 0.004300
0.767834 0.142248 0.005010
0.763962 0.174989 0.006313
0.764133 0.202344 0.006341
0.764372 0.235910 0.005882
0.768699 0.267289 0.004440
0.765179 0.297760 0.004044
0.765399 0.325640 0.003128
0.763637 0.361646 0.002172
0.765646 0.393319 0.001318
0.768113 0.420570 0.000819
0.766432 0.456096 0.000532
0.765900 0.486442 0.000407
0.762843 0.513685 0.000416
0.768596 0.548533 0.000387
0.767937 0.575202 0.000462
0.765740 0.608596 0.000605
0.768560 0.638707 0.000634
0.763929 0.672481 0.000831
0.768103 0.703434 0.000739
0.763030 0.736106 0.000849
0.767319 0.766927 0.000659
0.762825 0.799272 0.000655
0.762948 0.831217 0.000520
0.764187 0.859374 0.000377
0.766796 0.892178 0.000231
0.768404 0.923061 0.000145
0.768199 0.951070 0.000096
0.767596 0.983018 0.000057
0.796762 0.018193 0.000664
0.798145 0.046246 0.000913
0.794803 0.080641 0.001410
0.795063 0.109677 0.001712
0.796080 0.139145 0.001934
0.798792 0.170224 0.001947
0.797868 0.202098 0.002050
0.797013 0.234081 0.001996
0.797543 0.266669 0.001717
0.793886 0.298870 0.001579
0.796108 0.328386 0.001127
0.799811 0.360914 0.000677
0.798708 0.392242 0.000459
0.796583 0.421292 0.000325
0.795276 0.454389 0.000216
0.795086 0.485382 0.000160
0.796294 0.514227 0.000137
0.795895 0.545634 0.000148
0.798053 0.580964 0.000165
0.798614 0.611889 0.000190
0.793885 0.643589 0.000262
0.794086 0.671312 0.000284
0.794772 0.704975 0.000286
0.793822 0.735013 0.000286
0.799509 0.763187 0.000211
0.797156 0.794206 0.000198
0.797228 0.827396 0.000159
0.796759 0.858693 0.000121
0.796304 0.890994 0.000084
0.799632 0.923119 0.000049
0.797435 0.950070 0.000035
0.795517 0.983671 0.000021
0.829661 0.016036 0.000208
0.828464 0.045429 0.000323
0.825732 0.076010 0.000482
0.827214 0.111302 0.000591
0.826661 0.138698 0.000685
0.827590 0.172801 0.000721
0.828310 0.200455 0.000708
0.827937 0.233618 0.000680
0.825618 0.265583 0.000659
0.825830 0.295102 0.000551
0.827739 0.327207 0.000388
0.831211 0.361826 0.000229
0.827187 0.390245 0.000181
0.830010 0.424889 0.000102
0.826883 0.453604 0.000077
0.828450 0.482145 0.000054
0.828166 0.515624 0.000046
0.829560 0.544266 0.000045
0.826357 0.576081 0.000058
0.827408 0.608591 0.000066
0.826652 0.638529 0.000077
0.830353 0.670284 0.000073
0.830584 0.704945 0.000074
0.831026 0.732817 0.000071
0.826776 0.765936 0.000076
0.829493 0.796971 0.000058
0.828041 0.827199 0.000050
0.830365 0.858826 0.000035
0.825128 0.893223 0.000029
0.830997 0.922304 0.000016
0.831237 0.952503 0.000010
0.828673 0.986290 0.000006
0.858801 0.012771 0.000070
0.859659 0.044563 0.000104
0.859842 0.081058 0.000147
0.860508 0.107545 0.000174
0.859774 0.142692 0.000213
0.858080 0.170663 0.000241
0.862362 0.206156 0.000206
0.859898 0.233330 0.000214
0.859510 0.263015 0.000196
0.861298 0.298010 0.000150
0.859967 0.326276 0.000123
0.857503 0.357275 0.000096
0.858005 0.388734 0.000064
0.861207 0.424199 0.000035
0.861183 0.450567 0.000025
0.857250 0.482794 0.000020
0.861009 0.515732 0.000014
0.858699 0.549175 0.000015
0.858329 0.578729 0.000018
0.861126 0.612417 0.000018
0.862215 0.642642 0.000020
0.861106 0.673040 0.000022
0.861512 0.703925 0.000022
0.861052 0.733729 0.000022
0.859908 0.765125 0.000021
0.861260 0.796736 0.000017
0.860567 0.830085 0.000014
0.859693 0.858092 0.000011
0.859919 0.890465 0.000008
0.861866 0.921433 0.000005
0.857874 0.952900 0.000004
0.856250 0.985363 0.000002
0.888074 0.016014 0.000025
0.891744 0.047923 0.000033
0.892158 0.079078 0.000042
0.893637 0.107998 0.000049
0.892392 0.137532 0.000060
0.888043 0.169120 0.000078
0.893292 0.201342 0.000065
0.892383 0.232835 0.000063
0.889291 0.267114 0.000063
0.889349 0.296707 0.000052
0.893187 0.330769 0.000034
0.893074 0.357817 0.000026
0.892203 0.391774 0.000018
0.890426 0.421712 0.000013
0.888805 0.453165 0.000009
0.893111 0.486469 0.000005
0.893492 0.518582 0.000004
0.893240 0.544679 0.000004
0.889143 0.577478 0.000005
0.892322 0.611066 0.000005
0.892348 0.640340 0.000006
0.890117 0.672727 0.000007
0.891544 0.704638 0.000007
0.892684 0.732951 0.000006
0.892376 0.763628 0.000006
0.888250 0.798673 0.000006
0.893699 0.825483 0.000004
0.890156 0.861507 0.000003
0.891460 0.893405 0.000002
0.890190 0.924662 0.000002
0.892491 0.952357 0.000001
0.889042 0.986429 0.000001
0.919010 0.013929 0.000007
0.919338 0.049134 0.000012
0.919022 0.080967 0.000016
0.923901 0.111681 0.000016
0.921950 0.142188 0.000020
0.924989 0.171359 0.000019
0.920073 0.202523 0.000023
0.919431 0.233513 0.000023
0.919355 0.263775 0.000020
0.921169 0.298897 0.000015
0.924370 0.331036 0.000010
0.923857 0.358855 0.000008
0.923859 0.392031 0.000005
0.921616 0.421344 0.000004
0.922454 0.453771 0.000003
0.922922 0.487421 0.000002
0.923369 0.512526 0.000001
0.922659 0.544564 0.000001
0.924351 0.579236 0.000001
0.920802 0.607730 0.000002
0.921572 0.641755 0.000002
0.920368 0.669662 0.000002
0.923149 0.703742 0.000002
0.923069 0.731711 0.000002
0.924248 0.763769 0.000002
0.920105 0.798329 0.000002
0.923660 0.830989 0.000001
0.923222 0.860878 0.000001
0.919970 0.888847 0.000001
0.918878 0.923995 0.000001
0.923505 0.951366 0.000000
0.921376 0.982942 0.000000
0.954230 0.017724 0.000002
0.950316 0.047643 0.000004
0.953961 0.077861 0.000004
0.950685 0.110783 0.000006
0.950109 0.140080 0.000007
0.953364 0.169389 0.000006
0.954002 0.202724 0.000006
0.950174 0.232765 0.000007
0.952062 0.266449 0.000006
0.952349 0.297154 0.000005
0.954805 0.325493 0.000003
0.954767 0.356552 0.000003
0.951154 0.390440 0.000002
0.955241 0.420865 0.000001
0.952302 0.455336 0.000001
0.954917 0.482991 0.000001
0.955096 0.516896 0.000000
0.955612 0.549190 0.000000
0.952580 0.576137 0.000000
0.953465 0.609568 0.000000
0.952194 0.642033 0.000001
0.956075 0.670221 0.000001
0.950880 0.701486 0.000001
0.955010 0.736389 0.000001
0.952506 0.767924 0.000001
0.953765 0.793992 0.000000
0.954720 0.828048 0.000000
0.956116 0.858470 0.000000
0.954562 0.888532 0.000000
0.955493 0.920690 0.000000
0.954235 0.950940 0.000000
0.951799 0.986917 0.000000
0.981389 0.016198 0.000001
0.987154 0.048933 0.000001
0.984801 0.076321 0.000001
0.981440 0.109888 0.000002
0.985260 0.138469 0.000002
0.981677 0.170672 0.000002
0.984839 0.202304 0.000002
0.982563 0.231469 0.000002
0.985981 0.262908 0.000002
0.982971 0.298566 0.000001
0.983589 0.326893 0.000001
0.983465 0.362295 0.000001
0.985139 0.391861 0.000001
0.983416 0.419715 0.000000
0.984475 0.453534 0.000000
0.985603 0.485556 0.000000
0.986298 0.515368 0.000000
0.985851 0.544761 0.000000
0.983299 0.575078 0.000000
0.984004 0.611284 0.000000
0.987082 0.641022 0.000000
0.984794 0.672348 0.000000
0.987424 0.704553 0.000000
0.981945 0.734443 0.000000
0.984028 0.765467 0.000000
0.984656 0.797407 0.000000
0.982178 0.829535 0.000000
0.984534 0.858407 0.000000
0.984924 0.887706 0.000000
0.986931 0.923485 0.000000
0.984425 0.952557 0.000000
0.984145 0.982266 0.000000
