x  y  phi
0.012500 0.013322 0.024534
0.017223 0.046617 0.033063
0.015830 0.076368 0.037632
0.012794 0.110493 0.041861
0.016746 0.143342 0.048470
0.014897 0.171996 0.050559
0.017694 0.200216 0.053699
0.012834 0.234561 0.051276
0.016695 0.262548 0.052959
0.014896 0.294168 0.052546
0.015109 0.329292 0.057479
0.016181 0.362065 0.068994
0.017789 0.390793 0.085799
0.013075 0.422837 0.109193
0.015100 0.454382 0.148645
0.018190 0.486014 0.199462
0.014140 0.512797 0.240130
0.017101 0.545801 0.303423
0.016454 0.579728 0.364521
0.018694 0.608533 0.411774
0.014044 0.643641 0.449132
0.017017 0.673458 0.475705
0.016572 0.700454 0.482693
0.016448 0.736779 0.471202
0.014204 0.765228 0.443625
0.017291 0.796736 0.407721
0.013986 0.826718 0.356308
0.014745 0.857291 0.300761
0.015541 0.893110 0.234960
0.018183 0.919129 0.197450
0.018154 0.953153 0.156710
0.015727 0.983244 0.124782
0.049917 0.015587 0.041128
0.045413 0.044317 0.045551
0.049674 0.075461 0.055040
0.046879 0.108651 0.060313
0.045482 0.143211 0.065181
0.047061 0.171653 0.070076
0.049631 0.200313 0.074676
0.048509 0.236064 0.074146
0.048924 0.263284 0.073412
0.043849 0.298053 0.069792
0.049177 0.328935 0.077857
0.048351 0.360784 0.088128
0.049997 0.393054 0.108434
0.045207 0.420665 0.130005
0.045944 0.453208 0.173159
0.047444 0.486537 0.228613
0.046326 0.517759 0.282630
0.045433 0.546346 0.336077
0.047108 0.577924 0.397826
0.045545 0.607365 0.443072
0.044711 0.641073 0.484782
0.048765 0.668957 0.514007
0.047090 0.703116 0.522134
0.049721 0.735927 0.516087
0.047216 0.768067 0.484049
0.047655 0.799013 0.443992
0.044749 0.826330 0.395591
0.048217 0.857065 0.342500
0.044319 0.889216 0.274305
0.043769 0.921339 0.219626
0.043918 0.954436 0.178763
0.049612 0.982749 0.157785
0.076131 0.014485 0.058584
0.080544 0.047825 0.073344
0.075940 0.079258 0.077987
0.077411 0.108673 0.087931
0.078123 0.138422 0.096062
0.078670 0.174035 0.102967
0.078688 0.205971 0.105202
0.078476 0.232176 0.104474
0.081146 0.265055 0.105532
0.075886 0.297281 0.097785
0.076576 0.328053 0.101516
0.077900 0.362257 0.114328
0.075788 0.388748 0.128357
0.076995 0.422683 0.164155
0.075792 0.454070 0.208987
0.078885 0.486269 0.269311
0.076549 0.515478 0.320469
0.077433 0.545020 0.382144
0.075177 0.580635 0.449307
0.077666 0.607138 0.499106
0.080922 0.640064 0.548526
0.075820 0.674285 0.563973
0.075576 0.701014 0.570346
0.075444 0.733533 0.562290
0.076582 0.763344 0.541475
0.079895 0.796596 0.506250
0.077185 0.827827 0.448175
0.080056 0.862073 0.385242
0.079073 0.888845 0.328584
0.079247 0.924431 0.263420
0.076563 0.955380 0.216319
0.077945 0.984412 0.188428
0.110002 0.017610 0.097180
0.110974 0.046639 0.110691
0.112196 0.078955 0.125727
0.108996 0.111404 0.133417
0.110556 0.141889 0.146527
0.112420 0.174715 0.156809
0.111570 0.201808 0.156837
0.109609 0.234465 0.151985
0.106896 0.265088 0.143876
0.109854 0.299229 0.144904
0.109000 0.329561 0.144133
0.111683 0.360723 0.156815
0.111255 0.391916 0.176687
0.110886 0.418869 0.207162
0.111788 0.453281 0.264027
0.109146 0.481657 0.312540
0.110709 0.515556 0.386408
0.110423 0.548013 0.459191
0.107497 0.580729 0.521630
0.111662 0.611813 0.583470
0.109650 0.638370 0.611746
0.109065 0.674934 0.638303
0.107597 0.702788 0.641278
0.108223 0.734467 0.634840
0.111759 0.765248 0.619197
0.109172 0.798792 0.568881
0.108532 0.826322 0.518596
0.112494 0.857210 0.462025
0.110191 0.891352 0.382616
0.106254 0.918755 0.320651
0.111083 0.954546 0.272573
0.108245 0.983861 0.233449
0.141766 0.016754 0.148904
0.138783 0.048978 0.158431
0.141931 0.080179 0.180428
0.138091 0.106761 0.186571
0.142275 0.141435 0.211331
0.138837 0.170085 0.210860
0.138007 0.202430 0.212452
0.143451 0.237172 0.224122
0.139937 0.264183 0.210807
0.141826 0.295525 0.207559
0.142355 0.329899 0.203667
0.140140 0.358013 0.203113
0.138712 0.387571 0.217315
0.138699 0.424895 0.262188
0.139025 0.455123 0.314945
0.138353 0.483738 0.372444
0.141256 0.513606 0.447698
0.142677 0.544736 0.525835
0.143675 0.576607 0.598460
0.138960 0.606885 0.640424
0.138871 0.641467 0.683696
0.141850 0.673717 0.715636
0.141852 0.704706 0.722484
0.141685 0.735209 0.712316
0.137853 0.766239 0.678264
0.138919 0.795742 0.642265
0.141874 0.825734 0.595143
0.142266 0.859538 0.521126
0.140962 0.891175 0.445873
0.139560 0.923144 0.376507
0.138394 0.951011 0.327732
0.140533 0.986626 0.286145
0.173833 0.015980 0.218509
0.173369 0.045725 0.233678
0.169596 0.078303 0.244299
0.170692 0.109926 0.269320
0.171988 0.140193 0.289195
0.170368 0.171064 0.294047
0.171206 0.202793 0.300927
0.171724 0.233674 0.299623
0.170496 0.262989 0.287698
0.171061 0.295337 0.277540
0.172949 0.329226 0.271880
0.171962 0.360804 0.269190
0.173255 0.393405 0.288915
0.171629 0.424626 0.321997
0.170760 0.452878 0.369137
0.171982 0.485383 0.442147
0.171261 0.516285 0.515829
0.174916 0.544690 0.591376
0.172938 0.577149 0.659401
0.172136 0.609518 0.715115
0.173933 0.637593 0.755130
0.170464 0.672769 0.776413
0.172163 0.705737 0.785783
0.170416 0.737313 0.770254
0.170292 0.767775 0.743922
0.173088 0.796598 0.712927
0.173857 0.825138 0.664355
0.169755 0.860668 0.575659
0.173174 0.890229 0.512093
0.172390 0.923448 0.438864
0.174947 0.954348 0.391394
0.170497 0.985962 0.342294
0.201070 0.012527 0.289417
0.203098 0.044249 0.317897
0.201019 0.080646 0.340167
0.204894 0.110917 0.377244
0.202728 0.137540 0.385752
0.203655 0.171990 0.401505
0.200418 0.203400 0.393871
0.202436 0.232599 0.395312
0.202411 0.266418 0.379805
0.204119 0.298183 0.365558
0.203367 0.326752 0.347830
0.205100 0.358574 0.343694
0.204288 0.389439 0.349543
0.200058 0.419399 0.368269
0.203256 0.454849 0.432243
0.201379 0.481595 0.486785
0.200441 0.513502 0.561663
0.204524 0.545606 0.644216
0.200316 0.577986 0.708325
0.202857 0.609500 0.768501
0.202791 0.638439 0.805798
0.201787 0.673961 0.831217
0.204348 0.703611 0.840310
0.204257 0.733320 0.830357
0.200359 0.768668 0.794545
0.203390 0.793760 0.768136
0.205351 0.825183 0.718993
0.202360 0.859310 0.638223
0.203601 0.892118 0.559814
0.204246 0.922102 0.493732
0.200222 0.950766 0.437159
0.206083 0.982427 0.404024
0.233446 0.016338 0.400640
0.235048 0.044537 0.428093
0.234705 0.080963 0.456747
0.233481 0.111488 0.474975
0.237339 0.139119 0.504679
0.232822 0.171402 0.503281
0.236332 0.205612 0.518283
0.232779 0.236004 0.495625
0.235593 0.265324 0.483841
0.232898 0.297909 0.446171
0.231979 0.326310 0.420383
0.231960 0.359669 0.404663
0.231288 0.388600 0.404934
0.234996 0.421449 0.436614
0.231766 0.454296 0.480277
0.233596 0.486476 0.549968
0.232023 0.518583 0.622412
0.231435 0.544252 0.680899
0.234339 0.579809 0.760856
0.237088 0.607813 0.811696
0.233498 0.642307 0.848999
0.234375 0.673433 0.870503
0.235449 0.704260 0.876457
0.235980 0.731477 0.869180
0.232691 0.763885 0.840921
0.234766 0.797829 0.800671
0.235104 0.827322 0.751441
0.232655 0.857711 0.683004
0.235331 0.888537 0.610589
0.235901 0.919748 0.539221
0.231548 0.954137 0.471766
0.232031 0.987182 0.428904
0.265526 0.016382 0.516756
0.268213 0.043862 0.544063
0.266210 0.079512 0.562759
0.265604 0.106586 0.578968
0.265260 0.140745 0.598735
0.267325 0.169158 0.618238
0.265267 0.206107 0.612078
0.265423 0.233307 0.599239
0.265287 0.267145 0.569660
0.263783 0.294821 0.535819
0.264828 0.330873 0.501810
0.268530 0.357843 0.490660
0.262940 0.388274 0.470598
0.265790 0.419751 0.489754
0.265736 0.450657 0.526132
0.267760 0.483554 0.587933
0.265149 0.514545 0.652843
0.266960 0.547355 0.727832
0.267949 0.579739 0.792964
0.267729 0.610624 0.840250
0.264932 0.643345 0.873778
0.266285 0.671013 0.891349
0.265872 0.702844 0.896703
0.265011 0.732753 0.888604
0.263019 0.765135 0.863535
0.265452 0.795561 0.827269
0.263156 0.826352 0.774639
0.267513 0.859546 0.706230
0.266680 0.892898 0.626257
0.264023 0.923197 0.555976
0.264148 0.952393 0.502557
0.263006 0.984124 0.458936
0.295205 0.017471 0.618364
0.296821 0.043770 0.635405
0.295413 0.079154 0.651792
0.296407 0.107418 0.672431
0.299772 0.138338 0.699457
0.298724 0.174663 0.707692
0.294820 0.203788 0.693552
0.294149 0.233422 0.675768
0.295578 0.265685 0.650153
0.298911 0.298965 0.619112
0.298290 0.327059 0.583878
0.298763 0.360199 0.551329
0.294033 0.387759 0.527716
0.294708 0.423544 0.534147
0.294136 0.453246 0.562050
0.299557 0.482628 0.612129
0.295029 0.513056 0.670658
0.298123 0.548165 0.745877
0.296841 0.576636 0.798755
0.298197 0.608615 0.845879
0.295004 0.638954 0.877991
0.296476 0.671684 0.898206
0.299132 0.706108 0.902908
0.296528 0.731464 0.896226
0.297024 0.762698 0.874741
0.298457 0.797447 0.832650
0.298893 0.827060 0.782227
0.295200 0.859603 0.713196
0.296441 0.890022 0.641701
0.299921 0.924793 0.562818
0.299066 0.955422 0.508542
0.295698 0.982177 0.473455
0.331235 0.016497 0.726239
0.327925 0.049574 0.722821
0.329317 0.080096 0.737786
0.328385 0.109830 0.750438
0.325995 0.143408 0.760593
0.330133 0.169721 0.773376
0.325257 0.202148 0.759843
0.325688 0.231853 0.745223
0.328242 0.262640 0.722125
0.328509 0.299105 0.675880
0.328231 0.329216 0.634190
0.329607 0.360615 0.598348
0.325142 0.388700 0.569932
0.329194 0.420912 0.566441
0.325414 0.450879 0.580670
0.330757 0.482635 0.621474
0.327376 0.516163 0.681188
0.326046 0.543915 0.736464
0.329320 0.579765 0.799393
0.329461 0.606733 0.836794
0.328686 0.643284 0.873707
0.330811 0.671440 0.888888
0.328162 0.705195 0.895127
0.330745 0.735010 0.884924
0.329524 0.765746 0.862567
0.328068 0.794759 0.828131
0.331101 0.828590 0.768754
0.326708 0.859571 0.705004
0.329366 0.891669 0.628539
0.325609 0.922180 0.561549
0.328817 0.954175 0.501906
0.328095 0.984822 0.461822
0.359931 0.015258 0.782580
0.357195 0.046889 0.777396
0.360821 0.075198 0.788661
0.356573 0.109513 0.796220
0.358254 0.137719 0.808105
0.357782 0.169420 0.812918
0.358644 0.203449 0.808659
0.359982 0.235069 0.792435
0.362095 0.267325 0.762429
0.359457 0.296792 0.719414
0.360313 0.329356 0.670798
0.358797 0.359293 0.627995
0.359249 0.391940 0.592738
0.359589 0.420479 0.578079
0.360035 0.451751 0.584718
0.360646 0.484566 0.615628
0.362114 0.513971 0.658446
0.358834 0.547484 0.722334
0.361144 0.580752 0.777518
0.360509 0.611382 0.818863
0.359546 0.638939 0.846729
0.357148 0.674372 0.869986
0.357821 0.704072 0.873405
0.356280 0.737100 0.864545
0.357971 0.767867 0.838114
0.357993 0.799703 0.796881
0.359418 0.825768 0.749637
0.358853 0.860640 0.676067
0.358978 0.888173 0.612118
0.361039 0.919374 0.538902
0.359008 0.952154 0.479770
0.358107 0.985985 0.434611
0.389616 0.014567 0.808253
0.387848 0.047332 0.804750
0.390533 0.076266 0.811643
0.388215 0.112340 0.823494
0.392904 0.140574 0.833333
0.389796 0.173781 0.835795
0.388514 0.200997 0.829943
0.387861 0.232183 0.811952
0.390426 0.264879 0.780363
0.393023 0.296401 0.737292
0.390077 0.329071 0.684327
0.389427 0.356626 0.641120
0.392590 0.393110 0.591430
0.393247 0.424383 0.567811
0.392313 0.451067 0.567142
0.391078 0.481446 0.586824
0.392520 0.515764 0.627040
0.392885 0.545482 0.675106
0.392934 0.578668 0.730484
0.389932 0.611324 0.779493
0.390785 0.643374 0.809113
0.390125 0.672374 0.826817
0.392182 0.705505 0.827900
0.389613 0.732435 0.823556
0.392145 0.766993 0.791946
0.392995 0.794205 0.755802
0.391938 0.830494 0.692989
0.389746 0.856812 0.640848
0.388506 0.890105 0.566093
0.388103 0.922967 0.493569
0.391016 0.955082 0.431960
0.392989 0.986059 0.387525
0.422720 0.018103 0.797449
0.424240 0.046790 0.796013
0.419457 0.077359 0.807094
0.421141 0.110547 0.818887
0.419511 0.137980 0.829032
0.419646 0.171735 0.832967
0.423179 0.201488 0.824462
0.421194 0.237349 0.802342
0.422680 0.266757 0.770718
0.424429 0.296015 0.728573
0.424120 0.329964 0.671342
0.421430 0.356709 0.627591
0.421866 0.390524 0.575363
0.421567 0.421873 0.544235
0.423380 0.455830 0.533220
0.420626 0.482164 0.548466
0.419438 0.513002 0.580843
0.424828 0.546301 0.618171
0.420240 0.581020 0.681493
0.423959 0.607488 0.708106
0.419559 0.638727 0.750601
0.420869 0.672348 0.769158
0.421502 0.703660 0.772386
0.421455 0.733551 0.761929
0.421139 0.766251 0.735713
0.421434 0.794680 0.698145
0.422939 0.831221 0.627858
0.423113 0.858767 0.568538
0.424058 0.892622 0.490075
0.423709 0.921089 0.432553
0.418810 0.952999 0.388502
0.422744 0.985291 0.339503
0.454031 0.017494 0.753819
0.452359 0.045985 0.759935
0.452434 0.077089 0.769148
0.454335 0.107156 0.779276
0.451822 0.141668 0.797178
0.455340 0.170717 0.796596
0.450901 0.203764 0.796302
0.450035 0.237005 0.775830
0.452387 0.265728 0.742905
0.452153 0.295401 0.701399
0.451819 0.330210 0.641489
0.450777 0.360216 0.588741
0.450304 0.390363 0.539003
0.452355 0.419724 0.499277
0.454724 0.454162 0.477537
0.450072 0.486218 0.495873
0.453506 0.514304 0.510813
0.452597 0.545754 0.552022
0.453216 0.579495 0.598153
0.455263 0.607699 0.627525
0.452906 0.639833 0.666376
0.450313 0.669212 0.693742
0.451265 0.703539 0.697807
0.455197 0.733891 0.675341
0.455247 0.764332 0.650334
0.451132 0.795985 0.621142
0.455838 0.828684 0.550527
0.452307 0.859144 0.498089
0.453924 0.893403 0.423455
0.452536 0.919066 0.378796
0.452780 0.953725 0.324237
0.454677 0.986651 0.279648
0.482069 0.013154 0.688439
0.485408 0.048959 0.690459
0.484883 0.079116 0.704726
0.487388 0.106368 0.712925
0.487009 0.138717 0.729079
0.487298 0.172019 0.735991
0.482992 0.204499 0.739713
0.484940 0.236482 0.715441
0.486467 0.266624 0.680916
0.485815 0.297769 0.637698
0.483435 0.328343 0.588596
0.485401 0.358271 0.527470
0.486682 0.390265 0.467123
0.486987 0.420479 0.426099
0.487198 0.450733 0.406059
0.483850 0.486477 0.417564
0.487266 0.514581 0.427035
0.484539 0.547100 0.467454
0.486363 0.580812 0.504633
0.485393 0.607770 0.537694
0.487134 0.641230 0.560603
0.482038 0.670294 0.594524
0.486792 0.701226 0.585213
0.482268 0.736475 0.590326
0.485015 0.766395 0.558848
0.486492 0.797948 0.516584
0.483697 0.830446 0.471917
0.485421 0.856973 0.419370
0.481250 0.891725 0.365723
0.485180 0.921591 0.306776
0.484840 0.950202 0.266035
0.483446 0.986594 0.226736
0.514818 0.016634 0.594334
0.516103 0.044125 0.603573
0.517153 0.076747 0.618974
0.515266 0.107353 0.643003
0.513074 0.143108 0.666548
0.518703 0.172463 0.657226
0.512706 0.204318 0.668237
0.515545 0.234808 0.642932
0.518098 0.265216 0.606551
0.516804 0.295020 0.568403
0.515511 0.326703 0.516008
0.518419 0.357777 0.451318
0.518458 0.390481 0.396022
0.513294 0.424759 0.365180
0.517857 0.451359 0.338550
0.512544 0.486140 0.349910
0.512815 0.518500 0.366269
0.516509 0.547334 0.381099
0.513357 0.575807 0.420158
0.517654 0.609387 0.440027
0.516599 0.640657 0.463737
0.515790 0.669490 0.478663
0.518144 0.704181 0.475851
0.514235 0.733667 0.483595
0.514947 0.767694 0.461286
0.514019 0.794522 0.436948
0.517052 0.829050 0.379426
0.513758 0.861554 0.338712
0.512641 0.888160 0.299617
0.513675 0.921006 0.247438
0.517373 0.954495 0.198362
0.516665 0.984881 0.170533
0.545945 0.013482 0.489172
0.545576 0.044807 0.510579
0.545148 0.079196 0.534863
0.546280 0.111791 0.553348
0.547371 0.139637 0.564087
0.546483 0.173123 0.574171
0.548964 0.204950 0.562342
0.549057 0.233014 0.549059
0.545404 0.263562 0.532936
0.547085 0.294207 0.486820
0.549992 0.329689 0.420953
0.544514 0.357279 0.389114
0.546407 0.392333 0.330647
0.545085 0.421462 0.299918
0.543957 0.455808 0.280622
0.544413 0.482914 0.276437
0.546763 0.517455 0.281999
0.545360 0.545087 0.302531
0.545515 0.577379 0.329059
0.545051 0.612053 0.359271
0.548525 0.641354 0.364631
0.547349 0.670977 0.376311
0.549424 0.701237 0.371222
0.544463 0.736195 0.380073
0.548114 0.762614 0.354791
0.548425 0.794466 0.326908
0.549344 0.829091 0.285534
0.545912 0.858640 0.259533
0.545094 0.889571 0.222274
0.543861 0.924465 0.182067
0.548659 0.952459 0.146638
0.548312 0.986447 0.121864
0.580486 0.013310 0.365271
0.577146 0.049638 0.404843
0.577264 0.077200 0.425826
0.575504 0.109824 0.456744
0.579852 0.142776 0.459640
0.578083 0.173858 0.472460
0.579017 0.202721 0.467663
0.577202 0.233432 0.460695
0.576760 0.268244 0.431260
0.578913 0.298404 0.386960
0.575985 0.329853 0.351481
0.576575 0.360075 0.306031
0.580341 0.389466 0.256902
0.578803 0.419537 0.228505
0.577335 0.450833 0.211115
0.576637 0.482038 0.205303
0.576268 0.517191 0.212676
0.575443 0.546618 0.227664
0.581020 0.576467 0.231174
0.576234 0.610525 0.266878
0.575508 0.642839 0.285317
0.575954 0.669501 0.289656
0.580057 0.705901 0.276405
0.575285 0.731627 0.284727
0.580186 0.763382 0.256354
0.580007 0.795172 0.235185
0.577495 0.828745 0.213145
0.579095 0.856586 0.183872
0.581165 0.892577 0.145464
0.577585 0.918949 0.128614
0.575675 0.956090 0.105594
0.580419 0.985444 0.084475
0.611465 0.013989 0.265629
0.610731 0.047436 0.292037
0.607641 0.076424 0.323292
0.606260 0.109049 0.352421
0.608811 0.143331 0.362859
0.606390 0.171959 0.378576
0.608603 0.205372 0.369092
0.611212 0.235059 0.347429
0.608324 0.266400 0.332818
0.610337 0.297777 0.296334
0.607869 0.325163 0.272748
0.612419 0.357548 0.223437
0.610265 0.391002 0.191857
0.608606 0.419504 0.170428
0.609057 0.450861 0.150661
0.609911 0.484641 0.140130
0.609273 0.518041 0.144995
0.606760 0.546016 0.159042
0.606880 0.576870 0.171059
0.611510 0.611956 0.175913
0.611425 0.643564 0.187396
0.611333 0.673737 0.192306
0.611499 0.702805 0.191520
0.610263 0.735587 0.189683
0.611348 0.765426 0.177876
0.607460 0.796260 0.171082
0.612067 0.827920 0.143076
0.608615 0.859485 0.127281
0.607673 0.893120 0.104590
0.612412 0.919606 0.082648
0.609116 0.954307 0.069660
0.607994 0.983808 0.059751
0.642125 0.012695 0.186153
0.639400 0.044954 0.210590
0.642582 0.076718 0.219416
0.641986 0.108804 0.239308
0.642407 0.142014 0.254804
0.641107 0.172706 0.266840
0.642491 0.200002 0.262568
0.641424 0.233415 0.256025
0.640449 0.265576 0.241336
0.640810 0.295741 0.218840
0.642862 0.325863 0.189061
0.639995 0.358668 0.164980
0.642790 0.387851 0.135591
0.640355 0.423535 0.115441
0.639328 0.456012 0.101679
0.643750 0.487494 0.089423
0.642135 0.514686 0.092371
0.642479 0.544994 0.097824
0.641255 0.578393 0.108426
0.639073 0.607510 0.120085
0.641098 0.640711 0.125088
0.642173 0.672550 0.127674
0.643685 0.704990 0.125538
0.640967 0.732167 0.127941
0.638169 0.765774 0.126073
0.639039 0.797323 0.113857
0.639590 0.829242 0.098969
0.637934 0.861529 0.085321
0.642977 0.889575 0.066303
0.638409 0.923400 0.056289
0.641637 0.952517 0.044505
0.641156 0.984722 0.036680
0.671838 0.016341 0.129068
0.674530 0.047587 0.136338
0.670352 0.075248 0.154870
0.672629 0.108397 0.164731
0.668901 0.138571 0.185081
0.672567 0.171399 0.184549
0.672303 0.204565 0.185640
0.671087 0.233535 0.182353
0.671102 0.263041 0.170866
0.672394 0.296364 0.151017
0.669443 0.327033 0.137394
0.673032 0.359775 0.109617
0.674199 0.390824 0.089006
0.674841 0.419127 0.074238
0.671721 0.450688 0.066238
0.674951 0.484684 0.057954
0.673117 0.513295 0.059239
0.671719 0.544121 0.063217
0.671532 0.580737 0.069429
0.671497 0.611616 0.075358
0.674982 0.640933 0.075997
0.669527 0.674040 0.086419
0.669939 0.704152 0.086644
0.672852 0.737332 0.080543
0.671610 0.763496 0.077987
0.669620 0.795521 0.072652
0.674831 0.828737 0.057676
0.674076 0.856643 0.050316
0.674535 0.893434 0.039475
0.671667 0.920514 0.034504
0.671627 0.952693 0.027991
0.674163 0.982491 0.021963
0.702405 0.017245 0.083702
0.705089 0.047955 0.089298
0.704510 0.079271 0.098730
0.701962 0.107303 0.111209
0.704300 0.143256 0.117506
0.701036 0.168774 0.127430
0.701102 0.201113 0.128539
0.701238 0.235427 0.123400
0.704215 0.265734 0.109911
0.702021 0.296669 0.101818
0.702005 0.325585 0.089489
0.705440 0.359032 0.070438
0.700924 0.391575 0.061225
0.705887 0.424265 0.046562
0.704131 0.451274 0.041666
0.701065 0.481350 0.039930
0.701034 0.513182 0.039034
0.702257 0.547257 0.039301
0.706024 0.576534 0.039196
0.700149 0.606438 0.046825
0.705539 0.643040 0.046130
0.705708 0.672171 0.047836
0.701079 0.703044 0.052539
0.705090 0.737104 0.047584
0.703644 0.765931 0.045793
0.702948 0.798458 0.041285
0.702077 0.826078 0.037069
0.703206 0.858628 0.030585
0.705176 0.893544 0.023710
0.700030 0.920634 0.021694
0.702841 0.955565 0.016444
0.705272 0.982815 0.012971
0.735837 0.017747 0.049287
0.733894 0.048178 0.057616
0.733787 0.078289 0.063374
0.734535 0.106822 0.067941
0.733773 0.142388 0.075356
0.732905 0.170674 0.079854
0.732406 0.204729 0.080938
0.735129 0.235283 0.074741
0.733296 0.263464 0.071882
0.732402 0.296595 0.064799
0.734582 0.326015 0.054620
0.737036 0.358807 0.043577
0.731445 0.388546 0.039541
0.734782 0.424909 0.030023
0.732127 0.452085 0.027253
0.733182 0.483465 0.024030
0.732268 0.514513 0.023341
0.733622 0.547759 0.023074
0.735014 0.575236 0.023562
0.733344 0.606739 0.026080
0.734650 0.640570 0.027309
0.733049 0.670329 0.029316
0.733996 0.704116 0.029165
0.733285 0.731260 0.028950
0.737329 0.763130 0.025270
0.733240 0.799722 0.024182
0.733433 0.826034 0.021541
0.737409 0.856978 0.016952
0.731512 0.893506 0.014932
0.736158 0.920127 0.011499
0.731884 0.951591 0.010091
0.733984 0.982769 0.007735
0.764266 0.015933 0.029673
0.768014 0.049073 0.032392
0.766690 0.078485 0.036556
0.767236 0.111887 0.039623
0.767834 0.142248 0.042233
0.763962 0.174989 0.047681
0.764133 0.202344 0.047864
0.764372 0.235910 0.045956
0.768699 0.267289 0.039408
0.765179 0.297760 0.037565
0.765399 0.325640 0.032973
0.763637 0.361646 0.027535
0.765646 0.393319 0.021572
0.768113 0.420570 0.017395
0.766432 0.456096 0.014849
0.765900 0.486442 0.013369
0.762843 0.513685 0.013429
0.768596 0.548533 0.012083
0.767937 0.575202 0.012676
0.765740 0.608596 0.014061
0.768560 0.638707 0.014173
0.763929 0.672481 0.016391
0.768103 0.703434 0.015305
0.763030 0.736106 0.016401
0.767319 0.766927 0.014121
0.762825 0.799272 0.013977
0.762948 0.831217 0.012197
0.764187 0.859374 0.010117
0.766796 0.892178 0.007682
0.768404 0.923061 0.005989
0.768199 0.951070 0.004954
0.767596 0.983018 0.003929
0.796762 0.018193 0.016304
0.798145 0.046246 0.018423
0.794803 0.080641 0.022375
0.795063 0.109677 0.024194
0.796080 0.139145 0.025318
0.798792 0.170224 0.025137
0.797868 0.202098 0.025816
0.797013 0.234081 0.025484
0.797543 0.266669 0.023541
0.793886 0.298870 0.022593
0.796108 0.328386 0.018814
0.799811 0.360914 0.014259
0.798708 0.392242 0.011818
0.796583 0.421292 0.010248
0.795276 0.454389 0.008755
0.795086 0.485382 0.007774
0.796294 0.514227 0.007116
0.795895 0.545634 0.007076
0.798053 0.580964 0.007034
0.798614 0.611889 0.007350
0.793885 0.643589 0.008640
0.794086 0.671312 0.008984
0.794772 0.704975 0.008965
0.793822 0.735013 0.008875
0.799509 0.763187 0.007402
0.797156 0.794206 0.007060
0.797228 0.827396 0.006170
0.796759 0.858693 0.005248
0.796304 0.890994 0.004251
0.799632 0.923119 0.003158
0.797435 0.950070 0.002732
0.795517 0.983671 0.002162
0.829661 0.016036 0.008265
0.828464 0.045429 0.010131
0.825732 0.076010 0.012264
0.827214 0.111302 0.013379
0.826661 0.138698 0.014314
0.827590 0.172801 0.014523
0.828310 0.200455 0.014305
0.827937 0.233618 0.013990
0.825618 0.265583 0.013828
0.825830 0.295102 0.012531
0.827739 0.327207 0.010257
0.831211 0.361826 0.007689
0.827187 0.390245 0.006938
0.830010 0.424889 0.005260
0.826883 0.453604 0.004755
0.828450 0.482145 0.004082
0.828166 0.515624 0.003749
0.829560 0.544266 0.003549
0.826357 0.576081 0.003892
0.827408 0.608591 0.004011
0.826652 0.638529 0.004279
0.830353 0.670284 0.004046
0.830584 0.704945 0.004038
0.831026 0.732817 0.003927
0.826776 0.765936 0.004059
0.829493 0.796971 0.003436
0.828041 0.827199 0.003110
0.830365 0.858826 0.002493
0.825128 0.893223 0.002252
0.830997 0.922304 0.001623
0.831237 0.952503 0.001299
0.828673 0.986290 0.001019
0.858801 0.012771 0.004337
0.859659 0.044563 0.005190
0.859842 0.081058 0.006034
0.860508 0.107545 0.006529
0.859774 0.142692 0.007259
0.858080 0.170663 0.007779
0.862362 0.206156 0.007048
0.859898 0.233330 0.007200
0.859510 0.263015 0.006856
0.861298 0.298010 0.005857
0.859967 0.326276 0.005256
0.857503 0.357275 0.004644
0.858005 0.388734 0.003772
0.861207 0.424199 0.002782
0.861183 0.450567 0.002383
0.857250 0.482794 0.002225
0.861009 0.515732 0.001841
0.858699 0.549175 0.001876
0.858329 0.578729 0.001927
0.861126 0.612417 0.001873
0.862215 0.642642 0.001871
0.861106 0.673040 0.001948
0.861512 0.703925 0.001941
0.861052 0.733729 0.001942
0.859908 0.765125 0.001899
0.861260 0.796736 0.001661
0.860567 0.830085 0.001455
0.859693 0.858092 0.001275
0.859919 0.890465 0.001037
0.861866 0.921433 0.000809
0.857874 0.952900 0.000711
0.856250 0.985363 0.000554
0.888074 0.016014 0.002336
0.891744 0.047923 0.002578
0.892158 0.079078 0.002897
0.893637 0.107998 0.003093
0.892392 0.137532 0.003447
0.888043 0.169120 0.004009
0.893292 0.201342 0.003590
0.892383 0.232835 0.003555
0.889291 0.267114 0.003533
0.889349 0.296707 0.003175
0.893187 0.330769 0.002477
0.893074 0.357817 0.002132
0.892203 0.391774 0.001751
0.890426 0.421712 0.001502
0.888805 0.453165 0.001293
0.893111 0.486469 0.000980
0.893492 0.518582 0.000867
0.893240 0.544679 0.000843
0.889143 0.577478 0.000933
0.892322 0.611066 0.000890
0.892348 0.640340 0.000915
0.890117 0.672727 0.000988
0.891544 0.704638 0.000964
0.892684 0.732951 0.000921
0.892376 0.763628 0.000877
0.888250 0.798673 0.000870
0.893699 0.825483 0.000681
0.890156 0.861507 0.000610
0.891460 0.893405 0.000485
0.890190 0.924662 0.000409
0.892491 0.952357 0.000318
0.889042 0.986429 0.000254
0.919010 0.013929 0.001137
0.919338 0.049134 0.001412
0.919022 0.080967 0.001630
0.923901 0.111681 0.001619
0.921950 0.142188 0.001803
0.924989 0.171359 0.001759
0.920073 0.202523 0.001991
0.919431 0.233513 0.001976
0.919355 0.263775 0.001850
0.921169 0.298897 0.001554
0.924370 0.331036 0.001235
0.923857 0.358855 0.001065
0.923859 0.392031 0.000861
0.921616 0.421344 0.000753
0.922454 0.453771 0.000605
0.922922 0.487421 0.000495
0.923369 0.512526 0.000445
0.922659 0.544564 0.000424
0.924351 0.579236 0.000404
0.920802 0.607730 0.000452
0.921572 0.641755 0.000464
0.920368 0.669662 0.000488
0.923149 0.703742 0.000460
0.923069 0.731711 0.000447
0.924248 0.763769 0.000404
0.920105 0.798329 0.000401
0.923660 0.830989 0.000319
0.923222 0.860878 0.000276
0.919970 0.888847 0.000254
0.918878 0.923995 0.000209
0.923505 0.951366 0.000153
0.921376 0.982942 0.000120
0.954230 0.017724 0.000528
0.950316 0.047643 0.000717
0.953961 0.077861 0.000779
0.950685 0.110783 0.000939
0.950109 0.140080 0.001011
0.953364 0.169389 0.000981
0.954002 0.202724 0.000980
0.950174 0.232765 0.001034
0.952062 0.266449 0.000914
0.952349 0.297154 0.000806
0.954805 0.325493 0.000674
0.954767 0.356552 0.000570
0.951154 0.390440 0.000492
0.955241 0.420865 0.000371
0.952302 0.455336 0.000314
0.954917 0.482991 0.000254
0.955096 0.516896 0.000221
0.955612 0.549190 0.000203
0.952580 0.576137 0.000214
0.953465 0.609568 0.000216
0.952194 0.642033 0.000231
0.956075 0.670221 0.000216
0.950880 0.701486 0.000243
0.955010 0.736389 0.000212
0.952506 0.767924 0.000207
0.953765 0.793992 0.000184
0.954720 0.828048 0.000156
0.956116 0.858470 0.000130
0.954562 0.888532 0.000114
0.955493 0.920690 0.000090
0.954235 0.950940 0.000074
0.951799 0.986917 0.000055
0.981389 0.016198 0.000289
0.987154 0.048933 0.000342
0.984801 0.076321 0.000422
0.981440 0.109888 0.000523
0.985260 0.138469 0.000526
0.981677 0.170672 0.000581
0.984839 0.202304 0.000546
0.982563 0.231469 0.000550
0.985981 0.262908 0.000475
0.982971 0.298566 0.000445
0.983589 0.326893 0.000391
0.983465 0.362295 0.000321
0.985139 0.391861 0.000256
0.983416 0.419715 0.000218
0.984475 0.453534 0.000169
0.985603 0.485556 0.000137
0.986298 0.515368 0.000119
0.985851 0.544761 0.000112
0.983299 0.575078 0.000114
0.984004 0.611284 0.000114
0.987082 0.641022 0.000109
0.984794 0.672348 0.000117
0.987424 0.704553 0.000110
0.981945 0.734443 0.000121
0.984028 0.765467 0.000108
0.984656 0.797407 0.000095
0.982178 0.829535 0.000087
0.984534 0.858407 0.000072
0.984924 0.887706 0.000060
0.986931 0.923485 0.000044
0.984425 0.952557 0.000037
0.984145 0.982266 0.000027
