x  y  phi
0.012500 0.013322 0.064618
0.017223 0.046617 0.077143
0.015830 0.076368 0.083014
0.012794 0.110493 0.088338
0.016746 0.143342 0.096469
0.014897 0.171996 0.099562
0.017694 0.200216 0.104232
0.012834 0.234561 0.104055
0.016695 0.262548 0.108701
0.014896 0.294168 0.112207
0.015109 0.329292 0.122825
0.016181 0.362065 0.139965
0.017789 0.390793 0.160877
0.013075 0.422837 0.187492
0.015100 0.454382 0.227732
0.018190 0.486014 0.275622
0.014140 0.512797 0.313419
0.017101 0.545801 0.367733
0.016454 0.579728 0.419792
0.018694 0.608533 0.458759
0.014044 0.643641 0.492587
0.017017 0.673458 0.513117
0.016572 0.700454 0.518993
0.016448 0.736779 0.509919
0.014204 0.765228 0.488851
0.017291 0.796736 0.458784
0.013986 0.826718 0.418824
0.014745 0.857291 0.373658
0.015541 0.893110 0.319228
0.018183 0.919129 0.287487
0.018154 0.953153 0.252735
0.015727 0.983244 0.223749
0.049917 0.015587 0.088626
0.045413 0.044317 0.093392
0.049674 0.075461 0.103878
0.046879 0.108651 0.109111
0.045482 0.143211 0.114184
0.047061 0.171653 0.119688
0.049631 0.200313 0.125543
0.048509 0.236064 0.127891
0.048924 0.263284 0.130297
0.043849 0.298053 0.131745
0.049177 0.328935 0.145178
0.048351 0.360784 0.160159
0.049997 0.393054 0.183485
0.045207 0.420665 0.205995
0.045944 0.453208 0.247066
0.047444 0.486537 0.296398
0.046326 0.517759 0.342651
0.045433 0.546346 0.387159
0.047108 0.577924 0.436938
0.045545 0.607365 0.474255
0.044711 0.641073 0.508860
0.048765 0.668957 0.530985
0.047090 0.703116 0.538093
0.049721 0.735927 0.532355
0.047216 0.768067 0.508398
0.047655 0.799013 0.477192
0.044749 0.826330 0.440659
0.048217 0.857065 0.398680
0.044319 0.889216 0.346391
0.043769 0.921339 0.303400
0.043918 0.954436 0.270737
0.049612 0.982749 0.253805
0.076131 0.014485 0.111283
0.080544 0.047825 0.126302
0.075940 0.079258 0.129234
0.077411 0.108673 0.137963
0.078123 0.138422 0.144877
0.078670 0.174035 0.151336
0.078688 0.205971 0.154833
0.078476 0.232176 0.156418
0.081146 0.265055 0.161698
0.075886 0.297281 0.159963
0.076576 0.328053 0.169301
0.077900 0.362257 0.186834
0.075788 0.388748 0.202490
0.076995 0.422683 0.236584
0.075792 0.454070 0.275900
0.078885 0.486269 0.325500
0.076549 0.515478 0.366703
0.077433 0.545020 0.414845
0.075177 0.580635 0.467897
0.077666 0.607138 0.505773
0.080922 0.640064 0.543635
0.075820 0.674285 0.559011
0.075576 0.701014 0.564402
0.075444 0.733533 0.558150
0.076582 0.763344 0.541490
0.079895 0.796596 0.513355
0.077185 0.827827 0.470861
0.080056 0.862073 0.423814
0.079073 0.888845 0.382651
0.079247 0.924431 0.335272
0.076563 0.955380 0.300732
0.077945 0.984412 0.280268
0.110002 0.017610 0.156804
0.110974 0.046639 0.167462
0.112196 0.078955 0.178506
0.108996 0.111404 0.182083
0.110556 0.141889 0.191580
0.112420 0.174715 0.199594
0.111570 0.201808 0.200327
0.109609 0.234465 0.199022
0.106896 0.265088 0.196586
0.109854 0.299229 0.204732
0.109000 0.329561 0.210812
0.111683 0.360723 0.227787
0.111255 0.391916 0.248165
0.110886 0.418869 0.274746
0.111788 0.453281 0.320228
0.109146 0.481657 0.356838
0.110709 0.515556 0.411184
0.110423 0.548013 0.464607
0.107497 0.580729 0.512011
0.111662 0.611813 0.557928
0.109650 0.638370 0.581004
0.109065 0.674934 0.603098
0.107597 0.702788 0.606472
0.108223 0.734467 0.601132
0.111759 0.765248 0.587629
0.109172 0.798792 0.550651
0.108532 0.826322 0.514212
0.112494 0.857210 0.473547
0.110191 0.891352 0.419000
0.106254 0.918755 0.376670
0.111083 0.954546 0.344918
0.108245 0.983861 0.318128
0.141766 0.016754 0.212809
0.138783 0.048978 0.215612
0.141931 0.080179 0.230262
0.138091 0.106761 0.231008
0.142275 0.141435 0.247548
0.138837 0.170085 0.245129
0.138007 0.202430 0.246635
0.143451 0.237172 0.259437
0.139937 0.264183 0.253441
0.141826 0.295525 0.258495
0.142355 0.329899 0.264488
0.140140 0.358013 0.269794
0.138712 0.387571 0.285113
0.138699 0.424895 0.322060
0.139025 0.455123 0.361182
0.138353 0.483738 0.401719
0.141256 0.513606 0.454287
0.142677 0.544736 0.509076
0.143675 0.576607 0.561510
0.138960 0.606885 0.594018
0.138871 0.641467 0.628169
0.141850 0.673717 0.653429
0.141852 0.704706 0.659320
0.141685 0.735209 0.651315
0.137853 0.766239 0.625619
0.138919 0.795742 0.598309
0.141874 0.825734 0.563798
0.142266 0.859538 0.512484
0.140962 0.891175 0.462569
0.139560 0.923144 0.417926
0.138394 0.951011 0.387027
0.140533 0.986626 0.362313
0.173833 0.015980 0.281394
0.173369 0.045725 0.286945
0.169596 0.078303 0.287331
0.170692 0.109926 0.300675
0.171988 0.140193 0.311136
0.170368 0.171064 0.311457
0.171206 0.202793 0.316316
0.171724 0.233674 0.318189
0.170496 0.262989 0.314596
0.171061 0.295337 0.315603
0.172949 0.329226 0.321572
0.171962 0.360804 0.327387
0.173255 0.393405 0.347810
0.171629 0.424626 0.373275
0.170760 0.452878 0.405894
0.171982 0.485383 0.455064
0.171261 0.516285 0.504163
0.174916 0.544690 0.556316
0.172938 0.577149 0.604825
0.172136 0.609518 0.646993
0.173933 0.637593 0.678749
0.170464 0.672769 0.697076
0.172163 0.705737 0.704948
0.170416 0.737313 0.692450
0.170292 0.767775 0.671260
0.173088 0.796598 0.647066
0.173857 0.825138 0.611393
0.169755 0.860668 0.550001
0.173174 0.890229 0.509056
0.172390 0.923448 0.463874
0.174947 0.954348 0.436721
0.170497 0.985962 0.407424
0.201070 0.012527 0.346373
0.203098 0.044249 0.360421
0.201019 0.080646 0.366606
0.204894 0.110917 0.387045
0.202728 0.137540 0.387321
0.203655 0.171990 0.393684
0.200418 0.203400 0.386600
0.202436 0.232599 0.390120
0.202411 0.266418 0.385558
0.204119 0.298183 0.384686
0.203367 0.326752 0.381020
0.205100 0.358574 0.387755
0.204288 0.389439 0.398259
0.200058 0.419399 0.413095
0.203256 0.454849 0.457230
0.201379 0.481595 0.491853
0.200441 0.513502 0.540296
0.204524 0.545606 0.596785
0.200316 0.577986 0.642171
0.202857 0.609500 0.688290
0.202791 0.638439 0.718613
0.201787 0.673961 0.740393
0.204348 0.703611 0.748216
0.204257 0.733320 0.739506
0.200359 0.768668 0.709430
0.203390 0.793760 0.688082
0.205351 0.825183 0.651036
0.202360 0.859310 0.594444
0.203601 0.892118 0.543839
0.204246 0.922102 0.504040
0.200222 0.950766 0.470694
0.206083 0.982427 0.455192
0.233446 0.016338 0.437032
0.235048 0.044537 0.449586
0.234705 0.080963 0.459027
0.233481 0.111488 0.462902
0.237339 0.139119 0.478035
0.232822 0.171402 0.470360
0.236332 0.205612 0.479070
0.232779 0.236004 0.464613
0.235593 0.265324 0.461898
0.232898 0.297909 0.444419
0.231979 0.326310 0.435776
0.231960 0.359669 0.435468
0.231288 0.388600 0.442390
0.234996 0.421449 0.468796
0.231766 0.454296 0.497184
0.233596 0.486476 0.541703
0.232023 0.518583 0.587705
0.231435 0.544252 0.626948
0.234339 0.579809 0.684993
0.237088 0.607813 0.724672
0.233498 0.642307 0.755399
0.234375 0.673433 0.774099
0.235449 0.704260 0.779174
0.235980 0.731477 0.772304
0.232691 0.763885 0.747198
0.234766 0.797829 0.713523
0.235104 0.827322 0.675667
0.232655 0.857711 0.627088
0.235331 0.888537 0.579969
0.235901 0.919748 0.536893
0.231548 0.954137 0.498253
0.232031 0.987182 0.476895
0.265526 0.016382 0.526447
0.268213 0.043862 0.538736
0.266210 0.079512 0.541114
0.265604 0.106586 0.544286
0.265260 0.140745 0.549205
0.267325 0.169158 0.557517
0.265267 0.206107 0.549092
0.265423 0.233307 0.540702
0.265287 0.267145 0.524864
0.263783 0.294821 0.508419
0.264828 0.330873 0.497108
0.268530 0.357843 0.498722
0.262940 0.388274 0.492446
0.265790 0.419751 0.510650
0.265736 0.450657 0.535756
0.267760 0.483554 0.574996
0.265149 0.514545 0.615395
0.266960 0.547355 0.665879
0.267949 0.579739 0.712982
0.267729 0.610624 0.749788
0.264932 0.643345 0.777671
0.266285 0.671013 0.792949
0.265872 0.702844 0.797275
0.265011 0.732753 0.789252
0.263019 0.765135 0.766215
0.265452 0.795561 0.734943
0.263156 0.826352 0.693451
0.267513 0.859546 0.644492
0.266680 0.892898 0.592428
0.264023 0.923197 0.550365
0.264148 0.952393 0.520936
0.263006 0.984124 0.499124
0.295205 0.017471 0.600211
0.296821 0.043770 0.606055
0.295413 0.079154 0.608360
0.296407 0.107418 0.615246
0.299772 0.138338 0.627065
0.298724 0.174663 0.625320
0.294820 0.203788 0.611155
0.294149 0.233422 0.598012
0.295578 0.265685 0.583609
0.298911 0.298965 0.569988
0.298290 0.327059 0.554283
0.298763 0.360199 0.542485
0.294033 0.387759 0.533763
0.294708 0.423544 0.544159
0.294136 0.453246 0.563611
0.299557 0.482628 0.595658
0.295029 0.513056 0.631801
0.298123 0.548165 0.681772
0.296841 0.576636 0.719215
0.298197 0.608615 0.755232
0.295004 0.638954 0.781595
0.296476 0.671684 0.798789
0.299132 0.706108 0.802060
0.296528 0.731464 0.795280
0.297024 0.762698 0.775021
0.298457 0.797447 0.738370
0.298893 0.827060 0.698444
0.295200 0.859603 0.648983
0.296441 0.890022 0.602285
0.299921 0.924793 0.555357
0.299066 0.955422 0.525931
0.295698 0.982177 0.508940
0.331235 0.016497 0.675914
0.327925 0.049574 0.668097
0.329317 0.080096 0.672288
0.328385 0.109830 0.674049
0.325995 0.143408 0.673307
0.330133 0.169721 0.677866
0.325257 0.202148 0.662960
0.325688 0.231853 0.651052
0.328242 0.262640 0.636629
0.328509 0.299105 0.610722
0.328231 0.329216 0.589822
0.329607 0.360615 0.574408
0.325142 0.388700 0.562934
0.329194 0.420912 0.566633
0.325414 0.450879 0.577788
0.330757 0.482635 0.603349
0.327376 0.516163 0.640253
0.326046 0.543915 0.676017
0.329320 0.579765 0.719293
0.329461 0.606733 0.747013
0.328686 0.643284 0.776380
0.330811 0.671440 0.788582
0.328162 0.705195 0.793220
0.330745 0.735010 0.782730
0.329524 0.765746 0.762129
0.328068 0.794759 0.732667
0.331101 0.828590 0.685821
0.326708 0.859571 0.640936
0.329366 0.891669 0.591144
0.325609 0.922180 0.552187
0.328817 0.954175 0.519275
0.328095 0.984822 0.500055
0.359931 0.015258 0.715684
0.357195 0.046889 0.708084
0.360821 0.075198 0.711445
0.356573 0.109513 0.709383
0.358254 0.137719 0.712067
0.357782 0.169420 0.709515
0.358644 0.203449 0.701614
0.359982 0.235069 0.687708
0.362095 0.267325 0.667032
0.359457 0.296792 0.640509
0.360313 0.329356 0.613743
0.358797 0.359293 0.592518
0.359249 0.391940 0.577414
0.359589 0.420479 0.573035
0.360035 0.451751 0.579419
0.360646 0.484566 0.598219
0.362114 0.513971 0.623590
0.358834 0.547484 0.663891
0.361144 0.580752 0.700187
0.360509 0.611382 0.729690
0.359546 0.638939 0.750857
0.357148 0.674372 0.769275
0.357821 0.704072 0.770927
0.356280 0.737100 0.762039
0.357971 0.767867 0.738202
0.357993 0.799703 0.704102
0.359418 0.825768 0.667770
0.358853 0.860640 0.616315
0.358978 0.888173 0.575324
0.361039 0.919374 0.531442
0.359008 0.952154 0.499732
0.358107 0.985985 0.477945
0.389616 0.014567 0.734469
0.387848 0.047332 0.728228
0.390533 0.076266 0.728651
0.388215 0.112340 0.729903
0.392904 0.140574 0.731352
0.389796 0.173781 0.726928
0.388514 0.200997 0.718471
0.387861 0.232183 0.702262
0.390426 0.264879 0.678906
0.393023 0.296401 0.650935
0.390077 0.329071 0.620339
0.389427 0.356626 0.597545
0.392590 0.393110 0.573193
0.393247 0.424383 0.563133
0.392313 0.451067 0.564500
0.391078 0.481446 0.576288
0.392520 0.515764 0.598694
0.392885 0.545482 0.626826
0.392934 0.578668 0.661337
0.389932 0.611324 0.695009
0.390785 0.643374 0.715629
0.390125 0.672374 0.728254
0.392182 0.705505 0.726975
0.389613 0.732435 0.722507
0.392145 0.766993 0.695036
0.392995 0.794205 0.666179
0.391938 0.830494 0.620258
0.389746 0.856812 0.585331
0.388506 0.890105 0.538523
0.388103 0.922967 0.496262
0.391016 0.955082 0.461441
0.392989 0.986059 0.438170
0.422720 0.018103 0.727683
0.424240 0.046790 0.722755
0.419457 0.077359 0.725307
0.421141 0.110547 0.726625
0.419511 0.137980 0.728072
0.419646 0.171735 0.724119
0.423179 0.201488 0.712514
0.421194 0.237349 0.692676
0.422680 0.266757 0.669133
0.424429 0.296015 0.641162
0.424120 0.329964 0.607078
0.421430 0.356709 0.583805
0.421866 0.390524 0.557220
0.421567 0.421873 0.542703
0.423380 0.455830 0.537277
0.420626 0.482164 0.546310
0.419438 0.513002 0.563766
0.424828 0.546301 0.581823
0.420240 0.581020 0.620900
0.423959 0.607488 0.635974
0.419559 0.638727 0.665411
0.420869 0.672348 0.676779
0.421502 0.703660 0.677082
0.421455 0.733551 0.667150
0.421139 0.766251 0.645595
0.421434 0.794680 0.616940
0.422939 0.831221 0.566719
0.423113 0.858767 0.527427
0.424058 0.892622 0.478398
0.423709 0.921089 0.445193
0.418810 0.952999 0.423896
0.422744 0.985291 0.396298
0.454031 0.017494 0.698010
0.452359 0.045985 0.697094
0.452434 0.077089 0.696915
0.454335 0.107156 0.696398
0.451822 0.141668 0.700845
0.455340 0.170717 0.693286
0.450901 0.203764 0.687875
0.450035 0.237005 0.669574
0.452387 0.265728 0.644942
0.452153 0.295401 0.617662
0.451819 0.330210 0.581833
0.450777 0.360216 0.553026
0.450304 0.390363 0.527186
0.452355 0.419724 0.505942
0.454724 0.454162 0.493467
0.450072 0.486218 0.504717
0.453506 0.514304 0.509328
0.452597 0.545754 0.530844
0.453216 0.579495 0.555726
0.455263 0.607699 0.571532
0.452906 0.639833 0.596083
0.450313 0.669212 0.614025
0.451265 0.703539 0.614231
0.455197 0.733891 0.594692
0.455247 0.764332 0.574921
0.451132 0.795985 0.554355
0.455838 0.828684 0.504449
0.452307 0.859144 0.471653
0.453924 0.893403 0.424988
0.452536 0.919066 0.399364
0.452780 0.953725 0.368511
0.454677 0.986651 0.343244
0.482069 0.013154 0.653711
0.485408 0.048959 0.645438
0.484883 0.079116 0.647388
0.487388 0.106368 0.644766
0.487009 0.138717 0.646835
0.487298 0.172019 0.643409
0.482992 0.204499 0.640985
0.484940 0.236482 0.619908
0.486467 0.266624 0.594667
0.485815 0.297769 0.566912
0.483435 0.328343 0.538507
0.485401 0.358271 0.503093
0.486682 0.390265 0.469752
0.486987 0.420479 0.447591
0.487198 0.450733 0.436362
0.483850 0.486477 0.443163
0.487266 0.514581 0.444102
0.484539 0.547100 0.465435
0.486363 0.580812 0.483556
0.485393 0.607770 0.502013
0.487134 0.641230 0.513130
0.482038 0.670294 0.535287
0.486792 0.701226 0.525103
0.482268 0.736475 0.527299
0.485015 0.766395 0.503067
0.486492 0.797948 0.472729
0.483697 0.830446 0.443449
0.485421 0.856973 0.408874
0.481250 0.891725 0.377267
0.485180 0.921591 0.339289
0.484840 0.950202 0.314856
0.483446 0.986594 0.293031
0.514818 0.016634 0.583692
0.516103 0.044125 0.581833
0.517153 0.076747 0.582743
0.515266 0.107353 0.590179
0.513074 0.143108 0.596259
0.518703 0.172463 0.581159
0.512706 0.204318 0.584329
0.515545 0.234808 0.562898
0.518098 0.265216 0.536521
0.516804 0.295020 0.512341
0.515511 0.326703 0.481293
0.518419 0.357777 0.442793
0.518458 0.390481 0.412441
0.513294 0.424759 0.398810
0.517857 0.451359 0.380830
0.512544 0.486140 0.388605
0.512815 0.518500 0.394716
0.516509 0.547334 0.398224
0.513357 0.575807 0.420309
0.517654 0.609387 0.427044
0.516599 0.640657 0.439368
0.515790 0.669490 0.446928
0.518144 0.704181 0.441611
0.514235 0.733667 0.445865
0.514947 0.767694 0.428675
0.514019 0.794522 0.411446
0.517052 0.829050 0.371451
0.513758 0.861554 0.345924
0.512641 0.888160 0.321295
0.513675 0.921006 0.287170
0.517373 0.954495 0.253115
0.516665 0.984881 0.235565
0.545945 0.013482 0.504894
0.545576 0.044807 0.510415
0.545148 0.079196 0.517112
0.546280 0.111791 0.519343
0.547371 0.139637 0.518202
0.546483 0.173123 0.517237
0.548964 0.204950 0.503314
0.549057 0.233014 0.491622
0.545404 0.263562 0.480590
0.547085 0.294207 0.450203
0.549992 0.329689 0.408822
0.544514 0.357279 0.393170
0.546407 0.392333 0.358877
0.545085 0.421462 0.342344
0.543957 0.455808 0.331307
0.544413 0.482914 0.326871
0.546763 0.517455 0.325244
0.545360 0.545087 0.335545
0.545515 0.577379 0.348527
0.545051 0.612053 0.364210
0.548525 0.641354 0.363548
0.547349 0.670977 0.369160
0.549424 0.701237 0.362743
0.544463 0.736195 0.367635
0.548114 0.762614 0.347885
0.548425 0.794466 0.327159
0.549344 0.829091 0.297497
0.545912 0.858640 0.280601
0.545094 0.889571 0.255386
0.543861 0.924465 0.228302
0.548659 0.952459 0.201073
0.548312 0.986447 0.183448
0.580486 0.013310 0.405320
0.577146 0.049638 0.425044
0.577264 0.077200 0.432499
0.575504 0.109824 0.445259
0.579852 0.142776 0.437295
0.578083 0.173858 0.440174
0.579017 0.202721 0.432631
0.577202 0.233432 0.425697
0.576760 0.268244 0.404938
0.578913 0.298404 0.375333
0.575985 0.329853 0.354524
0.576575 0.360075 0.326620
0.580341 0.389466 0.294498
0.578803 0.419537 0.277841
0.577335 0.450833 0.267339
0.576637 0.482038 0.262295
0.576268 0.517191 0.264080
0.575443 0.546618 0.271465
0.581020 0.576467 0.267957
0.576234 0.610525 0.290833
0.575508 0.642839 0.301008
0.575954 0.669501 0.301834
0.580057 0.705901 0.288808
0.575285 0.731627 0.294266
0.580186 0.763382 0.271151
0.580007 0.795172 0.254524
0.577495 0.828745 0.238140
0.579095 0.856586 0.215629
0.581165 0.892577 0.185744
0.577585 0.918949 0.174390
0.575675 0.956090 0.157958
0.580419 0.985444 0.139361
0.611465 0.013989 0.319253
0.610731 0.047436 0.332096
0.607641 0.076424 0.349820
0.606260 0.109049 0.363319
0.608811 0.143331 0.362429
0.606390 0.171959 0.369301
0.608603 0.205372 0.358407
0.611212 0.235059 0.340800
0.608324 0.266400 0.330483
0.610337 0.297777 0.305048
0.607869 0.325163 0.290386
0.612419 0.357548 0.255964
0.610265 0.391002 0.236162
0.608606 0.419504 0.222463
0.609057 0.450861 0.207527
0.609911 0.484641 0.197356
0.609273 0.518041 0.198910
0.606760 0.546016 0.208433
0.606880 0.576870 0.214403
0.611510 0.611956 0.213092
0.611425 0.643564 0.219528
0.611333 0.673737 0.221465
0.611499 0.702805 0.219299
0.610263 0.735587 0.216702
0.611348 0.765426 0.206251
0.607460 0.796260 0.200656
0.612067 0.827920 0.176723
0.608615 0.859485 0.164050
0.607673 0.893120 0.145190
0.612412 0.919606 0.125166
0.609116 0.954307 0.115278
0.607994 0.983808 0.107301
0.642125 0.012695 0.245596
0.639400 0.044954 0.260373
0.642582 0.076718 0.260704
0.641986 0.108804 0.270300
0.642407 0.142014 0.276539
0.641107 0.172706 0.282080
0.642491 0.200002 0.276385
0.641424 0.233415 0.270017
0.640449 0.265576 0.258754
0.640810 0.295741 0.242216
0.642862 0.325863 0.220115
0.639995 0.358668 0.203675
0.642790 0.387851 0.180830
0.640355 0.423535 0.166264
0.639328 0.456012 0.154901
0.643750 0.487494 0.141434
0.642135 0.514686 0.143197
0.642479 0.544994 0.146028
0.641255 0.578393 0.153098
0.639073 0.607510 0.161431
0.641098 0.640711 0.163236
0.642173 0.672550 0.163754
0.643685 0.704990 0.160477
0.640967 0.732167 0.162016
0.638169 0.765774 0.159816
0.639039 0.797323 0.148274
0.639590 0.829242 0.134347
0.637934 0.861529 0.121893
0.642977 0.889575 0.102942
0.638409 0.923400 0.094236
0.641637 0.952517 0.082009
0.641156 0.984722 0.074340
0.671838 0.016341 0.186257
0.674530 0.047587 0.187676
0.670352 0.075248 0.201093
0.672629 0.108397 0.204420
0.668901 0.138571 0.218067
0.672567 0.171399 0.214065
0.672303 0.204565 0.213026
0.671087 0.233535 0.209501
0.671102 0.263041 0.199801
0.672394 0.296364 0.183602
0.669443 0.327033 0.173479
0.673032 0.359775 0.150021
0.674199 0.390824 0.132177
0.674841 0.419127 0.118797
0.671721 0.450688 0.112160
0.674951 0.484684 0.102804
0.673117 0.513295 0.103650
0.671719 0.544121 0.106319
0.671532 0.580737 0.110249
0.671497 0.611616 0.114417
0.674982 0.640933 0.113198
0.669527 0.674040 0.122806
0.669939 0.704152 0.122119
0.672852 0.737332 0.115048
0.671610 0.763496 0.112018
0.669620 0.795521 0.106180
0.674831 0.828737 0.089881
0.674076 0.856643 0.082040
0.674535 0.893434 0.070156
0.671667 0.920514 0.065125
0.671627 0.952693 0.057840
0.674163 0.982491 0.050228
0.702405 0.017245 0.134719
0.705089 0.047955 0.136801
0.704510 0.079271 0.143207
0.701962 0.107303 0.152696
0.704300 0.143256 0.155080
0.701036 0.168774 0.162725
0.701102 0.201113 0.162246
0.701238 0.235427 0.156761
0.704215 0.265734 0.144061
0.702021 0.296669 0.137006
0.702005 0.325585 0.125970
0.705440 0.359032 0.107861
0.700924 0.391575 0.100132
0.705887 0.424265 0.084413
0.704131 0.451274 0.079558
0.701065 0.481350 0.078094
0.701034 0.513182 0.076353
0.702257 0.547257 0.074917
0.706024 0.576534 0.072832
0.700149 0.606438 0.081013
0.705539 0.643040 0.078329
0.705708 0.672171 0.079425
0.701079 0.703044 0.084354
0.705090 0.737104 0.077928
0.703644 0.765931 0.075548
0.702948 0.798458 0.069934
0.702077 0.826078 0.064797
0.703206 0.858628 0.056796
0.705176 0.893544 0.048042
0.700030 0.920634 0.046064
0.702841 0.955565 0.038923
0.705272 0.982815 0.033785
0.735837 0.017747 0.090583
0.733894 0.048178 0.098542
0.733787 0.078289 0.102947
0.734535 0.106822 0.105795
0.733773 0.142388 0.111469
0.732905 0.170674 0.114923
0.732406 0.204729 0.115071
0.735129 0.235283 0.108135
0.733296 0.263464 0.105143
0.732402 0.296595 0.097974
0.734582 0.326015 0.087338
0.737036 0.358807 0.075453
0.731445 0.388546 0.072056
0.734782 0.424909 0.060844
0.732127 0.452085 0.057965
0.733182 0.483465 0.053493
0.732268 0.514513 0.052117
0.733622 0.547759 0.050571
0.735014 0.575236 0.050160
0.733344 0.606739 0.052652
0.734650 0.640570 0.053268
0.733049 0.670329 0.055391
0.733996 0.704116 0.054606
0.733285 0.731260 0.054010
0.737329 0.763130 0.048682
0.733240 0.799722 0.047132
0.733433 0.826034 0.043382
0.737409 0.856978 0.036602
0.731512 0.893506 0.033982
0.736158 0.920127 0.028527
0.731884 0.951591 0.026755
0.733984 0.982769 0.022805
0.764266 0.015933 0.062035
0.768014 0.049073 0.063901
0.766690 0.078485 0.068193
0.767236 0.111887 0.070510
0.767834 0.142248 0.072472
0.763962 0.174989 0.078226
0.764133 0.202344 0.077965
0.764372 0.235910 0.075396
0.768699 0.267289 0.067355
0.765179 0.297760 0.065416
0.765399 0.325640 0.060022
0.763637 0.361646 0.053637
0.765646 0.393319 0.045894
0.768113 0.420570 0.040120
0.766432 0.456096 0.036762
0.765900 0.486442 0.034462
0.762843 0.513685 0.034516
0.768596 0.548533 0.031266
0.767937 0.575202 0.031695
0.765740 0.608596 0.033286
0.768560 0.638707 0.032815
0.763929 0.672481 0.036005
0.768103 0.703434 0.033902
0.763030 0.736106 0.035432
0.767319 0.766927 0.031595
0.762825 0.799272 0.031371
0.762948 0.831217 0.028434
0.764187 0.859374 0.024896
0.766796 0.892178 0.020553
0.768404 0.923061 0.017418
0.768199 0.951070 0.015515
0.767596 0.983018 0.013546
0.796762 0.018193 0.039345
0.798145 0.046246 0.041916
0.794803 0.080641 0.047178
0.795063 0.109677 0.048971
0.796080 0.139145 0.049714
0.798792 0.170224 0.048730
0.797868 0.202098 0.049276
0.797013 0.234081 0.048660
0.797543 0.266669 0.045975
0.793886 0.298870 0.044872
0.796108 0.328386 0.039511
0.799811 0.360914 0.032678
0.798708 0.392242 0.029144
0.796583 0.421292 0.026929
0.795276 0.454389 0.024639
0.795086 0.485382 0.022926
0.796294 0.514227 0.021462
0.795895 0.545634 0.021032
0.798053 0.580964 0.020368
0.798614 0.611889 0.020535
0.793885 0.643589 0.022683
0.794086 0.671312 0.023044
0.794772 0.704975 0.022729
0.793822 0.735013 0.022397
0.799509 0.763187 0.019469
0.797156 0.794206 0.018767
0.797228 0.827396 0.016989
0.796759 0.858693 0.015148
0.796304 0.890994 0.013111
0.799632 0.923119 0.010703
0.797435 0.950070 0.009828
0.795517 0.983671 0.008559
0.829661 0.016036 0.023551
0.828464 0.045429 0.026673
0.825732 0.076010 0.030068
0.827214 0.111302 0.031337
0.826661 0.138698 0.032480
0.827590 0.172801 0.032372
0.828310 0.200455 0.031769
0.827937 0.233618 0.031124
0.825618 0.265583 0.030899
0.825830 0.295102 0.028822
0.827739 0.327207 0.025028
0.831211 0.361826 0.020572
0.827187 0.390245 0.019482
0.830010 0.424889 0.016296
0.826883 0.453604 0.015494
0.828450 0.482145 0.014053
0.828166 0.515624 0.013222
0.829560 0.544266 0.012531
0.826357 0.576081 0.013128
0.827408 0.608591 0.013073
0.826652 0.638529 0.013413
0.830353 0.670284 0.012596
0.830584 0.704945 0.012396
0.831026 0.732817 0.012070
0.826776 0.765936 0.012354
0.829493 0.796971 0.010879
0.828041 0.827199 0.010101
0.830365 0.858826 0.008599
0.825128 0.893223 0.008087
0.830997 0.922304 0.006418
0.831237 0.952503 0.005560
0.828673 0.986290 0.004803
0.858801 0.012771 0.014497
0.859659 0.044563 0.016046
0.859842 0.081058 0.017434
0.860508 0.107545 0.018184
0.859774 0.142692 0.019393
0.858080 0.170663 0.020258
0.862362 0.206156 0.018662
0.859898 0.233330 0.018909
0.859510 0.263015 0.018224
0.861298 0.298010 0.016260
0.859967 0.326276 0.015127
0.857503 0.357275 0.014022
0.858005 0.388734 0.012258
0.861207 0.424199 0.010031
0.861183 0.450567 0.009130
0.857250 0.482794 0.008840
0.861009 0.515732 0.007684
0.858699 0.549175 0.007701
0.858329 0.578729 0.007692
0.861126 0.612417 0.007309
0.862215 0.642642 0.007137
0.861106 0.673040 0.007229
0.861512 0.703925 0.007122
0.861052 0.733729 0.007079
0.859908 0.765125 0.006938
0.861260 0.796736 0.006263
0.860567 0.830085 0.005673
0.859693 0.858092 0.005159
0.859919 0.890465 0.004459
0.861866 0.921433 0.003758
0.857874 0.952900 0.003497
0.856250 0.985363 0.002997
0.888074 0.016014 0.009051
0.891744 0.047923 0.009442
0.892158 0.079078 0.010052
0.893637 0.107998 0.010372
0.892392 0.137532 0.011099
0.888043 0.169120 0.012318
0.893292 0.201342 0.011294
0.892383 0.232835 0.011187
0.889291 0.267114 0.011126
0.889349 0.296707 0.010296
0.893187 0.330769 0.008617
0.893074 0.357817 0.007787
0.892203 0.391774 0.006862
0.890426 0.421712 0.006272
0.888805 0.453165 0.005740
0.893111 0.486469 0.004726
0.893492 0.518582 0.004322
0.893240 0.544679 0.004202
0.889143 0.577478 0.004443
0.892322 0.611066 0.004174
0.892348 0.640340 0.004179
0.890117 0.672727 0.004349
0.891544 0.704638 0.004213
0.892684 0.732951 0.004036
0.892376 0.763628 0.003870
0.888250 0.798673 0.003835
0.893699 0.825483 0.003185
0.890156 0.861507 0.002945
0.891460 0.893405 0.002505
0.890190 0.924662 0.002235
0.892491 0.952357 0.001885
0.889042 0.986429 0.001642
0.919010 0.013929 0.005293
0.919338 0.049134 0.006042
0.919022 0.080967 0.006586
0.923901 0.111681 0.006471
0.921950 0.142188 0.006915
0.924989 0.171359 0.006755
0.920073 0.202523 0.007353
0.919431 0.233513 0.007295
0.919355 0.263775 0.006939
0.921169 0.298897 0.006098
0.924370 0.331036 0.005173
0.923857 0.358855 0.004674
0.923859 0.392031 0.004062
0.921616 0.421344 0.003746
0.922454 0.453771 0.003245
0.922922 0.487421 0.002836
0.923369 0.512526 0.002631
0.922659 0.544564 0.002518
0.924351 0.579236 0.002380
0.920802 0.607730 0.002535
0.921572 0.641755 0.002528
0.920368 0.669662 0.002585
0.923149 0.703742 0.002436
0.923069 0.731711 0.002362
0.924248 0.763769 0.002170
0.920105 0.798329 0.002144
0.923660 0.830989 0.001806
0.923222 0.860878 0.001622
0.919970 0.888847 0.001536
0.918878 0.923995 0.001344
0.923505 0.951366 0.001078
0.921376 0.982942 0.000918
0.954230 0.017724 0.003029
0.950316 0.047643 0.003717
0.953961 0.077861 0.003913
0.950685 0.110783 0.004428
0.950109 0.140080 0.004634
0.953364 0.169389 0.004522
0.954002 0.202724 0.004495
0.950174 0.232765 0.004636
0.952062 0.266449 0.004230
0.952349 0.297154 0.003852
0.954805 0.325493 0.003398
0.954767 0.356552 0.003023
0.951154 0.390440 0.002734
0.955241 0.420865 0.002261
0.952302 0.455336 0.002028
0.954917 0.482991 0.001762
0.955096 0.516896 0.001598
0.955612 0.549190 0.001490
0.952580 0.576137 0.001519
0.953465 0.609568 0.001497
0.952194 0.642033 0.001534
0.956075 0.670221 0.001443
0.950880 0.701486 0.001543
0.955010 0.736389 0.001387
0.952506 0.767924 0.001344
0.953765 0.793992 0.001228
0.954720 0.828048 0.001082
0.956116 0.858470 0.000945
0.954562 0.888532 0.000856
0.955493 0.920690 0.000725
0.954235 0.950940 0.000632
0.951799 0.986917 0.000514
0.981389 0.016198 0.002002
0.987154 0.048933 0.002253
0.984801 0.076321 0.002600
0.981440 0.109888 0.003005
0.985260 0.138469 0.003017
0.981677 0.170672 0.003213
0.984839 0.202304 0.003067
0.982563 0.231469 0.003057
0.985981 0.262908 0.002752
0.982971 0.298566 0.002609
0.983589 0.326893 0.002376
0.983465 0.362295 0.002066
0.985139 0.391861 0.001765
0.983416 0.419715 0.001582
0.984475 0.453534 0.001334
0.985603 0.485556 0.001159
0.986298 0.515368 0.001051
0.985851 0.544761 0.000996
0.983299 0.575078 0.000995
0.984004 0.611284 0.000970
0.987082 0.641022 0.000927
0.984794 0.672348 0.000953
0.987424 0.704553 0.000904
0.981945 0.734443 0.000948
0.984028 0.765467 0.000869
0.984656 0.797407 0.000788
0.982178 0.829535 0.000731
0.984534 0.858407 0.000634
0.984924 0.887706 0.000552
0.986931 0.923485 0.000444
0.984425 0.952557 0.000391
0.984145 0.982266 0.000314
