x  y  phi
0.012500 0.013322 0.022626
0.017223 0.046617 0.030801
0.015830 0.076368 0.035228
0.012794 0.110493 0.039333
0.016746 0.143342 0.045772
0.014897 0.171996 0.047785
0.017694 0.200216 0.050818
0.012834 0.234561 0.048331
0.016695 0.262548 0.049859
0.014896 0.294168 0.049269
0.015109 0.329292 0.053855
0.016181 0.362065 0.064925
0.017789 0.390793 0.081309
0.013075 0.422837 0.104282
0.015100 0.454382 0.143341
0.018190 0.486014 0.194004
0.014140 0.512797 0.234598
0.017101 0.545801 0.298252
0.016454 0.579728 0.359752
0.018694 0.608533 0.407476
0.014044 0.643641 0.444844
0.017017 0.673458 0.471858
0.016572 0.700454 0.478919
0.016448 0.736779 0.467319
0.014204 0.765228 0.439329
0.017291 0.796736 0.403214
0.013986 0.826718 0.351112
0.014745 0.857291 0.295095
0.015541 0.893110 0.228887
0.018183 0.919129 0.191251
0.018154 0.953153 0.150433
0.015727 0.983244 0.118655
0.049917 0.015587 0.038558
0.045413 0.044317 0.042903
0.049674 0.075461 0.052225
0.046879 0.108651 0.057448
0.045482 0.143211 0.062262
0.047061 0.171653 0.067089
0.049631 0.200313 0.071590
0.048509 0.236064 0.070915
0.048924 0.263284 0.070020
0.043849 0.298053 0.066161
0.049177 0.328935 0.073835
0.048351 0.360784 0.083739
0.049997 0.393054 0.103702
0.045207 0.420665 0.125079
0.045944 0.453208 0.168126
0.047444 0.486537 0.223763
0.046326 0.517759 0.278149
0.045433 0.546346 0.332099
0.047108 0.577924 0.394622
0.045545 0.607365 0.440339
0.044711 0.641073 0.482456
0.048765 0.668957 0.512225
0.047090 0.703116 0.520410
0.049721 0.735927 0.514435
0.047216 0.768067 0.481840
0.047655 0.799013 0.441231
0.044749 0.826330 0.392019
0.048217 0.857065 0.338291
0.044319 0.889216 0.269120
0.043769 0.921339 0.213835
0.043918 0.954436 0.172613
0.049612 0.982749 0.151488
0.076131 0.014485 0.055482
0.080544 0.047825 0.070080
0.075940 0.079258 0.074807
0.077411 0.108673 0.084766
0.078123 0.138422 0.092938
0.078670 0.174035 0.099853
0.078688 0.205971 0.102009
0.078476 0.232176 0.101147
0.081146 0.265055 0.101936
0.075886 0.297281 0.093863
0.076576 0.328053 0.097206
0.077900 0.362257 0.109623
0.075788 0.388748 0.123481
0.076995 0.422683 0.159248
0.075792 0.454070 0.204341
0.078885 0.486269 0.265341
0.076549 0.515478 0.317178
0.077433 0.545020 0.379834
0.075177 0.580635 0.447986
0.077666 0.607138 0.498687
0.080922 0.640064 0.548946
0.075820 0.674285 0.564250
0.075576 0.701014 0.570686
0.075444 0.733533 0.562540
0.076582 0.763344 0.541504
0.079895 0.796596 0.505877
0.077185 0.827827 0.446649
0.080056 0.862073 0.382598
0.079073 0.888845 0.324813
0.079247 0.924431 0.258408
0.076563 0.955380 0.210490
0.077945 0.984412 0.182144
0.110002 0.017610 0.093225
0.110974 0.046639 0.106851
0.112196 0.078955 0.122108
0.108996 0.111404 0.130088
0.110556 0.141889 0.143434
0.112420 0.174715 0.153873
0.111570 0.201808 0.153867
0.109609 0.234465 0.148788
0.106896 0.265088 0.140305
0.109854 0.299229 0.140804
0.109000 0.329561 0.139531
0.111683 0.360723 0.151820
0.111255 0.391916 0.171597
0.110886 0.418869 0.202307
0.111788 0.453281 0.259998
0.109146 0.481657 0.309465
0.110709 0.515556 0.384921
0.110423 0.548013 0.459272
0.107497 0.580729 0.522834
0.111662 0.611813 0.585851
0.109650 0.638370 0.614418
0.109065 0.674934 0.641189
0.107597 0.702788 0.644098
0.108223 0.734467 0.637630
0.111759 0.765248 0.621942
0.109172 0.798792 0.570710
0.108532 0.826322 0.519417
0.112494 0.857210 0.461646
0.110191 0.891352 0.380243
0.106254 0.918755 0.316731
0.111083 0.954546 0.267353
0.108245 0.983861 0.227326
0.141766 0.016754 0.144204
0.138783 0.048978 0.154238
0.141931 0.080179 0.176755
0.138091 0.106761 0.183343
0.142275 0.141435 0.208731
0.138837 0.170085 0.208448
0.138007 0.202430 0.210067
0.143451 0.237172 0.221628
0.139937 0.264183 0.207752
0.141826 0.295525 0.203827
0.142355 0.329899 0.199122
0.140140 0.358013 0.198090
0.138712 0.387571 0.212170
0.138699 0.424895 0.257634
0.139025 0.455123 0.311523
0.138353 0.483738 0.370489
0.141256 0.513606 0.447688
0.142677 0.544736 0.527754
0.143675 0.576607 0.601912
0.138960 0.606885 0.644476
0.138871 0.641467 0.688252
0.141850 0.673717 0.720526
0.141852 0.704706 0.727398
0.141685 0.735209 0.717136
0.137853 0.766239 0.682613
0.138919 0.795742 0.646093
0.141874 0.825734 0.598116
0.142266 0.859538 0.522374
0.140962 0.891175 0.445039
0.139560 0.923144 0.373590
0.138394 0.951011 0.323306
0.140533 0.986626 0.280267
0.173833 0.015980 0.213386
0.173369 0.045725 0.229361
0.169596 0.078303 0.240906
0.170692 0.109926 0.266920
0.171988 0.140193 0.287615
0.170368 0.171064 0.292897
0.171206 0.202793 0.299964
0.171724 0.233674 0.298385
0.170496 0.262989 0.285753
0.171061 0.295337 0.274627
0.172949 0.329226 0.267916
0.171962 0.360804 0.264443
0.173255 0.393405 0.284019
0.171629 0.424626 0.317766
0.170760 0.452878 0.366218
0.171982 0.485383 0.441366
0.171261 0.516285 0.517211
0.174916 0.544690 0.594648
0.172938 0.577149 0.664091
0.172136 0.609518 0.720603
0.173933 0.637593 0.760978
0.170464 0.672769 0.782287
0.172163 0.705737 0.791682
0.170416 0.737313 0.776059
0.170292 0.767775 0.749542
0.173088 0.796598 0.718219
0.173857 0.825138 0.668856
0.169755 0.860668 0.578192
0.173174 0.890229 0.512784
0.172390 0.923448 0.437123
0.174947 0.954348 0.387802
0.170497 0.985962 0.336947
0.201070 0.012527 0.284316
0.203098 0.044249 0.314057
0.201019 0.080646 0.337851
0.204894 0.110917 0.376423
0.202728 0.137540 0.385737
0.203655 0.171990 0.402390
0.200418 0.203400 0.394753
0.202436 0.232599 0.395992
0.202411 0.266418 0.379516
0.204119 0.298183 0.364049
0.203367 0.326752 0.345016
0.205100 0.358574 0.339784
0.204288 0.389439 0.345131
0.200058 0.419399 0.364232
0.203256 0.454849 0.430009
0.201379 0.481595 0.486428
0.200441 0.513502 0.563653
0.204524 0.545606 0.648269
0.200316 0.577986 0.713669
0.202857 0.609500 0.774554
0.202791 0.638439 0.812046
0.201787 0.673961 0.837454
0.204348 0.703611 0.846527
0.204257 0.733320 0.836594
0.200359 0.768668 0.800726
0.203390 0.793760 0.774159
0.205351 0.825183 0.724395
0.202360 0.859310 0.642024
0.203601 0.892118 0.561435
0.204246 0.922102 0.493078
0.200222 0.950766 0.434400
0.206083 0.982427 0.399515
0.233446 0.016338 0.396726
0.235048 0.044537 0.425608
0.234705 0.080963 0.456160
0.233481 0.111488 0.475821
0.237339 0.139119 0.506865
0.232822 0.171402 0.506144
0.236332 0.205612 0.521709
0.232779 0.236004 0.498391
0.235593 0.265324 0.485809
0.232898 0.297909 0.446344
0.231979 0.326310 0.418934
0.231960 0.359669 0.401670
0.231288 0.388600 0.401220
0.234996 0.421449 0.433278
0.231766 0.454296 0.478432
0.233596 0.486476 0.550479
0.232023 0.518583 0.625253
0.231435 0.544252 0.685239
0.234339 0.579809 0.766556
0.237088 0.607813 0.817846
0.233498 0.642307 0.855239
0.234375 0.673433 0.876666
0.235449 0.704260 0.882591
0.235980 0.731477 0.875379
0.232691 0.763885 0.847247
0.234766 0.797829 0.806932
0.235104 0.827322 0.757219
0.232655 0.857711 0.687570
0.235331 0.888537 0.613261
0.235901 0.919748 0.539493
0.231548 0.954137 0.469395
0.232031 0.987182 0.424416
0.265526 0.016382 0.514719
0.268213 0.043862 0.543538
0.266210 0.079512 0.563929
0.265604 0.106586 0.581423
0.265260 0.140745 0.602596
0.267325 0.169158 0.623096
0.265267 0.206107 0.617237
0.265423 0.233307 0.604084
0.265287 0.267145 0.573399
0.263783 0.294821 0.538063
0.264828 0.330873 0.501920
0.268530 0.357843 0.489439
0.262940 0.388274 0.468001
0.265790 0.419751 0.487128
0.265736 0.450657 0.524577
0.267760 0.483554 0.588524
0.265149 0.514545 0.655628
0.266960 0.547355 0.732475
0.267949 0.579739 0.798668
0.267729 0.610624 0.846327
0.264932 0.643345 0.879865
0.266285 0.671013 0.897344
0.265872 0.702844 0.902677
0.265011 0.732753 0.894685
0.263019 0.765135 0.869817
0.265452 0.795561 0.833615
0.263156 0.826352 0.780629
0.267513 0.859546 0.711099
0.266680 0.892898 0.629069
0.264023 0.923197 0.556392
0.264148 0.952393 0.500729
0.263006 0.984124 0.454955
0.295205 0.017471 0.618559
0.296821 0.043770 0.636787
0.295413 0.079154 0.654563
0.296407 0.107418 0.676461
0.299772 0.138338 0.704773
0.298724 0.174663 0.713912
0.294820 0.203788 0.699922
0.294149 0.233422 0.681879
0.295578 0.265685 0.655442
0.298911 0.298965 0.622964
0.298290 0.327059 0.586001
0.298763 0.360199 0.551460
0.294033 0.387759 0.526362
0.294708 0.423544 0.532315
0.294136 0.453246 0.561038
0.299557 0.482628 0.612833
0.295029 0.513056 0.673380
0.298123 0.548165 0.750523
0.296841 0.576636 0.804332
0.298197 0.608615 0.851877
0.295004 0.638954 0.884017
0.296476 0.671684 0.904139
0.299132 0.706108 0.908847
0.296528 0.731464 0.902269
0.297024 0.762698 0.881000
0.298457 0.797447 0.839031
0.298893 0.827060 0.788296
0.295200 0.859603 0.718181
0.296441 0.890022 0.644886
0.299921 0.924793 0.563283
0.299066 0.955422 0.506677
0.295698 0.982177 0.469793
0.331235 0.016497 0.729253
0.327925 0.049574 0.726247
0.329317 0.080096 0.742150
0.328385 0.109830 0.755720
0.325995 0.143408 0.766783
0.330133 0.169721 0.780188
0.325257 0.202148 0.766921
0.325688 0.231853 0.752220
0.328242 0.262640 0.728580
0.328509 0.299105 0.680854
0.328231 0.329216 0.637441
0.329607 0.360615 0.599726
0.325142 0.388700 0.569658
0.329194 0.420912 0.565397
0.325414 0.450879 0.579943
0.330757 0.482635 0.622245
0.327376 0.516163 0.684013
0.326046 0.543915 0.740816
0.329320 0.579765 0.804983
0.329461 0.606733 0.842798
0.328686 0.643284 0.879817
0.330811 0.671440 0.894976
0.328162 0.705195 0.901216
0.330745 0.735010 0.891164
0.329524 0.765746 0.868983
0.328068 0.794759 0.834592
0.331101 0.828590 0.774804
0.326708 0.859571 0.709968
0.329366 0.891669 0.631544
0.325609 0.922180 0.562173
0.328817 0.954175 0.500047
0.328095 0.984822 0.457898
0.359931 0.015258 0.786944
0.357195 0.046889 0.781938
0.360821 0.075198 0.793807
0.356573 0.109513 0.802100
0.358254 0.137719 0.814643
0.357782 0.169420 0.820012
0.358644 0.203449 0.816100
0.359982 0.235069 0.799869
0.362095 0.267325 0.769386
0.359457 0.296792 0.725306
0.360313 0.329356 0.675026
0.358797 0.359293 0.630359
0.359249 0.391940 0.593195
0.359589 0.420479 0.577509
0.360035 0.451751 0.584200
0.360646 0.484566 0.616347
0.362114 0.513971 0.660789
0.358834 0.547484 0.726587
0.361144 0.580752 0.783039
0.360509 0.611382 0.824968
0.359546 0.638939 0.853025
0.357148 0.674372 0.876315
0.357821 0.704072 0.879787
0.356280 0.737100 0.871032
0.357971 0.767867 0.844727
0.357993 0.799703 0.803389
0.359418 0.825768 0.755689
0.358853 0.860640 0.680767
0.358978 0.888173 0.615101
0.361039 0.919374 0.539414
0.359008 0.952154 0.477757
0.358107 0.985985 0.430332
0.389616 0.014567 0.813114
0.387848 0.047332 0.809800
0.390533 0.076266 0.817151
0.388215 0.112340 0.829729
0.392904 0.140574 0.840120
0.389796 0.173781 0.843081
0.388514 0.200997 0.837497
0.387861 0.232183 0.819573
0.390426 0.264879 0.787648
0.393023 0.296401 0.743685
0.390077 0.329071 0.689108
0.389427 0.356626 0.644211
0.392590 0.393110 0.592203
0.393247 0.424383 0.567273
0.392313 0.451067 0.566440
0.391078 0.481446 0.586966
0.392520 0.515764 0.628910
0.392885 0.545482 0.678699
0.392934 0.578668 0.735630
0.389932 0.611324 0.785539
0.390785 0.643374 0.815559
0.390125 0.672374 0.833427
0.392182 0.705505 0.834631
0.389613 0.732435 0.830335
0.392145 0.766993 0.798721
0.392995 0.794205 0.762326
0.391938 0.830494 0.698594
0.389746 0.856812 0.645288
0.388506 0.890105 0.568364
0.388103 0.922967 0.493248
0.391016 0.955082 0.429206
0.392989 0.986059 0.382807
0.422720 0.018103 0.801895
0.424240 0.046790 0.800753
0.419457 0.077359 0.812494
0.421141 0.110547 0.825033
0.419511 0.137980 0.835766
0.419646 0.171735 0.840263
0.423179 0.201488 0.832083
0.421194 0.237349 0.810034
0.422680 0.266757 0.778073
0.424429 0.296015 0.735096
0.424120 0.329964 0.676211
0.421430 0.356709 0.630773
0.421866 0.390524 0.576229
0.421567 0.421873 0.543510
0.423380 0.455830 0.532021
0.420626 0.482164 0.547936
0.419438 0.513002 0.581813
0.424828 0.546301 0.620932
0.420240 0.581020 0.686169
0.423959 0.607488 0.713591
0.419559 0.638727 0.756829
0.420869 0.672348 0.775745
0.421502 0.703660 0.779131
0.421455 0.733551 0.768703
0.421139 0.766251 0.742331
0.421434 0.794680 0.704310
0.422939 0.831221 0.632736
0.423113 0.858767 0.571923
0.424058 0.892622 0.491055
0.423709 0.921089 0.431429
0.418810 0.952999 0.385341
0.422744 0.985291 0.334452
0.454031 0.017494 0.757049
0.452359 0.045985 0.763844
0.452434 0.077089 0.773899
0.454335 0.107156 0.784906
0.451822 0.141668 0.803794
0.455340 0.170717 0.803774
0.450901 0.203764 0.803896
0.450035 0.237005 0.783459
0.452387 0.265728 0.750150
0.452153 0.295401 0.707761
0.451819 0.330210 0.646085
0.450777 0.360216 0.591335
0.450304 0.390363 0.539427
0.452355 0.419724 0.497962
0.454724 0.454162 0.475408
0.450072 0.486218 0.494502
0.453506 0.514304 0.510552
0.452597 0.545754 0.553613
0.453216 0.579495 0.601564
0.455263 0.607699 0.631982
0.452906 0.639833 0.671803
0.450313 0.669212 0.699739
0.451265 0.703539 0.704038
0.455197 0.733891 0.681435
0.455247 0.764332 0.656146
0.451132 0.795985 0.626415
0.455838 0.828684 0.554307
0.452307 0.859144 0.500315
0.453924 0.893403 0.423339
0.452536 0.919066 0.377054
0.452780 0.953725 0.320465
0.454677 0.986651 0.274269
0.482069 0.013154 0.689709
0.485408 0.048959 0.693019
0.484883 0.079116 0.708486
0.487388 0.106368 0.717694
0.487009 0.138717 0.735020
0.487298 0.172019 0.742763
0.482992 0.204499 0.746966
0.484940 0.236482 0.722611
0.486467 0.266624 0.687548
0.485815 0.297769 0.643258
0.483435 0.328343 0.592547
0.485401 0.358271 0.529247
0.486682 0.390265 0.466447
0.486987 0.420479 0.423675
0.487198 0.450733 0.402855
0.483850 0.486477 0.414884
0.487266 0.514581 0.425275
0.484539 0.547100 0.467499
0.486363 0.580812 0.506365
0.485393 0.607770 0.540614
0.487134 0.641230 0.564394
0.482038 0.670294 0.599148
0.486792 0.701226 0.589868
0.482268 0.736475 0.595223
0.485015 0.766395 0.563258
0.486492 0.797948 0.520136
0.483697 0.830446 0.474287
0.485421 0.856973 0.420276
0.481250 0.891725 0.364791
0.485180 0.921591 0.304119
0.484840 0.950202 0.262061
0.483446 0.986594 0.221396
0.514818 0.016634 0.593785
0.516103 0.044125 0.604322
0.517153 0.076747 0.621216
0.515266 0.107353 0.646787
0.513074 0.143108 0.671831
0.518703 0.172463 0.663060
0.512706 0.204318 0.674678
0.515545 0.234808 0.649174
0.518098 0.265216 0.612110
0.516804 0.295020 0.572913
0.515511 0.326703 0.518794
0.518419 0.357777 0.451864
0.518458 0.390481 0.394317
0.513294 0.424759 0.361870
0.517857 0.451359 0.334531
0.512544 0.486140 0.346262
0.512815 0.518500 0.363649
0.516509 0.547334 0.379565
0.513357 0.575807 0.420111
0.517654 0.609387 0.441071
0.516599 0.640657 0.465652
0.515790 0.669490 0.481107
0.518144 0.704181 0.478440
0.514235 0.733667 0.486482
0.514947 0.767694 0.463819
0.514019 0.794522 0.438964
0.517052 0.829050 0.380045
0.513758 0.861554 0.338124
0.512641 0.888160 0.297875
0.513675 0.921006 0.244296
0.517373 0.954495 0.194137
0.516665 0.984881 0.165607
0.545945 0.013482 0.486633
0.545576 0.044807 0.509722
0.545148 0.079196 0.535785
0.546280 0.111791 0.555833
0.547371 0.139637 0.567649
0.546483 0.173123 0.578668
0.548964 0.204950 0.567038
0.549057 0.233014 0.553653
0.545404 0.263562 0.537150
0.547085 0.294207 0.489783
0.549992 0.329689 0.421894
0.544514 0.357279 0.388653
0.546407 0.392333 0.328085
0.545085 0.421462 0.296108
0.543957 0.455808 0.276120
0.544413 0.482914 0.272022
0.546763 0.517455 0.278304
0.545360 0.545087 0.299740
0.545515 0.577379 0.327414
0.545051 0.612053 0.358784
0.548525 0.641354 0.364564
0.547349 0.670977 0.376670
0.549424 0.701237 0.371635
0.544463 0.736195 0.380821
0.548114 0.762614 0.355117
0.548425 0.794466 0.326714
0.549344 0.829091 0.284465
0.545912 0.858640 0.257805
0.545094 0.889571 0.219678
0.543861 0.924465 0.178571
0.548659 0.952459 0.142658
0.548312 0.986447 0.117500
0.580486 0.013310 0.361181
0.577146 0.049638 0.402608
0.577264 0.077200 0.424891
0.575504 0.109824 0.457486
0.579852 0.142776 0.461369
0.578083 0.173858 0.475016
0.579017 0.202721 0.470436
0.577202 0.233432 0.463466
0.576760 0.268244 0.433329
0.578913 0.298404 0.387821
0.575985 0.329853 0.351150
0.576575 0.360075 0.304262
0.580341 0.389466 0.253762
0.578803 0.419537 0.224417
0.577335 0.450833 0.206493
0.576637 0.482038 0.200664
0.576268 0.517191 0.208534
0.575443 0.546618 0.224139
0.581020 0.576467 0.228214
0.576234 0.610525 0.264856
0.575508 0.642839 0.283870
0.575954 0.669501 0.288426
0.580057 0.705901 0.275106
0.575285 0.731627 0.283653
0.580186 0.763382 0.254902
0.580007 0.795172 0.233441
0.577495 0.828745 0.211049
0.579095 0.856586 0.181355
0.581165 0.892577 0.142467
0.577585 0.918949 0.125315
0.575675 0.956090 0.101970
0.580419 0.985444 0.080840
0.611465 0.013989 0.260920
0.610731 0.047436 0.288493
0.607641 0.076424 0.320904
0.606260 0.109049 0.351385
0.608811 0.143331 0.362779
0.606390 0.171959 0.379208
0.608603 0.205372 0.369805
0.611212 0.235059 0.347789
0.608324 0.266400 0.332839
0.610337 0.297777 0.295486
0.607869 0.325163 0.271224
0.612419 0.357548 0.220802
0.610265 0.391002 0.188362
0.608606 0.419504 0.166385
0.609057 0.450861 0.146325
0.609911 0.484641 0.135840
0.609273 0.518041 0.140960
0.606760 0.546016 0.155301
0.606880 0.576870 0.167724
0.611510 0.611956 0.172983
0.611425 0.643564 0.184760
0.611333 0.673737 0.189828
0.611499 0.702805 0.189110
0.610263 0.735587 0.187323
0.611348 0.765426 0.175449
0.607460 0.796260 0.168616
0.612067 0.827920 0.140425
0.608615 0.859485 0.124514
0.607673 0.893120 0.101703
0.612412 0.919606 0.079777
0.609116 0.954307 0.066709
0.607994 0.983808 0.056786
0.642125 0.012695 0.181424
0.639400 0.044954 0.206565
0.642582 0.076718 0.216085
0.641986 0.108804 0.236766
0.642407 0.142014 0.252953
0.641107 0.172706 0.265457
0.642491 0.200002 0.261263
0.641424 0.233415 0.254688
0.640449 0.265576 0.239747
0.640810 0.295741 0.216835
0.642862 0.325863 0.186546
0.639995 0.358668 0.161984
0.642790 0.387851 0.132228
0.640355 0.423535 0.111776
0.639328 0.456012 0.097928
0.643750 0.487494 0.085852
0.642135 0.514686 0.088870
0.642479 0.544994 0.094468
0.641255 0.578393 0.105231
0.639073 0.607510 0.117031
0.641098 0.640711 0.122184
0.642173 0.672550 0.124857
0.643685 0.704990 0.122777
0.640967 0.732167 0.125220
0.638169 0.765774 0.123390
0.639039 0.797323 0.111198
0.639590 0.829242 0.096346
0.637934 0.861529 0.082734
0.642977 0.889575 0.063862
0.638409 0.923400 0.053879
0.641637 0.952517 0.042245
0.641156 0.984722 0.034518
0.671838 0.016341 0.124869
0.674530 0.047587 0.132536
0.670352 0.075248 0.151370
0.672629 0.108397 0.161668
0.668901 0.138571 0.182436
0.672567 0.171399 0.182117
0.672303 0.204565 0.183326
0.671087 0.233535 0.180048
0.671102 0.263041 0.168456
0.672394 0.296364 0.148413
0.669443 0.327033 0.134616
0.673032 0.359775 0.106680
0.674199 0.390824 0.086017
0.674841 0.419127 0.071269
0.671721 0.450688 0.063250
0.674951 0.484684 0.055111
0.673117 0.513295 0.056414
0.671719 0.544121 0.060434
0.671532 0.580737 0.066716
0.671497 0.611616 0.072683
0.674982 0.640933 0.073399
0.669527 0.674040 0.083772
0.669939 0.704152 0.084030
0.672852 0.737332 0.078020
0.671610 0.763496 0.075514
0.669620 0.795521 0.070262
0.674831 0.828737 0.055496
0.674076 0.856643 0.048248
0.674535 0.893434 0.037597
0.671667 0.920514 0.032701
0.671627 0.952693 0.026322
0.674163 0.982491 0.020471
0.702405 0.017245 0.080254
0.705089 0.047955 0.086034
0.704510 0.079271 0.095602
0.701962 0.107303 0.108200
0.704300 0.143256 0.114694
0.701036 0.168774 0.124709
0.701102 0.201113 0.125892
0.701238 0.235427 0.120781
0.704215 0.265734 0.107296
0.702021 0.296669 0.099189
0.702005 0.325585 0.086864
0.705440 0.359032 0.067901
0.700924 0.391575 0.058692
0.705887 0.424265 0.044237
0.704131 0.451274 0.039395
0.701065 0.481350 0.037666
0.701034 0.513182 0.036828
0.702257 0.547257 0.037181
0.706024 0.576534 0.037172
0.700149 0.606438 0.044672
0.705539 0.643040 0.044067
0.705708 0.672171 0.045771
0.701079 0.703044 0.050401
0.705090 0.737104 0.045568
0.703644 0.765931 0.043829
0.702948 0.798458 0.039436
0.702077 0.826078 0.035325
0.703206 0.858628 0.029011
0.705176 0.893544 0.022337
0.700030 0.920634 0.020361
0.702841 0.955565 0.015294
0.705272 0.982815 0.011965
0.735837 0.017747 0.046749
0.733894 0.048178 0.055006
0.733787 0.078289 0.060786
0.734535 0.106822 0.065404
0.733773 0.142388 0.072843
0.732905 0.170674 0.077353
0.732406 0.204729 0.078468
0.735129 0.235283 0.072345
0.733296 0.263464 0.069517
0.732402 0.296595 0.062503
0.734582 0.326015 0.052448
0.737036 0.358807 0.041575
0.731445 0.388546 0.037566
0.734782 0.424909 0.028263
0.732127 0.452085 0.025542
0.733182 0.483465 0.022430
0.732268 0.514513 0.021785
0.733622 0.547759 0.021579
0.735014 0.575236 0.022096
0.733344 0.606739 0.024565
0.734650 0.640570 0.025791
0.733049 0.670329 0.027753
0.733996 0.704116 0.027624
0.733285 0.731260 0.027427
0.737329 0.763130 0.023878
0.733240 0.799722 0.022832
0.733433 0.826034 0.020288
0.737409 0.856978 0.015880
0.731512 0.893506 0.013934
0.736158 0.920127 0.010656
0.731884 0.951591 0.009300
0.733984 0.982769 0.007065
0.764266 0.015933 0.027852
0.768014 0.049073 0.030566
0.766690 0.078485 0.034664
0.767236 0.111887 0.037722
0.767834 0.142248 0.040323
0.763962 0.174989 0.045683
0.764133 0.202344 0.045876
0.764372 0.235910 0.044016
0.768699 0.267289 0.037618
0.765179 0.297760 0.035808
0.765399 0.325640 0.031320
0.763637 0.361646 0.026015
0.765646 0.393319 0.020235
0.768113 0.420570 0.016207
0.766432 0.456096 0.013748
0.765900 0.486442 0.012333
0.762843 0.513685 0.012392
0.768596 0.548533 0.011150
0.767937 0.575202 0.011732
0.765740 0.608596 0.013074
0.768560 0.638707 0.013201
0.763929 0.672481 0.015327
0.768103 0.703434 0.014298
0.763030 0.736106 0.015353
0.767319 0.766927 0.013180
0.762825 0.799272 0.013045
0.762948 0.831217 0.011351
0.764187 0.859374 0.009377
0.766796 0.892178 0.007075
0.768404 0.923061 0.005480
0.768199 0.951070 0.004505
0.767596 0.983018 0.003545
0.796762 0.018193 0.015130
0.798145 0.046246 0.017184
0.794803 0.080641 0.021004
0.795063 0.109677 0.022788
0.796080 0.139145 0.023905
0.798792 0.170224 0.023754
0.797868 0.202098 0.024422
0.797013 0.234081 0.024104
0.797543 0.266669 0.022225
0.793886 0.298870 0.021303
0.796108 0.328386 0.017662
0.799811 0.360914 0.013295
0.798708 0.392242 0.010954
0.796583 0.421292 0.009449
0.795276 0.454389 0.008023
0.795086 0.485382 0.007095
0.796294 0.514227 0.006483
0.795895 0.545634 0.006456
0.798053 0.580964 0.006434
0.798614 0.611889 0.006743
0.793885 0.643589 0.007965
0.794086 0.671312 0.008296
0.794772 0.704975 0.008284
0.793822 0.735013 0.008204
0.799509 0.763187 0.006819
0.797156 0.794206 0.006500
0.797228 0.827396 0.005666
0.796759 0.858693 0.004802
0.796304 0.890994 0.003871
0.799632 0.923119 0.002855
0.797435 0.950070 0.002457
0.795517 0.983671 0.001930
0.829661 0.016036 0.007570
0.828464 0.045429 0.009340
0.825732 0.076010 0.011372
0.827214 0.111302 0.012452
0.826661 0.138698 0.013355
0.827590 0.172801 0.013568
0.828310 0.200455 0.013366
0.827937 0.233618 0.013069
0.825618 0.265583 0.012912
0.825830 0.295102 0.011675
0.827739 0.327207 0.009513
0.831211 0.361826 0.007080
0.827187 0.390245 0.006365
0.830010 0.424889 0.004786
0.826883 0.453604 0.004308
0.828450 0.482145 0.003680
0.828166 0.515624 0.003373
0.829560 0.544266 0.003194
0.826357 0.576081 0.003517
0.827408 0.608591 0.003635
0.826652 0.638529 0.003890
0.830353 0.670284 0.003679
0.830584 0.704945 0.003675
0.831026 0.732817 0.003573
0.826776 0.765936 0.003697
0.829493 0.796971 0.003120
0.828041 0.827199 0.002819
0.830365 0.858826 0.002250
0.825128 0.893223 0.002026
0.830997 0.922304 0.001449
0.831237 0.952503 0.001153
0.828673 0.986290 0.000898
0.858801 0.012771 0.003922
0.859659 0.044563 0.004724
0.859842 0.081058 0.005523
0.860508 0.107545 0.005994
0.859774 0.142692 0.006685
0.858080 0.170663 0.007177
0.862362 0.206156 0.006493
0.859898 0.233330 0.006637
0.859510 0.263015 0.006314
0.861298 0.298010 0.005376
0.859967 0.326276 0.004812
0.857503 0.357275 0.004235
0.858005 0.388734 0.003421
0.861207 0.424199 0.002502
0.861183 0.450567 0.002132
0.857250 0.482794 0.001984
0.861009 0.515732 0.001635
0.858699 0.549175 0.001669
0.858329 0.578729 0.001718
0.861126 0.612417 0.001673
0.862215 0.642642 0.001675
0.861106 0.673040 0.001747
0.861512 0.703925 0.001742
0.861052 0.733729 0.001744
0.859908 0.765125 0.001705
0.861260 0.796736 0.001488
0.860567 0.830085 0.001300
0.859693 0.858092 0.001136
0.859919 0.890465 0.000920
0.861866 0.921433 0.000713
0.857874 0.952900 0.000624
0.856250 0.985363 0.000482
0.888074 0.016014 0.002089
0.891744 0.047923 0.002317
0.892158 0.079078 0.002614
0.893637 0.107998 0.002799
0.892392 0.137532 0.003129
0.888043 0.169120 0.003652
0.893292 0.201342 0.003263
0.892383 0.232835 0.003231
0.889291 0.267114 0.003210
0.889349 0.296707 0.002879
0.893187 0.330769 0.002234
0.893074 0.357817 0.001916
0.892203 0.391774 0.001565
0.890426 0.421712 0.001336
0.888805 0.453165 0.001144
0.893111 0.486469 0.000861
0.893492 0.518582 0.000759
0.893240 0.544679 0.000739
0.889143 0.577478 0.000821
0.892322 0.611066 0.000784
0.892348 0.640340 0.000808
0.890117 0.672727 0.000875
0.891544 0.704638 0.000853
0.892684 0.732951 0.000815
0.892376 0.763628 0.000776
0.888250 0.798673 0.000770
0.893699 0.825483 0.000600
0.890156 0.861507 0.000536
0.891460 0.893405 0.000425
0.890190 0.924662 0.000356
0.892491 0.952357 0.000276
0.889042 0.986429 0.000218
0.919010 0.013929 0.001003
0.919338 0.049134 0.001254
0.919022 0.080967 0.001454
0.923901 0.111681 0.001446
0.921950 0.142188 0.001615
0.924989 0.171359 0.001575
0.920073 0.202523 0.001788
0.919431 0.233513 0.001774
0.919355 0.263775 0.001659
0.921169 0.298897 0.001389
0.924370 0.331036 0.001099
0.923857 0.358855 0.000944
0.923859 0.392031 0.000759
0.921616 0.421344 0.000661
0.922454 0.453771 0.000528
0.922922 0.487421 0.000429
0.923369 0.512526 0.000385
0.922659 0.544564 0.000367
0.924351 0.579236 0.000350
0.920802 0.607730 0.000393
0.921572 0.641755 0.000404
0.920368 0.669662 0.000426
0.923149 0.703742 0.000401
0.923069 0.731711 0.000390
0.924248 0.763769 0.000352
0.920105 0.798329 0.000350
0.923660 0.830989 0.000277
0.923222 0.860878 0.000239
0.919970 0.888847 0.000219
0.918878 0.923995 0.000180
0.923505 0.951366 0.000131
0.921376 0.982942 0.000102
0.954230 0.017724 0.000458
0.950316 0.047643 0.000627
0.953961 0.077861 0.000683
0.950685 0.110783 0.000828
0.950109 0.140080 0.000893
0.953364 0.169389 0.000866
0.954002 0.202724 0.000865
0.950174 0.232765 0.000915
0.952062 0.266449 0.000807
0.952349 0.297154 0.000709
0.954805 0.325493 0.000591
0.954767 0.356552 0.000498
0.951154 0.390440 0.000428
0.955241 0.420865 0.000320
0.952302 0.455336 0.000270
0.954917 0.482991 0.000218
0.955096 0.516896 0.000189
0.955612 0.549190 0.000173
0.952580 0.576137 0.000183
0.953465 0.609568 0.000185
0.952194 0.642033 0.000198
0.956075 0.670221 0.000185
0.950880 0.701486 0.000209
0.955010 0.736389 0.000182
0.952506 0.767924 0.000178
0.953765 0.793992 0.000158
0.954720 0.828048 0.000134
0.956116 0.858470 0.000111
0.954562 0.888532 0.000096
0.955493 0.920690 0.000076
0.954235 0.950940 0.000062
0.951799 0.986917 0.000046
0.981389 0.016198 0.000247
0.987154 0.048933 0.000293
0.984801 0.076321 0.000365
0.981440 0.109888 0.000454
0.985260 0.138469 0.000456
0.981677 0.170672 0.000505
0.984839 0.202304 0.000474
0.982563 0.231469 0.000478
0.985981 0.262908 0.000411
0.982971 0.298566 0.000385
0.983589 0.326893 0.000338
0.983465 0.362295 0.000276
0.985139 0.391861 0.000219
0.983416 0.419715 0.000185
0.984475 0.453534 0.000143
0.985603 0.485556 0.000115
0.986298 0.515368 0.000100
0.985851 0.544761 0.000093
0.983299 0.575078 0.000096
0.984004 0.611284 0.000096
0.987082 0.641022 0.000092
0.984794 0.672348 0.000099
0.987424 0.704553 0.000093
0.981945 0.734443 0.000102
0.984028 0.765467 0.000091
0.984656 0.797407 0.000080
0.982178 0.829535 0.000074
0.984534 0.858407 0.000060
0.984924 0.887706 0.000050
0.986931 0.923485 0.000037
0.984425 0.952557 0.000031
0.984145 0.982266 0.000023
